01_Boolean_Logic/10_And16/And16_tb.vcd
$date
	Tue Nov  5 07:38:24 2024
$end
$version
	Icarus Verilog
$end
$timescale
	1ps
$end
$scope module And16_tb $end
$var wire 16 ! out_cmp [15:0] $end
$var wire 16 " out [15:0] $end
$var reg 16 # a [15:0] $end
$var reg 16 $ b [15:0] $end
$var reg 1 % fail $end
$var reg 16 & n [15:0] $end
$scope module AND16 $end
$var wire 16 ' a [15:0] $end
$var wire 16 ( b [15:0] $end
$var wire 16 ) out [15:0] $end
$scope module and0 $end
$var wire 1 * a $end
$var wire 1 + b $end
$var wire 1 , w1 $end
$var wire 1 - out $end
$scope module nand0 $end
$var wire 1 * a $end
$var wire 1 + b $end
$var wire 1 , out $end
$upscope $end
$scope module not0 $end
$var wire 1 , in $end
$var wire 1 - out $end
$upscope $end
$upscope $end
$scope module and1 $end
$var wire 1 . a $end
$var wire 1 / b $end
$var wire 1 0 w1 $end
$var wire 1 1 out $end
$scope module nand0 $end
$var wire 1 . a $end
$var wire 1 / b $end
$var wire 1 0 out $end
$upscope $end
$scope module not0 $end
$var wire 1 0 in $end
$var wire 1 1 out $end
$upscope $end
$upscope $end
$scope module and10 $end
$var wire 1 2 a $end
$var wire 1 3 b $end
$var wire 1 4 w1 $end
$var wire 1 5 out $end
$scope module nand0 $end
$var wire 1 2 a $end
$var wire 1 3 b $end
$var wire 1 4 out $end
$upscope $end
$scope module not0 $end
$var wire 1 4 in $end
$var wire 1 5 out $end
$upscope $end
$upscope $end
$scope module and11 $end
$var wire 1 6 a $end
$var wire 1 7 b $end
$var wire 1 8 w1 $end
$var wire 1 9 out $end
$scope module nand0 $end
$var wire 1 6 a $end
$var wire 1 7 b $end
$var wire 1 8 out $end
$upscope $end
$scope module not0 $end
$var wire 1 8 in $end
$var wire 1 9 out $end
$upscope $end
$upscope $end
$scope module and12 $end
$var wire 1 : a $end
$var wire 1 ; b $end
$var wire 1 < w1 $end
$var wire 1 = out $end
$scope module nand0 $end
$var wire 1 : a $end
$var wire 1 ; b $end
$var wire 1 < out $end
$upscope $end
$scope module not0 $end
$var wire 1 < in $end
$var wire 1 = out $end
$upscope $end
$upscope $end
$scope module and13 $end
$var wire 1 > a $end
$var wire 1 ? b $end
$var wire 1 @ w1 $end
$var wire 1 A out $end
$scope module nand0 $end
$var wire 1 > a $end
$var wire 1 ? b $end
$var wire 1 @ out $end
$upscope $end
$scope module not0 $end
$var wire 1 @ in $end
$var wire 1 A out $end
$upscope $end
$upscope $end
$scope module and14 $end
$var wire 1 B a $end
$var wire 1 C b $end
$var wire 1 D w1 $end
$var wire 1 E out $end
$scope module nand0 $end
$var wire 1 B a $end
$var wire 1 C b $end
$var wire 1 D out $end
$upscope $end
$scope module not0 $end
$var wire 1 D in $end
$var wire 1 E out $end
$upscope $end
$upscope $end
$scope module and15 $end
$var wire 1 F a $end
$var wire 1 G b $end
$var wire 1 H w1 $end
$var wire 1 I out $end
$scope module nand0 $end
$var wire 1 F a $end
$var wire 1 G b $end
$var wire 1 H out $end
$upscope $end
$scope module not0 $end
$var wire 1 H in $end
$var wire 1 I out $end
$upscope $end
$upscope $end
$scope module and2 $end
$var wire 1 J a $end
$var wire 1 K b $end
$var wire 1 L w1 $end
$var wire 1 M out $end
$scope module nand0 $end
$var wire 1 J a $end
$var wire 1 K b $end
$var wire 1 L out $end
$upscope $end
$scope module not0 $end
$var wire 1 L in $end
$var wire 1 M out $end
$upscope $end
$upscope $end
$scope module and3 $end
$var wire 1 N a $end
$var wire 1 O b $end
$var wire 1 P w1 $end
$var wire 1 Q out $end
$scope module nand0 $end
$var wire 1 N a $end
$var wire 1 O b $end
$var wire 1 P out $end
$upscope $end
$scope module not0 $end
$var wire 1 P in $end
$var wire 1 Q out $end
$upscope $end
$upscope $end
$scope module and4 $end
$var wire 1 R a $end
$var wire 1 S b $end
$var wire 1 T w1 $end
$var wire 1 U out $end
$scope module nand0 $end
$var wire 1 R a $end
$var wire 1 S b $end
$var wire 1 T out $end
$upscope $end
$scope module not0 $end
$var wire 1 T in $end
$var wire 1 U out $end
$upscope $end
$upscope $end
$scope module and5 $end
$var wire 1 V a $end
$var wire 1 W b $end
$var wire 1 X w1 $end
$var wire 1 Y out $end
$scope module nand0 $end
$var wire 1 V a $end
$var wire 1 W b $end
$var wire 1 X out $end
$upscope $end
$scope module not0 $end
$var wire 1 X in $end
$var wire 1 Y out $end
$upscope $end
$upscope $end
$scope module and6 $end
$var wire 1 Z a $end
$var wire 1 [ b $end
$var wire 1 \ w1 $end
$var wire 1 ] out $end
$scope module nand0 $end
$var wire 1 Z a $end
$var wire 1 [ b $end
$var wire 1 \ out $end
$upscope $end
$scope module not0 $end
$var wire 1 \ in $end
$var wire 1 ] out $end
$upscope $end
$upscope $end
$scope module and7 $end
$var wire 1 ^ a $end
$var wire 1 _ b $end
$var wire 1 ` w1 $end
$var wire 1 a out $end
$scope module nand0 $end
$var wire 1 ^ a $end
$var wire 1 _ b $end
$var wire 1 ` out $end
$upscope $end
$scope module not0 $end
$var wire 1 ` in $end
$var wire 1 a out $end
$upscope $end
$upscope $end
$scope module and8 $end
$var wire 1 b a $end
$var wire 1 c b $end
$var wire 1 d w1 $end
$var wire 1 e out $end
$scope module nand0 $end
$var wire 1 b a $end
$var wire 1 c b $end
$var wire 1 d out $end
$upscope $end
$scope module not0 $end
$var wire 1 d in $end
$var wire 1 e out $end
$upscope $end
$upscope $end
$scope module and9 $end
$var wire 1 f a $end
$var wire 1 g b $end
$var wire 1 h w1 $end
$var wire 1 i out $end
$scope module nand0 $end
$var wire 1 f a $end
$var wire 1 g b $end
$var wire 1 h out $end
$upscope $end
$scope module not0 $end
$var wire 1 h in $end
$var wire 1 i out $end
$upscope $end
$upscope $end
$upscope $end
$scope task check $end
$upscope $end
$upscope $end
$enddefinitions $end
$comment Show the parameter values. $end
$dumpall
$end
#0
$dumpvars
0i
1h
1g
0f
0e
1d
0c
1b
0a
1`
1_
0^
0]
1\
0[
0Z
0Y
1X
0W
1V
0U
1T
0S
0R
0Q
1P
0O
0N
0M
1L
0K
1J
0I
1H
0G
0F
0E
1D
1C
0B
0A
1@
0?
1>
1=
0<
1;
1:
09
18
17
06
15
04
13
12
01
10
0/
0.
0-
1,
1+
0*
b1010000000000 )
b101111010000001 (
b11010100100100 '
b0 &
0%
b101111010000001 $
b11010100100100 #
b1010000000000 "
b1010000000000 !
$end
#1
1-
1i
b101011000000001 "
b101011000000001 )
1E
0,
0h
0D
1/
1W
1[
0_
07
1*
0J
1N
0V
0b
1f
0>
1B
1F
b101011000000001 !
b101011001100011 $
b101011001100011 (
b1101011000001001 #
b1101011000001001 '
b1 &
#2
1Q
0i
0E
1M
1e
05
b1100100001101 "
b1100100001101 )
19
0P
1h
1D
0L
0d
14
08
0/
1K
1O
0W
0[
1_
1c
0g
03
17
0C
1G
1J
1b
02
16
1>
0F
b1100100001101 !
b1001100110001101 $
b1001100110001101 (
b111101100001101 #
b111101100001101 '
b10 &
#3
0-
0M
0Q
0e
09
b0 "
b0 )
0=
1,
1L
1P
1d
18
1<
0+
1/
0K
0O
1S
0_
0c
1g
07
1C
0G
0N
1V
1Z
0b
0f
12
06
0:
0>
0B
1F
b0 !
b101001000010010 $
b101001000010010 (
b1000010001100101 #
b1000010001100101 '
b11 &
#4
1-
1I
1e
b1100000100000001 "
b1100000100000001 )
1E
0,
0H
0d
0D
1+
0/
1K
1O
0S
1c
0g
13
17
0;
1G
0J
0V
0Z
1b
1f
02
1>
1B
b1100000100000001 !
b1100110100001101 $
b1100110100001101 (
b1110001100000001 #
b1110001100000001 '
b100 &
#5
0-
1M
1U
b1100000100110100 "
b1100000100110100 )
1Y
1,
0L
0T
0X
1S
1W
0*
1.
1J
1R
1V
1Z
0f
1:
b1100000100110100 !
b1100110100111101 $
b1100110100111101 (
b1111000101110110 #
b1111000101110110 '
b101 &
#6
0Y
1=
1Q
0U
1a
1i
15
b101011110001100 "
b101011110001100 )
0I
1X
0<
0P
1T
0`
0h
04
1H
0+
0S
0W
1_
1g
07
1;
1?
1*
0.
1N
0R
1^
1f
12
0>
0F
b101011110001100 !
b1111011110001100 $
b1111011110001100 (
b101011111101101 #
b101011111101101 '
b110 &
#7
0Q
1]
0e
0E
0M
0i
05
0=
b10000011000000 "
b10000011000000 )
1A
1P
0\
1d
1D
1L
1h
14
1<
0@
1/
0O
1[
0c
0g
0;
0C
0G
0J
1R
0f
02
16
0:
1>
1F
b10000011000000 !
b10010011000110 $
b10010011000110 (
b1110100111111001 #
b1110100111111001 '
b111 &
#8
0]
1I
b1000000010000000 "
b1000000010000000 )
0A
1\
0H
1@
0K
1O
1W
0[
1g
03
1;
0?
1C
1G
1J
0N
0R
0V
0b
12
06
0>
0B
b1000000010000000 !
b1101001010101010 $
b1101001010101010 (
b1000010011000101 #
b1000010011000101 '
b1000 &
#9
1-
1M
1]
0a
0I
1Y
1i
1=
1A
b111001001100101 "
b111001001100101 )
1E
0,
0L
0\
1`
1H
0X
0h
0<
0@
0D
1+
1K
0O
1S
1[
0_
1?
0G
1V
1b
1f
1:
1>
1B
b111001001100101 !
b111001001110111 $
b111001001110111 (
b1111011111100101 #
b1111011111100101 '
b1001 &
#10
1I
0-
11
0M
0Y
0]
b1101001000000010 "
b1101001000000010 )
0A
0H
1,
00
1L
1X
1\
1@
1O
0S
0W
0[
1_
1c
17
0?
1G
0*
1.
0J
1R
0V
0Z
0^
0b
0>
b1101001000000010 !
b1101101110001111 $
b1101101110001111 (
b1101011000010010 #
b1101011000010010 '
b1010 &
#11
0E
1]
1a
0i
0=
b11000010 "
b11000010 )
0I
1D
0\
0`
1h
1<
1H
0+
1[
0c
13
07
0C
1V
1Z
1^
1b
0f
02
16
0:
1>
0F
b11000010 !
b1001011011001110 $
b1001011011001110 (
b110100111110010 #
b110100111110010 '
b1011 &
#12
19
1E
01
b100101011000000 "
b100101011000000 )
1i
08
0D
10
0h
1+
0/
0O
17
0;
1C
0G
0.
1N
0R
0b
1f
1:
b100101011000000 !
b100111011000101 $
b100111011000101 (
b111101011101000 #
b111101011101000 '
b1100 &
#13
1Q
0]
0E
1M
1U
0a
b100000011100 "
b100000011100 )
0i
0P
1\
1D
0L
0T
1`
1h
1O
1S
1W
0[
0g
03
1?
0C
1J
1R
0V
0^
1b
0f
0:
0>
b100000011100 !
b10100010111101 $
b10100010111101 (
b100100101011100 #
b100100101011100 '
b1101 &
#14
0Q
09
1-
0U
b100101 "
b100101 )
1Y
1P
18
0,
1T
0X
0O
0S
1[
0_
1g
13
07
1*
0R
1V
0Z
0b
1:
b100101 !
b10011001100101 $
b10011001100101 (
b101100000101101 #
b101100000101101 '
b1110 &
#15
0-
0Y
11
0M
b1000000010 "
b1000000010 )
1i
1,
1X
00
1L
0h
0+
1/
0K
1O
0W
0[
1c
0?
1G
1.
0J
0N
1Z
1f
06
0:
1>
b1000000010 !
b1000011100001010 $
b1000011100001010 (
b110001001100011 #
b110001001100011 '
b1111 &
#16
0i
1A
b10000000000000 "
b10000000000000 )
01
1h
0@
10
0/
0O
1W
0g
03
1?
0G
0*
0.
0V
0Z
1^
0B
b10000000000000 !
b10000100100000 $
b10000100100000 (
b10001010000000 #
b10001010000000 '
b10000 &
#17
1a
1Q
15
0A
b100010010001000 "
b100010010001000 )
1E
0`
0P
04
1@
0D
1+
1K
1O
1S
0W
1_
0c
13
17
0?
1C
1G
1.
1N
1V
1b
0f
12
0>
1B
b100010010001000 !
b1100110010011101 $
b1100110010011101 (
b100010110101010 #
b100010110101010 '
b10001 &
#18
11
0a
05
0Q
1U
19
1=
1A
b11100000010010 "
b11100000010010 )
0E
00
1`
14
1P
0T
08
0<
0@
1D
1/
0K
0O
0_
03
1;
1?
0C
1J
0N
1R
0V
0b
1f
16
1:
1>
0B
b11100000010010 !
b1011100000010011 $
b1011100000010011 (
b11111010010110 #
b11111010010110 '
b10010 &
#19
09
0A
1-
01
b1000000000001 "
b1000000000001 )
0U
18
1@
0,
10
1T
1[
1g
13
07
0?
1C
1*
0.
1N
0R
0^
0f
02
b1000000000001 !
b1101011001010011 $
b1101011001010011 (
b11100000001101 #
b11100000001101 '
b10011 &
#20
19
0=
b100001000001 "
b100001000001 )
1]
08
1<
0\
0/
1K
1_
03
17
0;
1?
0C
0G
1.
0J
1V
1Z
1b
12
0>
1B
1F
b100001000001 !
b10101011010101 $
b10101011010101 (
b1101110101101011 #
b1101110101101011 '
b10100 &
#21
11
0-
0]
b101000000010 "
b101000000010 )
1i
00
1,
1\
0h
0+
1/
1O
0S
1W
0[
13
1;
0*
0N
0V
0Z
0b
1f
02
0:
0F
b101000000010 !
b11111010101110 $
b11111010101110 (
b100101000000010 #
b100101000000010 '
b10101 &
#22
09
1E
1-
01
1M
1Q
0i
b110000000001101 "
b110000000001101 )
1A
18
0D
0,
10
0L
0P
1h
0@
1+
0W
1[
03
07
1C
1*
0.
1J
1N
1R
1b
0f
1>
1F
b110000000001101 !
b111001011001111 $
b111001011001111 (
b1110100100011101 #
b1110100100011101 '
b10110 &
#23
0-
1e
11
0M
0Q
b100000100000010 "
b100000100000010 )
0A
1,
0d
00
1L
1P
1@
0+
0K
0[
0_
1c
0g
13
0;
1.
0J
0N
0R
1V
0>
0F
b100000100000010 !
b110010100001010 $
b110010100001010 (
b100100100100011 #
b100100100100011 '
b10111 &
#24
01
19
1Q
0e
b100000001000 "
b100000001000 )
0E
10
08
0P
1d
1D
0/
1K
1S
1W
0c
17
0?
0*
1N
0V
1Z
1^
0b
1f
0B
b100000001000 !
b100110000111100 $
b100110000111100 (
b101011001010 #
b101011001010 '
b11000 &
#25
11
1a
09
0Q
1e
b10000110000010 "
b10000110000010 )
1A
00
0`
18
1P
0d
0@
1/
0K
0S
0W
1_
1c
03
07
1?
0N
1R
1V
1b
0f
12
1:
1>
1F
b10000110000010 !
b110000110001010 $
b110000110001010 (
b1011110111110010 #
b1011110111110010 '
b11001 &
#26
1]
0e
1=
01
b11000001000000 "
b11000001000000 )
0a
0\
1d
0<
10
1`
0/
1S
1[
0c
13
1;
0C
1*
0.
0R
0V
0^
1f
02
06
b11000001000000 !
b11010011011000 $
b11010011011000 (
b1011001101000001 #
b1011001101000001 '
b11010 &
#27
0]
1i
0A
b1001000001000 "
b1001000001000 )
1Q
1\
0h
1@
0P
1+
0S
0[
1g
03
0?
0*
1N
1R
1V
1B
b1001000001000 !
b1001010001001 $
b1001010001001 (
b1111001101111000 #
b1111001101111000 '
b11011 &
#28
0Q
1Y
1e
11
1a
0i
15
b10110100010 "
b10110100010 )
0=
1P
0X
0d
00
0`
1h
04
1<
0+
1/
1K
0O
1S
1W
1c
0g
13
0;
1?
1C
1*
1.
0R
1^
0f
12
16
0:
0>
0B
0F
b10110100010 !
b110010110110110 $
b110010110110110 (
b110111101011 #
b110111101011 '
b11100 &
#29
1M
0Y
05
b1000110000110 "
b1000110000110 )
1=
0L
1X
14
0<
1O
0S
1g
03
1;
0?
0C
0*
1J
0N
0V
02
1:
1>
1B
1F
b1000110000110 !
b1001110101110 $
b1001110101110 (
b1111100111000110 #
b1111100111000110 '
b11101 &
#30
0M
0a
01
1Q
1Y
0e
b101000 "
b101000 )
0=
1L
1`
10
0P
0X
1d
1<
0K
0_
0g
13
17
1C
1G
0.
1N
1R
1V
0Z
0b
1f
06
0:
0>
0B
0F
b101000 !
b1101110100101010 $
b1101110100101010 (
b1010111100 #
b1010111100 '
b11110 &
#31
0Q
1i
1-
0Y
19
1=
b1001101000000001 "
b1001101000000001 )
1I
1P
0h
0,
1X
08
0<
0H
1+
0/
0O
1S
1[
0c
1g
1?
0C
1*
1.
0J
0R
0V
0^
16
1:
1F
b1001101000000001 !
b1011111001110001 $
b1011111001110001 (
b1001101000001011 #
b1001101000001011 '
b11111 &
#32
1M
1e
0i
09
0=
1E
b100000100000101 "
b100000100000101 )
0I
0L
0d
1h
18
1<
0D
1H
1/
1K
1O
0S
0W
1c
0g
07
0?
1C
0G
0.
1J
0N
1^
1b
0f
06
0:
1B
0F
b100000100000101 !
b101010101001111 $
b101010101001111 (
b100000110000101 #
b100000110000101 '
b100000 &
#33
0-
0E
11
0M
1Q
1U
1Y
0e
b10000000111010 "
b10000000111010 )
1A
1,
1D
00
1L
0P
0T
0X
1d
0@
0+
0K
1S
1W
0[
1g
03
1?
0C
1.
0J
1N
1R
1V
0^
0b
1>
b10000000111010 !
b11001100111010 $
b11001100111010 (
b110000000111011 #
b110000000111011 '
b100001 &
#34
01
0Q
0Y
0A
1M
b1000010100 "
b1000010100 )
1i
10
1P
1X
1@
0L
0h
1+
0/
1K
0O
0W
17
0;
0?
1C
0*
1J
1Z
1f
1:
0B
b1000010100 !
b100101100010101 $
b100101100010101 (
b11001001111110 #
b11001001111110 '
b100010 &
#35
1]
1-
0M
1a
1e
b101111010001 "
b101111010001 )
19
0\
0,
1L
0`
0d
08
0K
1O
1[
1_
1*
0.
0J
0N
1^
1b
16
0>
1F
b101111010001 !
b100101111011001 $
b100101111011001 (
b1001101111110001 #
b1001101111110001 '
b100011 &
#36
0-
0U
0a
b1101000000 "
b1101000000 )
09
1,
1T
1`
18
0+
1K
0S
0_
1;
1?
1G
0*
1.
0R
0^
12
06
0:
0F
b1101000000 !
b1111101101001100 $
b1111101101001100 (
b11101100010 #
b11101100010 '
b100100 &
#37
11
1-
1M
1Q
0]
1a
b110001111 "
b110001111 )
0i
00
0,
0L
0P
1\
0`
1h
1+
1/
0[
1_
0g
07
0;
0C
1*
1J
1N
1R
0V
0Z
1^
0f
1:
1B
b110001111 !
b1010000110001111 $
b1010000110001111 (
b101010110011111 #
b101010110011111 '
b100101 &
#38
0Q
1U
0e
0-
01
0M
1Y
b10000010110000 "
b10000010110000 )
1A
1P
0T
1d
1,
10
1L
0X
0@
0O
1S
1W
0c
1C
0G
0*
0.
0J
1V
1Z
02
16
0:
1>
0B
1F
b10000010110000 !
b110000010110111 $
b110000010110111 (
b1010100111111000 #
b1010100111111000 '
b100110 &
#39
1Q
0a
1M
0Y
15
1=
b1010000011100 "
b1010000011100 )
0A
0P
1`
0L
1X
04
0<
1@
0+
0/
1O
0W
1[
0_
13
1;
0?
0C
1G
1*
1.
1J
0V
0Z
0b
1f
12
06
1:
0>
1B
0F
b1010000011100 !
b1001010001011100 $
b1001010001011100 (
b101011010011111 #
b101011010011111 '
b100111 &
#40
1-
0U
0M
05
b1001 "
b1001 )
0=
0,
1T
1L
14
1<
1+
0K
0S
0[
1_
1c
1g
1?
0G
0J
1Z
0^
0f
02
0:
1F
b1001 !
b11011110001001 $
b11011110001001 (
b1100000001011011 #
b1100000001011011 '
b101000 &
#41
0-
0Q
1]
1i
1=
b11001001000000 "
b11001001000000 )
1A
1,
1P
0\
0h
0<
0@
0+
0O
1S
1[
0c
17
0.
0R
1f
1:
1>
0B
0F
b11001001000000 !
b11111011010000 $
b11111011010000 (
b11001001001001 #
b11001001001001 '
b101001 &
#42
1-
1U
0i
0=
0A
1E
b1100000001010001 "
b1100000001010001 )
1I
0,
0T
1h
1<
1@
0D
0H
1+
0_
0g
1C
1G
1.
1J
0N
1R
1^
0f
0:
0>
1B
1F
b1100000001010001 !
b1111110001010001 $
b1111110001010001 (
b1100000011010111 #
b1100000011010111 '
b101010 &
#43
1M
0U
0-
0]
1e
1i
15
19
1A
0E
b10111100000100 "
b10111100000100 )
0I
0L
1T
1,
1\
0d
0h
04
08
0@
1D
1H
0+
1K
1O
0S
0[
1c
1g
0G
0*
0Z
1b
1f
12
16
1>
0B
0F
b10111100000100 !
b111111100001100 $
b111111100001100 (
b10111110010110 #
b10111110010110 '
b101011 &
#44
1a
0i
0M
1]
0e
0A
1E
b1100110011000000 "
b1100110011000000 )
1I
0`
1h
1L
0\
1d
1@
0D
0H
0K
1[
1_
0g
0;
1G
0J
0R
1Z
0b
0>
1B
1F
b1100110011000000 !
b1110110111001000 $
b1110110111001000 (
b1100111011000010 #
b1100111011000010 '
b101100 &
#45
0]
1-
1M
1U
1Y
0a
05
b100100000110101 "
b100100000110101 )
0I
1\
0,
0L
0T
0X
1`
14
1H
1+
1K
1S
1W
0[
0_
1*
1J
1R
1V
0^
02
1:
0F
b100100000110101 !
b1110110100111101 $
b1110110100111101 (
b101101001110111 #
b101101001110111 '
b101101 &
#46
11
09
0E
0-
0M
b10010 "
b10010 )
0Y
00
18
1D
1,
1L
1X
0+
1/
1[
0c
03
07
0?
0C
0G
0*
0J
0V
0Z
1b
1F
b10010 !
b1111110 $
b1111110 (
b1101101100010010 #
b1101101100010010 '
b101110 &
#47
1e
1I
1-
01
1Q
0U
b1000000100101001 "
b1000000100101001 )
1Y
0d
0H
0,
10
0P
1T
0X
1+
0/
0K
0[
1c
1g
13
1?
1C
1G
1*
0.
1J
1N
0R
1V
1Z
0f
06
0:
0B
b1000000100101001 !
b1110011100111001 $
b1110011100111001 (
b1000000101101101 #
b1000000101101101 '
b101111 &
#48
0Q
0e
11
1U
0Y
1i
b1000011000010011 "
b1000011000010011 )
15
1P
1d
00
0T
1X
0h
04
1/
0O
0W
1[
1_
0c
1;
1.
1R
0V
0Z
1f
12
16
b1000011000010011 !
b1111011011010011 $
b1111011011010011 (
b1000111100011111 #
b1000111100011111 '
b110000 &
#49
0-
0i
05
19
01
0U
b100000000000 "
b100000000000 )
0I
1,
1h
14
08
10
1T
1H
0+
0/
1O
1W
0_
0g
03
17
0;
0?
0C
0.
0N
0R
1^
1>
0F
b100000000000 !
b1000100001111000 $
b1000100001111000 (
b10111110000101 #
b10111110000101 '
b110001 &
#50
1-
1e
1Q
1]
b100100101001001 "
b100100101001001 )
1E
0,
0d
0P
0\
0D
1+
0S
0W
1c
1g
1C
0G
1.
0J
1N
1R
1Z
0^
0f
02
1:
0>
1B
b100100101001001 !
b100101101001001 $
b100101101001001 (
b101100101011011 #
b101100101011011 '
b110010 &
#51
0-
11
1Y
0]
0e
1i
15
1A
0E
b1010111000101010 "
b1010111000101010 )
1I
1,
00
0X
1\
1d
0h
04
0@
1D
0H
0+
1/
1W
0[
13
1?
0C
1G
1J
1V
0Z
0b
1f
12
0:
1>
0B
1F
b1010111000101010 !
b1010111100101010 $
b1010111100101010 (
b1010111000111111 #
b1010111000111111 '
b110011 &
#52
0Q
0i
01
0Y
05
09
b10000000000000 "
b10000000000000 )
0I
1P
1h
10
1X
14
18
1H
1K
0O
0W
1_
0c
0g
03
1;
0G
0*
0.
0J
0V
1Z
1b
02
06
1B
0F
b10000000000000 !
b11100010000110 $
b11100010000110 (
b110001101011000 #
b110001101011000 '
b110100 &
#53
1Q
1M
1a
b10001100 "
b10001100 )
0A
0P
0L
0`
1@
0/
1O
1S
1g
07
1C
1G
1.
1J
0R
0Z
1^
0b
0f
12
16
0>
0B
b10001100 !
b1111001010011100 $
b1111001010011100 (
b110010001110 #
b110010001110 '
b110101 &
#54
11
0Q
0a
19
0M
1Y
1=
b1001100000100010 "
b1001100000100010 )
1I
00
1P
1`
08
1L
0X
0<
0H
1/
0O
0S
1W
0_
0g
13
17
0C
0J
1R
1V
1Z
1b
02
1:
1F
b1001100000100010 !
b1011110000100110 $
b1011110000100110 (
b1001100111111010 #
b1001100111111010 '
b110110 &
#55
1-
15
09
b1010000100011 "
b1010000100011 )
0I
0,
04
18
1H
1+
0K
1_
07
1*
0N
0^
1f
12
06
0F
b1010000100011 !
b1011010010100011 $
b1011010010100011 (
b1011101110011 #
b1011101110011 '
b110111 &
#56
05
0=
b1000000000100011 "
b1000000000100011 )
1I
14
1<
0H
1S
1g
03
0?
1J
1N
0R
0Z
0b
0f
02
16
0:
1>
1F
b1000000000100011 !
b1001001010110011 $
b1001001010110011 (
b1010100000101111 #
b1010100000101111 '
b111000 &
#57
0-
01
1M
0Y
1]
15
b10001000100 "
b10001000100 )
0I
1,
10
0L
1X
0\
04
1H
0+
0/
1K
0S
0W
1[
0_
1c
0g
13
17
0;
0G
1R
0V
1Z
1f
12
06
1:
0>
1B
0F
b10001000100 !
b110101000100 $
b110101000100 (
b101011001011111 #
b101011001011111 '
b111001 &
#58
1-
11
0M
1=
1a
b11010011000011 "
b11010011000011 )
1A
0,
00
1L
0<
0`
0@
1+
1/
0K
1O
1_
0c
1g
07
1;
1?
0N
1V
1^
1b
0f
16
1>
1F
b11010011000011 !
b11011011001011 $
b11011011001011 (
b1111110111110111 #
b1111110111110111 '
b111010 &
#59
0a
19
0-
1i
05
b1101001000010 "
b1101001000010 )
0A
1`
08
1,
0h
14
1@
0+
1S
0_
1c
03
17
0?
1C
1G
0*
0R
0b
1f
02
0>
0B
0F
b1101001000010 !
b1101101101011010 $
b1101101101011010 (
b1101011100110 #
b1101011100110 '
b111011 &
#60
1Y
1-
01
1Q
0]
0i
09
0=
1E
b1100000000101001 "
b1100000000101001 )
1I
0X
0,
10
0P
1\
1h
18
1<
0D
0H
1+
0/
1K
0S
1W
1_
0c
07
0;
1?
1*
0.
0J
1N
0Z
0^
1b
0f
06
0:
1B
1F
b1100000000101001 !
b1110001011101101 $
b1110001011101101 (
b1100000100101001 #
b1100000100101001 '
b111100 &
#61
0Q
0E
0-
0Y
1]
15
1A
b10010001000000 "
b10010001000000 )
0I
1P
1D
1,
1X
0\
04
0@
1H
0O
0_
13
1;
0C
0*
1.
1R
0V
1Z
1^
0b
12
16
1>
0F
b10010001000000 !
b1011011001100101 $
b1011011001100101 (
b110110011011010 #
b110110011011010 '
b111101 &
#62
1U
1a
0A
1-
1M
0]
05
b1000000010010101 "
b1000000010010101 )
1I
0T
0`
1@
0,
0L
1\
14
0H
1/
1O
1S
0W
1_
0g
0?
1*
0.
1J
0N
1V
0Z
1f
02
06
1F
b1000000010010101 !
b1001010011011111 $
b1001010011011111 (
b1110001010110101 #
b1110001010110101 '
b111110 &
#63
0-
0U
0M
1]
0a
1e
19
1=
b1100101000000 "
b1100101000000 )
0I
1,
1T
1L
0\
1`
0d
08
0<
1H
0+
0/
0O
0S
0_
1c
1g
17
1?
1C
0J
1N
1Z
0^
1b
0f
16
1:
0>
0B
0F
b1100101000000 !
b1111111101000100 $
b1111111101000100 (
b1100101111001 #
b1100101111001 '
b111111 &
#64
0]
0e
b100000000000 "
b100000000000 )
0=
1\
1d
1<
1/
0K
1O
1W
0[
03
0;
0?
0C
0G
0*
0N
0V
1^
0b
12
0:
b100000000000 !
b101100101010 $
b101100101010 (
b110011010000 #
b110011010000 '
b1000000 &
#65
15
11
1Q
1e
b1000110100001010 "
b1000110100001010 )
1I
04
00
0P
0d
0H
1K
0W
13
1C
1G
1*
1.
1N
0R
1V
0Z
1b
1>
1F
b1000110100001010 !
b1100111100001110 $
b1100111100001110 (
b1010110110101011 #
b1010110110101011 '
b1000001 &
#66
1a
0e
1A
01
b1010110010011000 "
b1010110010011000 )
1U
0`
1d
0@
10
0T
0K
1S
1_
0c
0g
1;
1?
0C
0*
0.
1J
1R
0V
1Z
b1010110010011000 !
b1011110010011010 $
b1011110010011010 (
b1010110111011100 #
b1010110111011100 '
b1000010 &
#67
0Q
0U
1]
0A
1-
1i
05
09
b1011000001 "
b1011000001 )
0I
1P
1T
0\
1@
0,
0h
14
18
1H
1+
0O
0S
1[
1g
03
07
0;
0?
0G
1*
1V
0b
1f
02
06
1:
1B
0F
b1011000001 !
b1011000011 $
b1011000011 (
b111001011111101 #
b111001011111101 '
b1000011 &
#68
1M
1A
1E
0-
11
0a
1e
0i
19
b1110100101000110 "
b1110100101000110 )
1I
0L
0@
0D
1,
00
1`
0d
1h
08
0H
0+
1K
1O
0_
1c
0g
17
1?
1C
1G
0*
1.
0N
0V
0^
1b
0f
12
16
0:
1F
b1110100101000110 !
b1110100101001110 $
b1110100101001110 (
b1110110101010110 #
b1110110101010110 '
b1000100 &
#69
0M
0]
15
0E
0e
09
1=
b11010000000010 "
b11010000000010 )
0I
1L
1\
04
1D
1d
18
0<
1H
0K
0[
0c
13
07
1;
0C
0G
1*
0R
1V
0b
1f
06
1:
0F
b11010000000010 !
b11010000001010 $
b11010000001010 (
b111011001100111 #
b111011001100111 '
b1000101 &
#70
01
1Y
0=
0A
1U
05
19
b1000100000110000 "
b1000100000110000 )
1I
10
0X
1<
1@
0T
14
08
0H
0/
1S
1W
1g
03
17
0;
0?
1G
0*
1R
0Z
1^
1b
0f
02
16
0B
1F
b1000100000110000 !
b1000101000111000 $
b1000101000111000 (
b1011100110110110 #
b1011100110110110 '
b1000110 &
#71
1Q
15
b1000010000111000 "
b1000010000111000 )
09
0P
04
18
1_
0g
13
07
1C
1*
0.
0J
1N
1Z
0^
1f
12
06
0:
0>
b1000010000111000 !
b1100010010111000 $
b1100010010111000 (
b1000011101111001 #
b1000011101111001 '
b1000111 &
#72
1e
0I
0Q
0Y
1a
19
b1110110010000 "
b1110110010000 )
1=
0d
1H
1P
1X
0`
08
0<
1+
1/
0O
0W
1c
17
1;
0G
0*
1J
0N
0V
0Z
1^
16
1:
1>
b1110110010000 !
b101110110010011 $
b101110110010011 (
b1011111110010100 #
b1011111110010100 '
b1001000 &
#73
05
0U
0a
0e
b100000000000 "
b100000000000 )
0=
14
1T
1`
1d
1<
0/
1O
1[
0_
0c
1g
03
0;
1G
0R
0^
0b
0f
0:
0F
b100000000000 !
b1100101001011001 $
b1100101001011001 (
b10110000000100 #
b10110000000100 '
b1001001 &
#74
1-
1Q
1]
b100100001001001 "
b100100001001001 )
1E
0,
0P
0\
0D
1K
0S
13
1;
1*
1.
0J
1N
1R
1Z
1^
1b
02
1B
b100100001001001 !
b1101111001001101 $
b1101111001001101 (
b110100111011011 #
b110100111011011 '
b1001010 &
