Logic gates/10_And16/And16_tb.vcd
$date
	Mon Oct 21 10:29:29 2024
$end
$version
	Icarus Verilog
$end
$timescale
	1ps
$end
$scope module And16_tb $end
$var wire 16 ! out [15:0] $end
$var wire 16 " out_cmp [15:0] $end
$var reg 16 # a [15:0] $end
$var reg 16 $ b [15:0] $end
$var reg 1 % fail $end
$var reg 16 & n [15:0] $end
$scope module AND16 $end
$var wire 16 ' a [15:0] $end
$var wire 16 ( b [15:0] $end
$var wire 16 ) out [15:0] $end
$upscope $end
$scope task check $end
$upscope $end
$upscope $end
$enddefinitions $end
$comment Show the parameter values. $end
$dumpall
$end
#0
$dumpvars
bz )
b101111010000001 (
b11010100100100 '
b0 &
0%
b101111010000001 $
b11010100100100 #
b1010000000000 "
bz !
$end
#1
b101011000000001 "
b101011001100011 $
b101011001100011 (
b1101011000001001 #
b1101011000001001 '
b1 &
#2
b1100100001101 "
b1001100110001101 $
b1001100110001101 (
b111101100001101 #
b111101100001101 '
b10 &
#3
b0 "
b101001000010010 $
b101001000010010 (
b1000010001100101 #
b1000010001100101 '
b11 &
#4
b1100000100000001 "
b1100110100001101 $
b1100110100001101 (
b1110001100000001 #
b1110001100000001 '
b100 &
#5
b1100000100110100 "
b1100110100111101 $
b1100110100111101 (
b1111000101110110 #
b1111000101110110 '
b101 &
#6
b101011110001100 "
b1111011110001100 $
b1111011110001100 (
b101011111101101 #
b101011111101101 '
b110 &
#7
b10000011000000 "
b10010011000110 $
b10010011000110 (
b1110100111111001 #
b1110100111111001 '
b111 &
#8
b1000000010000000 "
b1101001010101010 $
b1101001010101010 (
b1000010011000101 #
b1000010011000101 '
b1000 &
#9
b111001001100101 "
b111001001110111 $
b111001001110111 (
b1111011111100101 #
b1111011111100101 '
b1001 &
#10
b1101001000000010 "
b1101101110001111 $
b1101101110001111 (
b1101011000010010 #
b1101011000010010 '
b1010 &
#11
b11000010 "
b1001011011001110 $
b1001011011001110 (
b110100111110010 #
b110100111110010 '
b1011 &
#12
b100101011000000 "
b100111011000101 $
b100111011000101 (
b111101011101000 #
b111101011101000 '
b1100 &
#13
b100000011100 "
b10100010111101 $
b10100010111101 (
b100100101011100 #
b100100101011100 '
b1101 &
#14
b100101 "
b10011001100101 $
b10011001100101 (
b101100000101101 #
b101100000101101 '
b1110 &
#15
b1000000010 "
b1000011100001010 $
b1000011100001010 (
b110001001100011 #
b110001001100011 '
b1111 &
#16
b10000000000000 "
b10000100100000 $
b10000100100000 (
b10001010000000 #
b10001010000000 '
b10000 &
#17
b100010010001000 "
b1100110010011101 $
b1100110010011101 (
b100010110101010 #
b100010110101010 '
b10001 &
#18
b11100000010010 "
b1011100000010011 $
b1011100000010011 (
b11111010010110 #
b11111010010110 '
b10010 &
#19
b1000000000001 "
b1101011001010011 $
b1101011001010011 (
b11100000001101 #
b11100000001101 '
b10011 &
#20
b100001000001 "
b10101011010101 $
b10101011010101 (
b1101110101101011 #
b1101110101101011 '
b10100 &
#21
b101000000010 "
b11111010101110 $
b11111010101110 (
b100101000000010 #
b100101000000010 '
b10101 &
#22
b110000000001101 "
b111001011001111 $
b111001011001111 (
b1110100100011101 #
b1110100100011101 '
b10110 &
#23
b100000100000010 "
b110010100001010 $
b110010100001010 (
b100100100100011 #
b100100100100011 '
b10111 &
#24
b100000001000 "
b100110000111100 $
b100110000111100 (
b101011001010 #
b101011001010 '
b11000 &
#25
b10000110000010 "
b110000110001010 $
b110000110001010 (
b1011110111110010 #
b1011110111110010 '
b11001 &
#26
b11000001000000 "
b11010011011000 $
b11010011011000 (
b1011001101000001 #
b1011001101000001 '
b11010 &
#27
b1001000001000 "
b1001010001001 $
b1001010001001 (
b1111001101111000 #
b1111001101111000 '
b11011 &
#28
b10110100010 "
b110010110110110 $
b110010110110110 (
b110111101011 #
b110111101011 '
b11100 &
#29
b1000110000110 "
b1001110101110 $
b1001110101110 (
b1111100111000110 #
b1111100111000110 '
b11101 &
#30
b101000 "
b1101110100101010 $
b1101110100101010 (
b1010111100 #
b1010111100 '
b11110 &
#31
b1001101000000001 "
b1011111001110001 $
b1011111001110001 (
b1001101000001011 #
b1001101000001011 '
b11111 &
#32
b100000100000101 "
b101010101001111 $
b101010101001111 (
b100000110000101 #
b100000110000101 '
b100000 &
#33
b10000000111010 "
b11001100111010 $
b11001100111010 (
b110000000111011 #
b110000000111011 '
b100001 &
#34
b1000010100 "
b100101100010101 $
b100101100010101 (
b11001001111110 #
b11001001111110 '
b100010 &
#35
b101111010001 "
b100101111011001 $
b100101111011001 (
b1001101111110001 #
b1001101111110001 '
b100011 &
#36
b1101000000 "
b1111101101001100 $
b1111101101001100 (
b11101100010 #
b11101100010 '
b100100 &
#37
b110001111 "
b1010000110001111 $
b1010000110001111 (
b101010110011111 #
b101010110011111 '
b100101 &
#38
b10000010110000 "
b110000010110111 $
b110000010110111 (
b1010100111111000 #
b1010100111111000 '
b100110 &
#39
b1010000011100 "
b1001010001011100 $
b1001010001011100 (
b101011010011111 #
b101011010011111 '
b100111 &
#40
b1001 "
b11011110001001 $
b11011110001001 (
b1100000001011011 #
b1100000001011011 '
b101000 &
#41
b11001001000000 "
b11111011010000 $
b11111011010000 (
b11001001001001 #
b11001001001001 '
b101001 &
#42
b1100000001010001 "
b1111110001010001 $
b1111110001010001 (
b1100000011010111 #
b1100000011010111 '
b101010 &
#43
b10111100000100 "
b111111100001100 $
b111111100001100 (
b10111110010110 #
b10111110010110 '
b101011 &
#44
b1100110011000000 "
b1110110111001000 $
b1110110111001000 (
b1100111011000010 #
b1100111011000010 '
b101100 &
#45
b100100000110101 "
b1110110100111101 $
b1110110100111101 (
b101101001110111 #
b101101001110111 '
b101101 &
#46
b10010 "
b1111110 $
b1111110 (
b1101101100010010 #
b1101101100010010 '
b101110 &
#47
b1000000100101001 "
b1110011100111001 $
b1110011100111001 (
b1000000101101101 #
b1000000101101101 '
b101111 &
#48
b1000011000010011 "
b1111011011010011 $
b1111011011010011 (
b1000111100011111 #
b1000111100011111 '
b110000 &
#49
b100000000000 "
b1000100001111000 $
b1000100001111000 (
b10111110000101 #
b10111110000101 '
b110001 &
#50
b100100101001001 "
b100101101001001 $
b100101101001001 (
b101100101011011 #
b101100101011011 '
b110010 &
#51
b1010111000101010 "
b1010111100101010 $
b1010111100101010 (
b1010111000111111 #
b1010111000111111 '
b110011 &
#52
b10000000000000 "
b11100010000110 $
b11100010000110 (
b110001101011000 #
b110001101011000 '
b110100 &
#53
b10001100 "
b1111001010011100 $
b1111001010011100 (
b110010001110 #
b110010001110 '
b110101 &
#54
b1001100000100010 "
b1011110000100110 $
b1011110000100110 (
b1001100111111010 #
b1001100111111010 '
b110110 &
#55
b1010000100011 "
b1011010010100011 $
b1011010010100011 (
b1011101110011 #
b1011101110011 '
b110111 &
#56
b1000000000100011 "
b1001001010110011 $
b1001001010110011 (
b1010100000101111 #
b1010100000101111 '
b111000 &
#57
b10001000100 "
b110101000100 $
b110101000100 (
b101011001011111 #
b101011001011111 '
b111001 &
#58
b11010011000011 "
b11011011001011 $
b11011011001011 (
b1111110111110111 #
b1111110111110111 '
b111010 &
#59
b1101001000010 "
b1101101101011010 $
b1101101101011010 (
b1101011100110 #
b1101011100110 '
b111011 &
#60
b1100000000101001 "
b1110001011101101 $
b1110001011101101 (
b1100000100101001 #
b1100000100101001 '
b111100 &
#61
b10010001000000 "
b1011011001100101 $
b1011011001100101 (
b110110011011010 #
b110110011011010 '
b111101 &
#62
b1000000010010101 "
b1001010011011111 $
b1001010011011111 (
b1110001010110101 #
b1110001010110101 '
b111110 &
#63
b1100101000000 "
b1111111101000100 $
b1111111101000100 (
b1100101111001 #
b1100101111001 '
b111111 &
#64
b100000000000 "
b101100101010 $
b101100101010 (
b110011010000 #
b110011010000 '
b1000000 &
#65
b1000110100001010 "
b1100111100001110 $
b1100111100001110 (
b1010110110101011 #
b1010110110101011 '
b1000001 &
#66
b1010110010011000 "
b1011110010011010 $
b1011110010011010 (
b1010110111011100 #
b1010110111011100 '
b1000010 &
#67
b1011000001 "
b1011000011 $
b1011000011 (
b111001011111101 #
b111001011111101 '
b1000011 &
#68
b1110100101000110 "
b1110100101001110 $
b1110100101001110 (
b1110110101010110 #
b1110110101010110 '
b1000100 &
#69
b11010000000010 "
b11010000001010 $
b11010000001010 (
b111011001100111 #
b111011001100111 '
b1000101 &
#70
b1000100000110000 "
b1000101000111000 $
b1000101000111000 (
b1011100110110110 #
b1011100110110110 '
b1000110 &
#71
b1000010000111000 "
b1100010010111000 $
b1100010010111000 (
b1000011101111001 #
b1000011101111001 '
b1000111 &
#72
b1110110010000 "
b101110110010011 $
b101110110010011 (
b1011111110010100 #
b1011111110010100 '
b1001000 &
#73
b100000000000 "
b1100101001011001 $
b1100101001011001 (
b10110000000100 #
b10110000000100 '
b1001001 &
#74
b100100001001001 "
b1101111001001101 $
b1101111001001101 (
b110100111011011 #
b110100111011011 '
b1001010 &
#75
b10011001001001 "
b10011001101101 $
b10011001101101 (
b1011011111011001 #
b1011011111011001 '
b1001011 &
#76
b100000001000010 "
b100100111001010 $
b100100111001010 (
b1110001001110110 #
b1110001001110110 '
b1001100 &
#77
b10000110010100 "
b111000110010101 $
b111000110010101 (
b10110110110110 #
b10110110110110 '
b1001101 &
#78
b1101000000100 "
b1001101100000100 $
b1001101100000100 (
b1101001000110 #
b1101001000110 '
b1001110 &
#79
b101100001 "
b11101101001 $
b11101101001 (
b110000111110111 #
b110000111110111 '
b1001111 &
#80
b1000100010000000 "
b1000110110001000 $
b1000110110001000 (
b1011101010110100 #
b1011101010110100 '
b1010000 &
#81
b101000 "
b10000101101 $
b10000101101 (
b1101100100101000 #
b1101100100101000 '
b1010001 &
#82
b1000000000110 "
b1001110000101110 $
b1001110000101110 (
b11000011000111 #
b11000011000111 '
b1010010 &
#83
b100010000001000 "
b100010100011100 $
b100010100011100 (
b1110010000001000 #
b1110010000001000 '
b1010011 &
#84
b11000101001 "
b11100101001 $
b11100101001 (
b1010011011111101 #
b1010011011111101 '
b1010100 &
#85
b100 "
b110011110000110 $
b110011110000110 (
b1001000000011100 #
b1001000000011100 '
b1010101 &
#86
b11000 "
b1100011000111101 $
b1100011000111101 (
b100011011010 #
b100011011010 '
b1010110 &
#87
b1000010001100000 "
b1100010001110000 $
b1100010001110000 (
b1010011101100110 #
b1010011101100110 '
b1010111 &
#88
b110010 "
b1001100110111010 $
b1001100110111010 (
b10001110011 #
b10001110011 '
b1011000 &
#89
b11000101011010 "
b111100111111010 $
b111100111111010 (
b1011001101011110 #
b1011001101011110 '
b1011001 &
#90
b10000010000 "
b1111011000011010 $
b1111011000011010 (
b10111010101 #
b10111010101 '
b1011010 &
#91
b110001 "
b110000100110111 $
b110000100110111 (
b10111001 #
b10111001 '
b1011011 &
#92
b10000110000000 "
b10000111000000 $
b10000111000000 (
b11011110010110 #
b11011110010110 '
b1011100 &
#93
b1101000100110 "
b1101010110110 $
b1101010110110 (
b1001111100100110 #
b1001111100100110 '
b1011101 &
#94
b1101011100 "
b111111011100 $
b111111011100 (
b1000001101111101 #
b1000001101111101 '
b1011110 &
#95
b101011100000000 "
b1111111101111000 $
b1111111101111000 (
b101011110000110 #
b101011110000110 '
b1011111 &
#96
b1000000001011010 "
b1000000011011011 $
b1000000011011011 (
b1001101101111110 #
b1001101101111110 '
b1100000 &
#97
b10001001001001 "
b10101101111001 $
b10101101111001 (
b1011011011001111 #
b1011011011001111 '
b1100001 &
#98
b1110010001100000 "
b1110111001100001 $
b1110111001100001 (
b1110010011111010 #
b1110010011111010 '
b1100010 &
#99
b100000000001 "
b111100010100001 $
b111100010100001 (
b100100010111 #
b100100010111 '
b1100011 &
#100
b1001000000000000 "
b1001011001010000 $
b1001011001010000 (
b1001000110000110 #
b1001000110000110 '
b1100100 &
#101
b100000110101 "
b1000100000110101 $
b1000100000110101 (
b101100111110101 #
b101100111110101 '
b1100101 &
#102
b1 "
b111010111000001 $
b111010111000001 (
b1000101000101001 #
b1000101000101001 '
b1100110 &
#103
b11010010000000 "
b1011010010011000 $
b1011010010011000 (
b111010011000101 #
b111010011000101 '
b1100111 &
#104
b100001001000011 "
b100001001110011 $
b100001001110011 (
b111101101001011 #
b111101101001011 '
b1101000 &
#105
b11010001000 "
b1011010001010 $
b1011010001010 (
b1110011011101100 #
b1110011011101100 '
b1101001 &
#106
b1000000000001000 "
b1000000010101000 $
b1000000010101000 (
b1101000101001110 #
b1101000101001110 '
b1101010 &
#107
b1000110010100001 "
b1000110010100001 $
b1000110010100001 (
b1111110110101001 #
b1111110110101001 '
b1101011 &
#108
b10000000000110 "
b110011011100110 $
b110011011100110 (
b1011100100001110 #
b1011100100001110 '
b1101100 &
#109
b1000000000001010 "
b1011010100101010 $
b1011010100101010 (
b1100000010011111 #
b1100000010011111 '
b1101101 &
#110
b1010000001000 "
b1111010010001101 $
b1111010010001101 (
b1110100101010 #
b1110100101010 '
b1101110 &
#111
b1110011000011000 "
b1110011000111000 $
b1110011000111000 (
b1111111110011110 #
b1111111110011110 '
b1101111 &
#112
b1010000001001000 "
b1110001111001000 $
b1110001111001000 (
b1010100001111001 #
b1010100001111001 '
b1110000 &
#113
b100000100000010 "
b100000100010011 $
b100000100010011 (
b100010111001010 #
b100010111001010 '
b1110001 &
#114
b1000100001000011 "
b1010111011000111 $
b1010111011000111 (
b1100100101101011 #
b1100100101101011 '
b1110010 &
#115
b1001110110110010 "
b1001110110111010 $
b1001110110111010 (
b1101110110110110 #
b1101110110110110 '
b1110011 &
#116
b1000000110000000 "
b1001010110111001 $
b1001010110111001 (
b1010101111000100 #
b1010101111000100 '
b1110100 &
#117
b1001001010010000 "
b1001101010110100 $
b1001101010110100 (
b1101001110010010 #
b1101001110010010 '
b1110101 &
#118
b1000000000110 "
b1001000010000110 $
b1001000010000110 (
b11101101111111 #
b11101101111111 '
b1110110 &
#119
b1001010011110010 "
b1001010011110010 $
b1001010011110010 (
b1111010111111010 #
b1111010111111010 '
b1110111 &
#120
b110000 "
b101111010111101 $
b101111010111101 (
b10000100110010 #
b10000100110010 '
b1111000 &
#121
b1000010010000100 "
b1010010011100100 $
b1010010011100100 (
b1100110110000100 #
b1100110110000100 '
b1111001 &
#122
b100100110001000 "
b111100110101001 $
b111100110101001 (
b1100111111001010 #
b1100111111001010 '
b1111010 &
#123
b1010100010000000 "
b1010100110001110 $
b1010100110001110 (
b1010100010100001 #
b1010100010100001 '
b1111011 &
#124
b101000001011 "
b1111000001011 $
b1111000001011 (
b110101011111011 #
b110101011111011 '
b1111100 &
#125
b1000011001001 "
b11110111001001 $
b11110111001001 (
b1001000011101111 #
b1001000011101111 '
b1111101 &
#126
b100000000110100 "
b100100001110101 $
b100100001110101 (
b1110010100110110 #
b1110010100110110 '
b1111110 &
#127
b1011000001011 "
b1011111101101011 $
b1011111101101011 (
b101011010001111 #
b101011010001111 '
b1111111 &
#128
b1010010010001000 "
b1011010010101110 $
b1011010010101110 (
b1110011110001000 #
b1110011110001000 '
b10000000 &
#129
b110010010 "
b100010110010010 $
b100010110010010 (
b1000000110011011 #
b1000000110011011 '
b10000001 &
#130
b1100000000101000 "
b1110000000101101 $
b1110000000101101 (
b1101111100101000 #
b1101111100101000 '
b10000010 &
#131
b1000001000010 "
b1011000011000010 $
b1011000011000010 (
b101111101001011 #
b101111101001011 '
b10000011 &
#132
b10000001100 "
b10100001101 $
b10100001101 (
b1111011000011110 #
b1111011000011110 '
b10000100 &
#133
b1001110100001000 "
b1001110100011000 $
b1001110100011000 (
b1111110111101100 #
b1111110111101100 '
b10000101 &
#134
b1100010000000 "
b1110010000110 $
b1110010000110 (
b1101111010001 #
b1101111010001 '
b10000110 &
#135
b10010000000001 "
b110010000111011 $
b110010000111011 (
b10010001000001 #
b10010001000001 '
b10000111 &
#136
b1110100101010000 "
b1110100101010011 $
b1110100101010011 (
b1111100111011000 #
b1111100111011000 '
b10001000 &
#137
b10001001010010 "
b10001001011011 $
b10001001011011 (
b110001001010110 #
b110001001010110 '
b10001001 &
#138
b1110001000000000 "
b1110001000000100 $
b1110001000000100 (
b1111101011100010 #
b1111101011100010 '
b10001010 &
#139
b1010000 "
b1011010011011000 $
b1011010011011000 (
b1101110011 #
b1101110011 '
b10001011 &
#140
b100010000010000 "
b100010010111000 $
b100010010111000 (
b100110100010010 #
b100110100010010 '
b10001100 &
#141
b1001000100001 "
b1011011011100101 $
b1011011011100101 (
b1001000111001 #
b1001000111001 '
b10001101 &
#142
b110000100001 "
b111100101011 $
b111100101011 (
b1101110010100001 #
b1101110010100001 '
b10001110 &
#143
b10110000000 "
b1000010111001000 $
b1000010111001000 (
b101110110000001 #
b101110110000001 '
b10001111 &
#144
b101000100100001 "
b1111100110100001 $
b1111100110100001 (
b101010100100111 #
b101010100100111 '
b10010000 &
#145
b10101000000100 "
b11101000000100 $
b11101000000100 (
b110111000011111 #
b110111000011111 '
b10010001 &
#146
b10000 "
b1000000010010110 $
b1000000010010110 (
b10001101011000 #
b10001101011000 '
b10010010 &
#147
b1001000000010000 "
b1011010000010010 $
b1011010000010010 (
b1001001100010100 #
b1001001100010100 '
b10010011 &
#148
b110000010010000 "
b1110001010110001 $
b1110001010110001 (
b111000010010110 #
b111000010010110 '
b10010100 &
#149
b1000010001000101 "
b1000111011101101 $
b1000111011101101 (
b1101010101010101 #
b1101010101010101 '
b10010101 &
#150
b101100100001 "
b1101111110101 $
b1101111110101 (
b10101100101011 #
b10101100101011 '
b10010110 &
#151
b1000100101 "
b10001000100111 $
b10001000100111 (
b1110101101 #
b1110101101 '
b10010111 &
#152
b1110010010000100 "
b1110010010100111 $
b1110010010100111 (
b1111111110000100 #
b1111111110000100 '
b10011000 &
#153
b1000000010100001 "
b1001000010111001 $
b1001000010111001 (
b1010011011100111 #
b1010011011100111 '
b10011001 &
#154
b1001001001001 "
b1011101111011011 $
b1011101111011011 (
b101011001001001 #
b101011001001001 '
b10011010 &
#155
b101000001 "
b1011000101010001 $
b1011000101010001 (
b111111001001 #
b111111001001 '
b10011011 &
#156
b101110000100000 "
b1101110100101010 $
b1101110100101010 (
b101111010100001 #
b101111010100001 '
b10011100 &
#157
b1000000 "
b10000001000101 $
b10000001000101 (
b100010111111010 #
b100010111111010 '
b10011101 &
#158
b0 "
b100001001111100 $
b100001001111100 (
b10110000011 #
b10110000011 '
b10011110 &
#159
b1010001110010 "
b11110011111110 $
b11110011111110 (
b1010001110010 #
b1010001110010 '
b10011111 &
#160
b1010001001101000 "
b1010101001101111 $
b1010101001101111 (
b1111001001101000 #
b1111001001101000 '
b10100000 &
#161
b110000000 "
b10000111110000 $
b10000111110000 (
b110110000110 #
b110110000110 '
b10100001 &
#162
b1001000100000000 "
b1001000101000000 $
b1001000101000000 (
b1001011100111000 #
b1001011100111000 '
b10100010 &
#163
b10000000100000 "
b1010100111110110 $
b1010100111110110 (
b111011000101000 #
b111011000101000 '
b10100011 &
#164
b1000011000000 "
b11000111000000 $
b11000111000000 (
b1101011000101 #
b1101011000101 '
b10100100 &
#165
b101000100110000 "
b111000100111001 $
b111000100111001 (
b101111101110100 #
b101111101110100 '
b10100101 &
#166
b1000110000 "
b1000011100111100 $
b1000011100111100 (
b110101010110000 #
b110101010110000 '
b10100110 &
#167
b1001001100100010 "
b1101001101100010 $
b1101001101100010 (
b1001001100101010 #
b1001001100101010 '
b10100111 &
#168
b10000000001 "
b100111011100001 $
b100111011100001 (
b11010100010101 #
b11010100010101 '
b10101000 &
#169
b1000110000000011 "
b1110111001000011 $
b1110111001000011 (
b1001110100010111 #
b1001110100010111 '
b10101001 &
#170
b10000000 "
b10010000110 $
b10010000110 (
b1110001111001001 #
b1110001111001001 '
b10101010 &
#171
b1000100100000001 "
b1001110111000001 $
b1001110111000001 (
b1100101100100101 #
b1100101100100101 '
b10101011 &
#172
b1010001000001000 "
b1110001001011010 $
b1110001001011010 (
b1010001010001101 #
b1010001010001101 '
b10101100 &
#173
b10001100000100 "
b111101100101100 $
b111101100101100 (
b10011100000111 #
b10011100000111 '
b10101101 &
#174
b100010000000000 "
b1110011001110001 $
b1110011001110001 (
b101110100001100 #
b101110100001100 '
b10101110 &
#175
b110010000110010 "
b1110010110110110 $
b1110010110110110 (
b111110000111011 #
b111110000111011 '
b10101111 &
#176
b1100001010010110 "
b1100111010011110 $
b1100111010011110 (
b1100001011110111 #
b1100001011110111 '
b10110000 &
#177
b101000001010100 "
b1111011101010101 $
b1111011101010101 (
b101100001011100 #
b101100001011100 '
b10110001 &
#178
b1001000100000 "
b1001010100000 $
b1001010100000 (
b11101000100000 #
b11101000100000 '
b10110010 &
#179
b100000110000 "
b1000110010110100 $
b1000110010110100 (
b100101110010 #
b100101110010 '
b10110011 &
#180
b1111000000001101 "
b1111000000001101 $
b1111000000001101 (
b1111010111011101 #
b1111010111011101 '
b10110100 &
#181
b1001001 "
b100001001111001 $
b100001001111001 (
b1001100101001011 #
b1001100101001011 '
b10110101 &
#182
b100000010011100 "
b110010011111101 $
b110010011111101 (
b1101101010011110 #
b1101101010011110 '
b10110110 &
#183
b101001000001011 "
b111001110001111 $
b111001110001111 (
b1101001001111011 #
b1101001001111011 '
b10110111 &
#184
b100000000011 "
b10100111100011 $
b10100111100011 (
b1001101000000011 #
b1001101000000011 '
b10111000 &
#185
b100010001 "
b11110110110001 $
b11110110110001 (
b100001100011101 #
b100001100011101 '
b10111001 &
#186
b1001110000000100 "
b1011110010010101 $
b1011110010010101 (
b1001111101000100 #
b1001111101000100 '
b10111010 &
#187
b11000011100000 "
b111100011101101 $
b111100011101101 (
b11010011100000 #
b11010011100000 '
b10111011 &
#188
b1000101010000 "
b101101111111000 $
b101101111111000 (
b1010101010010 #
b1010101010010 '
b10111100 &
#189
b1000010000000000 "
b1100010001010010 $
b1100010001010010 (
b1011011110001101 #
b1011011110001101 '
b10111101 &
#190
b1110010100000100 "
b1111110101000110 $
b1111110101000110 (
b1110011110000100 #
b1110011110000100 '
b10111110 &
#191
b1000010000000 "
b111110110010000 $
b111110110010000 (
b1001001010001100 #
b1001001010001100 '
b10111111 &
#192
b100000100000010 "
b110000101101010 $
b110000101101010 (
b1100000100010111 #
b1100000100010111 '
b11000000 &
#193
b1010010000000 "
b1011110010101010 $
b1011110010101010 (
b101011110000100 #
b101011110000100 '
b11000001 &
#194
b1001100000 "
b1001100000 $
b1001100000 (
b111101111100 #
b111101111100 '
b11000010 &
#195
b100000010001010 "
b110000010001011 $
b110000010001011 (
b100110110111010 #
b100110110111010 '
b11000011 &
#196
b1111000100100 "
b1111000100101 $
b1111000100101 (
b1111111010100110 #
b1111111010100110 '
b11000100 &
#197
b100010 "
b10010100010 $
b10010100010 (
b1000001100110010 #
b1000001100110010 '
b11000101 &
#198
b11000000000000 "
b1011000000010100 $
b1011000000010100 (
b111110001001001 #
b111110001001001 '
b11000110 &
#199
b1001 "
b1101001011 $
b1101001011 (
b1100000000111101 #
b1100000000111101 '
b11000111 &
#200
b11000001000100 "
b111010101000111 $
b111010101000111 (
b11000001011100 #
b11000001011100 '
b11001000 &
#201
b1001000000000 "
b111101000111001 $
b111101000111001 (
b1001011110000110 #
b1001011110000110 '
b11001001 &
#202
b1000000010010000 "
b1110010111010000 $
b1110010111010000 (
b1000101010110100 #
b1000101010110100 '
b11001010 &
#203
b100000000001100 "
b100010110001100 $
b100010110001100 (
b101000000101100 #
b101000000101100 '
b11001011 &
#204
b10 "
b100000001101010 $
b100000001101010 (
b1011011100000111 #
b1011011100000111 '
b11001100 &
#205
b1111100100000000 "
b1111111111101000 $
b1111111111101000 (
b1111100100010001 #
b1111100100010001 '
b11001101 &
#206
b1000000001000011 "
b1000000101110011 $
b1000000101110011 (
b1001111001001011 #
b1001111001001011 '
b11001110 &
#207
b100100000 "
b10100100011 $
b10100100011 (
b101101111101100 #
b101101111101100 '
b11001111 &
#208
b110010110000000 "
b110010111001001 $
b110010111001001 (
b1110111110100100 #
b1110111110100100 '
b11010000 &
#209
b11001 "
b111001011011111 $
b111001011011111 (
b10000111001 #
b10000111001 '
b11010001 &
#210
b10001000100 "
b110010101100111 $
b110010101100111 (
b1010011010100 #
b1010011010100 '
b11010010 &
#211
b110010000 "
b10010110110000 $
b10010110110000 (
b100000110011101 #
b100000110011101 '
b11010011 &
#212
b11100100000000 "
b1011111101001001 $
b1011111101001001 (
b11100110000010 #
b11100110000010 '
b11010100 &
#213
b1001000000000 "
b1011011100100000 $
b1011011100100000 (
b1101011011001 #
b1101011011001 '
b11010101 &
#214
b100110000010000 "
b110111110010011 $
b110111110010011 (
b100110000011100 #
b100110000011100 '
b11010110 &
#215
b100010 "
b1000001000101010 $
b1000001000101010 (
b110000111100011 #
b110000111100011 '
b11010111 &
#216
b10100001001000 "
b10111001011101 $
b10111001011101 (
b1111100011001000 #
b1111100011001000 '
b11011000 &
#217
b1000100100000000 "
b1010100110000100 $
b1010100110000100 (
b1001110100111010 #
b1001110100111010 '
b11011001 &
#218
b10100000101001 "
b111111100111001 $
b111111100111001 (
b1010100000101011 #
b1010100000101011 '
b11011010 &
#219
b10010 "
b1010010 $
b1010010 (
b1110000010010 #
b1110000010010 '
b11011011 &
#220
b1000000001010000 "
b1001011011010000 $
b1001011011010000 (
b1000100101011001 #
b1000100101011001 '
b11011100 &
#221
b10100000000110 "
b10100110010111 $
b10100110010111 (
b1110101001101110 #
b1110101001101110 '
b11011101 &
#222
b11110000010 "
b111011110100110 $
b111011110100110 (
b1000011111011011 #
b1000011111011011 '
b11011110 &
#223
b101000000000000 "
b111110000000000 $
b111110000000000 (
b1101001110111011 #
b1101001110111011 '
b11011111 &
#224
b100010000001001 "
b1101011001101001 $
b1101011001101001 (
b100110000001111 #
b100110000001111 '
b11100000 &
#225
b1000 "
b1100101011001 $
b1100101011001 (
b110001000001100 #
b110001000001100 '
b11100001 &
#226
b111000101 "
b11010111001111 $
b11010111001111 (
b100100111000101 #
b100100111000101 '
b11100010 &
#227
b1100000000010000 "
b1101100001010001 $
b1101100001010001 (
b1110010110010000 #
b1110010110010000 '
b11100011 &
#228
b1000010001100001 "
b1100110101110111 $
b1100110101110111 (
b1010010001101001 #
b1010010001101001 '
b11100100 &
#229
b100000001001000 "
b101100011011000 $
b101100011011000 (
b110010101001010 #
b110010101001010 '
b11100101 &
#230
b100010000000 "
b1001101011000100 $
b1001101011000100 (
b100110110011011 #
b100110110011011 '
b11100110 &
#231
b1011000010110000 "
b1111001010110111 $
b1111001010110111 (
b1011000110111000 #
b1011000110111000 '
b11100111 &
#232
b100101000000000 "
b101101000110000 $
b101101000110000 (
b1110111010000110 #
b1110111010000110 '
b11101000 &
#233
b100001100110101 "
b1100011110110101 $
b1100011110110101 (
b101001101110111 #
b101001101110111 '
b11101001 &
#234
b1000010100000100 "
b1000011100000111 $
b1000011100000111 (
b1111010111010100 #
b1111010111010100 '
b11101010 &
#235
b1000010101100000 "
b1010110111101001 $
b1010110111101001 (
b1001011101110110 #
b1001011101110110 '
b11101011 &
#236
b101100000001 "
b101111100000001 $
b101111100000001 (
b1000101110001011 #
b1000101110001011 '
b11101100 &
#237
b1010000000 "
b100001010000000 $
b100001010000000 (
b1000101111011011 #
b1000101111011011 '
b11101101 &
#238
b1001101011000000 "
b1101101011000101 $
b1101101011000101 (
b1001111111000010 #
b1001111111000010 '
b11101110 &
#239
b1110000000100000 "
b1110010010101111 $
b1110010010101111 (
b1111101000110000 #
b1111101000110000 '
b11101111 &
#240
b1001100000100110 "
b1011100110101111 $
b1011100110101111 (
b1101101001100110 #
b1101101001100110 '
b11110000 &
#241
b10111011101000 "
b1010111111111000 $
b1010111111111000 (
b110111011101001 #
b110111011101001 '
b11110001 &
#242
b10010000000110 "
b111011011101111 $
b111011011101111 (
b1010110000000110 #
b1010110000000110 '
b11110010 &
#243
b11010010000001 "
b111110010010101 $
b111110010010101 (
b11011111100001 #
b11011111100001 '
b11110011 &
#244
b110001100000 "
b100110101100000 $
b100110101100000 (
b11111011101110 #
b11111011101110 '
b11110100 &
#245
b100101000100000 "
b1110101000101000 $
b1110101000101000 (
b101111011100101 #
b101111011100101 '
b11110101 &
#246
b11010100100000 "
b11011100101001 $
b11011100101001 (
b111110101100100 #
b111110101100100 '
b11110110 &
#247
b1001100001 "
b101001001110111 $
b101001001110111 (
b1010111011100001 #
b1010111011100001 '
b11110111 &
#248
b1010100000000 "
b1111010110000001 $
b1111010110000001 (
b1010101101110 #
b1010101101110 '
b11111000 &
#249
b1001000101000000 "
b1101010101101000 $
b1101010101101000 (
b1011100111010101 #
b1011100111010101 '
b11111001 &
#250
b10100000 "
b10101010 $
b10101010 (
b111000111110000 #
b111000111110000 '
b11111010 &
#251
b100000000000001 "
b100100011110001 $
b100100011110001 (
b1100001100001111 #
b1100001100001111 '
b11111011 &
#252
b1001010000001100 "
b1001010110001110 $
b1001010110001110 (
b1011110001111101 #
b1011110001111101 '
b11111100 &
#253
b100110000100000 "
b100110100111100 $
b100110100111100 (
b1101110011100010 #
b1101110011100010 '
b11111101 &
#254
b1010000010101001 "
b1011000111101111 $
b1011000111101111 (
b1110011010101001 #
b1110011010101001 '
b11111110 &
#255
b1000000001011 "
b11110010101111 $
b11110010101111 (
b1101000001011011 #
b1101000001011011 '
b11111111 &
#256
b100100001000 "
b110110111001 $
b110110111001 (
b1001101101001010 #
b1001101101001010 '
b100000000 &
#257
b10010100010011 "
b11010100010011 $
b11010100010011 (
b10110100010011 #
b10110100010011 '
b100000001 &
#258
b101000001 "
b10011101010001 $
b10011101010001 (
b100000101100101 #
b100000101100101 '
b100000010 &
#259
b1000010010001 "
b1000010011001 $
b1000010011001 (
b11101010110111 #
b11101010110111 '
b100000011 &
#260
b100000110000 "
b11101001110001 $
b11101001110001 (
b100000111010 #
b100000111010 '
b100000100 &
