03_Sequential_Logic/04_RAM512/RAM512_tb.vcd
$date
	Tue Nov  5 08:28:33 2024
$end
$version
	Icarus Verilog
$end
$timescale
	1ps
$end
$scope module RAM512_tb $end
$var wire 16 ! out_cmp [15:0] $end
$var wire 16 " out [15:0] $end
$var reg 9 # address [8:0] $end
$var reg 1 $ clk $end
$var reg 1 % fail $end
$var reg 16 & in [15:0] $end
$var reg 1 ' load $end
$var reg 16 ( n [15:0] $end
$scope module RAM512 $end
$var wire 9 ) address [8:0] $end
$var wire 1 $ clk $end
$var wire 16 * in [15:0] $end
$var wire 1 ' load $end
$var wire 16 + outram1 [15:0] $end
$var wire 16 , outram0 [15:0] $end
$var wire 16 - out [15:0] $end
$var wire 1 . load1 $end
$var wire 1 / load0 $end
$scope module dmux0 $end
$var wire 1 ' in $end
$var wire 1 0 sel $end
$var wire 1 1 notSel $end
$var wire 1 . b $end
$var wire 1 / a $end
$scope module and0 $end
$var wire 1 ' a $end
$var wire 1 2 w1 $end
$var wire 1 / out $end
$var wire 1 1 b $end
$scope module nand0 $end
$var wire 1 ' a $end
$var wire 1 2 out $end
$var wire 1 1 b $end
$upscope $end
$scope module not0 $end
$var wire 1 2 in $end
$var wire 1 / out $end
$upscope $end
$upscope $end
$scope module and1 $end
$var wire 1 ' a $end
$var wire 1 0 b $end
$var wire 1 3 w1 $end
$var wire 1 . out $end
$scope module nand0 $end
$var wire 1 ' a $end
$var wire 1 0 b $end
$var wire 1 3 out $end
$upscope $end
$scope module not0 $end
$var wire 1 3 in $end
$var wire 1 . out $end
$upscope $end
$upscope $end
$scope module not0 $end
$var wire 1 0 in $end
$var wire 1 1 out $end
$upscope $end
$upscope $end
$scope module mux0 $end
$var wire 1 4 sel $end
$var wire 16 5 out [15:0] $end
$var wire 16 6 b [15:0] $end
$var wire 16 7 a [15:0] $end
$scope module mux0 $end
$var wire 1 8 a $end
$var wire 1 9 b $end
$var wire 1 4 sel $end
$var wire 1 : out $end
$var wire 1 ; notSel $end
$var wire 1 < bAndSel $end
$var wire 1 = aAndNotSel $end
$scope module and0 $end
$var wire 1 8 a $end
$var wire 1 > w1 $end
$var wire 1 = out $end
$var wire 1 ; b $end
$scope module nand0 $end
$var wire 1 8 a $end
$var wire 1 > out $end
$var wire 1 ; b $end
$upscope $end
$scope module not0 $end
$var wire 1 > in $end
$var wire 1 = out $end
$upscope $end
$upscope $end
$scope module and1 $end
$var wire 1 9 a $end
$var wire 1 4 b $end
$var wire 1 ? w1 $end
$var wire 1 < out $end
$scope module nand0 $end
$var wire 1 9 a $end
$var wire 1 4 b $end
$var wire 1 ? out $end
$upscope $end
$scope module not0 $end
$var wire 1 ? in $end
$var wire 1 < out $end
$upscope $end
$upscope $end
$scope module not0 $end
$var wire 1 4 in $end
$var wire 1 ; out $end
$upscope $end
$scope module or0 $end
$var wire 1 = a $end
$var wire 1 < b $end
$var wire 1 @ w2 $end
$var wire 1 A w1 $end
$var wire 1 : out $end
$scope module nand0 $end
$var wire 1 = a $end
$var wire 1 = b $end
$var wire 1 A out $end
$upscope $end
$scope module nand1 $end
$var wire 1 < a $end
$var wire 1 < b $end
$var wire 1 @ out $end
$upscope $end
$scope module nand2 $end
$var wire 1 A a $end
$var wire 1 @ b $end
$var wire 1 : out $end
$upscope $end
$upscope $end
$upscope $end
$scope module mux1 $end
$var wire 1 B a $end
$var wire 1 C b $end
$var wire 1 4 sel $end
$var wire 1 D out $end
$var wire 1 E notSel $end
$var wire 1 F bAndSel $end
$var wire 1 G aAndNotSel $end
$scope module and0 $end
$var wire 1 B a $end
$var wire 1 H w1 $end
$var wire 1 G out $end
$var wire 1 E b $end
$scope module nand0 $end
$var wire 1 B a $end
$var wire 1 H out $end
$var wire 1 E b $end
$upscope $end
$scope module not0 $end
$var wire 1 H in $end
$var wire 1 G out $end
$upscope $end
$upscope $end
$scope module and1 $end
$var wire 1 C a $end
$var wire 1 4 b $end
$var wire 1 I w1 $end
$var wire 1 F out $end
$scope module nand0 $end
$var wire 1 C a $end
$var wire 1 4 b $end
$var wire 1 I out $end
$upscope $end
$scope module not0 $end
$var wire 1 I in $end
$var wire 1 F out $end
$upscope $end
$upscope $end
$scope module not0 $end
$var wire 1 4 in $end
$var wire 1 E out $end
$upscope $end
$scope module or0 $end
$var wire 1 G a $end
$var wire 1 F b $end
$var wire 1 J w2 $end
$var wire 1 K w1 $end
$var wire 1 D out $end
$scope module nand0 $end
$var wire 1 G a $end
$var wire 1 G b $end
$var wire 1 K out $end
$upscope $end
$scope module nand1 $end
$var wire 1 F a $end
$var wire 1 F b $end
$var wire 1 J out $end
$upscope $end
$scope module nand2 $end
$var wire 1 K a $end
$var wire 1 J b $end
$var wire 1 D out $end
$upscope $end
$upscope $end
$upscope $end
$scope module mux10 $end
$var wire 1 L a $end
$var wire 1 M b $end
$var wire 1 4 sel $end
$var wire 1 N out $end
$var wire 1 O notSel $end
$var wire 1 P bAndSel $end
$var wire 1 Q aAndNotSel $end
$scope module and0 $end
$var wire 1 L a $end
$var wire 1 R w1 $end
$var wire 1 Q out $end
$var wire 1 O b $end
$scope module nand0 $end
$var wire 1 L a $end
$var wire 1 R out $end
$var wire 1 O b $end
$upscope $end
$scope module not0 $end
$var wire 1 R in $end
$var wire 1 Q out $end
$upscope $end
$upscope $end
$scope module and1 $end
$var wire 1 M a $end
$var wire 1 4 b $end
$var wire 1 S w1 $end
$var wire 1 P out $end
$scope module nand0 $end
$var wire 1 M a $end
$var wire 1 4 b $end
$var wire 1 S out $end
$upscope $end
$scope module not0 $end
$var wire 1 S in $end
$var wire 1 P out $end
$upscope $end
$upscope $end
$scope module not0 $end
$var wire 1 4 in $end
$var wire 1 O out $end
$upscope $end
$scope module or0 $end
$var wire 1 Q a $end
$var wire 1 P b $end
$var wire 1 T w2 $end
$var wire 1 U w1 $end
$var wire 1 N out $end
$scope module nand0 $end
$var wire 1 Q a $end
$var wire 1 Q b $end
$var wire 1 U out $end
$upscope $end
$scope module nand1 $end
$var wire 1 P a $end
$var wire 1 P b $end
$var wire 1 T out $end
$upscope $end
$scope module nand2 $end
$var wire 1 U a $end
$var wire 1 T b $end
$var wire 1 N out $end
$upscope $end
$upscope $end
$upscope $end
$scope module mux11 $end
$var wire 1 V a $end
$var wire 1 W b $end
$var wire 1 4 sel $end
$var wire 1 X out $end
$var wire 1 Y notSel $end
$var wire 1 Z bAndSel $end
$var wire 1 [ aAndNotSel $end
$scope module and0 $end
$var wire 1 V a $end
$var wire 1 \ w1 $end
$var wire 1 [ out $end
$var wire 1 Y b $end
$scope module nand0 $end
$var wire 1 V a $end
$var wire 1 \ out $end
$var wire 1 Y b $end
$upscope $end
$scope module not0 $end
$var wire 1 \ in $end
$var wire 1 [ out $end
$upscope $end
$upscope $end
$scope module and1 $end
$var wire 1 W a $end
$var wire 1 4 b $end
$var wire 1 ] w1 $end
$var wire 1 Z out $end
$scope module nand0 $end
$var wire 1 W a $end
$var wire 1 4 b $end
$var wire 1 ] out $end
$upscope $end
$scope module not0 $end
$var wire 1 ] in $end
$var wire 1 Z out $end
$upscope $end
$upscope $end
$scope module not0 $end
$var wire 1 4 in $end
$var wire 1 Y out $end
$upscope $end
$scope module or0 $end
$var wire 1 [ a $end
$var wire 1 Z b $end
$var wire 1 ^ w2 $end
$var wire 1 _ w1 $end
$var wire 1 X out $end
$scope module nand0 $end
$var wire 1 [ a $end
$var wire 1 [ b $end
$var wire 1 _ out $end
$upscope $end
$scope module nand1 $end
$var wire 1 Z a $end
$var wire 1 Z b $end
$var wire 1 ^ out $end
$upscope $end
$scope module nand2 $end
$var wire 1 _ a $end
$var wire 1 ^ b $end
$var wire 1 X out $end
$upscope $end
$upscope $end
$upscope $end
$scope module mux12 $end
$var wire 1 ` a $end
$var wire 1 a b $end
$var wire 1 4 sel $end
$var wire 1 b out $end
$var wire 1 c notSel $end
$var wire 1 d bAndSel $end
$var wire 1 e aAndNotSel $end
$scope module and0 $end
$var wire 1 ` a $end
$var wire 1 f w1 $end
$var wire 1 e out $end
$var wire 1 c b $end
$scope module nand0 $end
$var wire 1 ` a $end
$var wire 1 f out $end
$var wire 1 c b $end
$upscope $end
$scope module not0 $end
$var wire 1 f in $end
$var wire 1 e out $end
$upscope $end
$upscope $end
$scope module and1 $end
$var wire 1 a a $end
$var wire 1 4 b $end
$var wire 1 g w1 $end
$var wire 1 d out $end
$scope module nand0 $end
$var wire 1 a a $end
$var wire 1 4 b $end
$var wire 1 g out $end
$upscope $end
$scope module not0 $end
$var wire 1 g in $end
$var wire 1 d out $end
$upscope $end
$upscope $end
$scope module not0 $end
$var wire 1 4 in $end
$var wire 1 c out $end
$upscope $end
$scope module or0 $end
$var wire 1 e a $end
$var wire 1 d b $end
$var wire 1 h w2 $end
$var wire 1 i w1 $end
$var wire 1 b out $end
$scope module nand0 $end
$var wire 1 e a $end
$var wire 1 e b $end
$var wire 1 i out $end
$upscope $end
$scope module nand1 $end
$var wire 1 d a $end
$var wire 1 d b $end
$var wire 1 h out $end
$upscope $end
$scope module nand2 $end
$var wire 1 i a $end
$var wire 1 h b $end
$var wire 1 b out $end
$upscope $end
$upscope $end
$upscope $end
$scope module mux13 $end
$var wire 1 j a $end
$var wire 1 k b $end
$var wire 1 4 sel $end
$var wire 1 l out $end
$var wire 1 m notSel $end
$var wire 1 n bAndSel $end
$var wire 1 o aAndNotSel $end
$scope module and0 $end
$var wire 1 j a $end
$var wire 1 p w1 $end
$var wire 1 o out $end
$var wire 1 m b $end
$scope module nand0 $end
$var wire 1 j a $end
$var wire 1 p out $end
$var wire 1 m b $end
$upscope $end
$scope module not0 $end
$var wire 1 p in $end
$var wire 1 o out $end
$upscope $end
$upscope $end
$scope module and1 $end
$var wire 1 k a $end
$var wire 1 4 b $end
$var wire 1 q w1 $end
$var wire 1 n out $end
$scope module nand0 $end
$var wire 1 k a $end
$var wire 1 4 b $end
$var wire 1 q out $end
$upscope $end
$scope module not0 $end
$var wire 1 q in $end
$var wire 1 n out $end
$upscope $end
$upscope $end
$scope module not0 $end
$var wire 1 4 in $end
$var wire 1 m out $end
$upscope $end
$scope module or0 $end
$var wire 1 o a $end
$var wire 1 n b $end
$var wire 1 r w2 $end
$var wire 1 s w1 $end
$var wire 1 l out $end
$scope module nand0 $end
$var wire 1 o a $end
$var wire 1 o b $end
$var wire 1 s out $end
$upscope $end
$scope module nand1 $end
$var wire 1 n a $end
$var wire 1 n b $end
$var wire 1 r out $end
$upscope $end
$scope module nand2 $end
$var wire 1 s a $end
$var wire 1 r b $end
$var wire 1 l out $end
$upscope $end
$upscope $end
$upscope $end
$scope module mux14 $end
$var wire 1 t a $end
$var wire 1 u b $end
$var wire 1 4 sel $end
$var wire 1 v out $end
$var wire 1 w notSel $end
$var wire 1 x bAndSel $end
$var wire 1 y aAndNotSel $end
$scope module and0 $end
$var wire 1 t a $end
$var wire 1 z w1 $end
$var wire 1 y out $end
$var wire 1 w b $end
$scope module nand0 $end
$var wire 1 t a $end
$var wire 1 z out $end
$var wire 1 w b $end
$upscope $end
$scope module not0 $end
$var wire 1 z in $end
$var wire 1 y out $end
$upscope $end
$upscope $end
$scope module and1 $end
$var wire 1 u a $end
$var wire 1 4 b $end
$var wire 1 { w1 $end
$var wire 1 x out $end
$scope module nand0 $end
$var wire 1 u a $end
$var wire 1 4 b $end
$var wire 1 { out $end
$upscope $end
$scope module not0 $end
$var wire 1 { in $end
$var wire 1 x out $end
$upscope $end
$upscope $end
$scope module not0 $end
$var wire 1 4 in $end
$var wire 1 w out $end
$upscope $end
$scope module or0 $end
$var wire 1 y a $end
$var wire 1 x b $end
$var wire 1 | w2 $end
$var wire 1 } w1 $end
$var wire 1 v out $end
$scope module nand0 $end
$var wire 1 y a $end
$var wire 1 y b $end
$var wire 1 } out $end
$upscope $end
$scope module nand1 $end
$var wire 1 x a $end
$var wire 1 x b $end
$var wire 1 | out $end
$upscope $end
$scope module nand2 $end
$var wire 1 } a $end
$var wire 1 | b $end
$var wire 1 v out $end
$upscope $end
$upscope $end
$upscope $end
$scope module mux15 $end
$var wire 1 ~ a $end
$var wire 1 !" b $end
$var wire 1 4 sel $end
$var wire 1 "" out $end
$var wire 1 #" notSel $end
$var wire 1 $" bAndSel $end
$var wire 1 %" aAndNotSel $end
$scope module and0 $end
$var wire 1 ~ a $end
$var wire 1 &" w1 $end
$var wire 1 %" out $end
$var wire 1 #" b $end
$scope module nand0 $end
$var wire 1 ~ a $end
$var wire 1 &" out $end
$var wire 1 #" b $end
$upscope $end
$scope module not0 $end
$var wire 1 &" in $end
$var wire 1 %" out $end
$upscope $end
$upscope $end
$scope module and1 $end
$var wire 1 !" a $end
$var wire 1 4 b $end
$var wire 1 '" w1 $end
$var wire 1 $" out $end
$scope module nand0 $end
$var wire 1 !" a $end
$var wire 1 4 b $end
$var wire 1 '" out $end
$upscope $end
$scope module not0 $end
$var wire 1 '" in $end
$var wire 1 $" out $end
$upscope $end
$upscope $end
$scope module not0 $end
$var wire 1 4 in $end
$var wire 1 #" out $end
$upscope $end
$scope module or0 $end
$var wire 1 %" a $end
$var wire 1 $" b $end
$var wire 1 (" w2 $end
$var wire 1 )" w1 $end
$var wire 1 "" out $end
$scope module nand0 $end
$var wire 1 %" a $end
$var wire 1 %" b $end
$var wire 1 )" out $end
$upscope $end
$scope module nand1 $end
$var wire 1 $" a $end
$var wire 1 $" b $end
$var wire 1 (" out $end
$upscope $end
$scope module nand2 $end
$var wire 1 )" a $end
$var wire 1 (" b $end
$var wire 1 "" out $end
$upscope $end
$upscope $end
$upscope $end
$scope module mux2 $end
$var wire 1 *" a $end
$var wire 1 +" b $end
$var wire 1 4 sel $end
$var wire 1 ," out $end
$var wire 1 -" notSel $end
$var wire 1 ." bAndSel $end
$var wire 1 /" aAndNotSel $end
$scope module and0 $end
$var wire 1 *" a $end
$var wire 1 0" w1 $end
$var wire 1 /" out $end
$var wire 1 -" b $end
$scope module nand0 $end
$var wire 1 *" a $end
$var wire 1 0" out $end
$var wire 1 -" b $end
$upscope $end
$scope module not0 $end
$var wire 1 0" in $end
$var wire 1 /" out $end
$upscope $end
$upscope $end
$scope module and1 $end
$var wire 1 +" a $end
$var wire 1 4 b $end
$var wire 1 1" w1 $end
$var wire 1 ." out $end
$scope module nand0 $end
$var wire 1 +" a $end
$var wire 1 4 b $end
$var wire 1 1" out $end
$upscope $end
$scope module not0 $end
$var wire 1 1" in $end
$var wire 1 ." out $end
$upscope $end
$upscope $end
$scope module not0 $end
$var wire 1 4 in $end
$var wire 1 -" out $end
$upscope $end
$scope module or0 $end
$var wire 1 /" a $end
$var wire 1 ." b $end
$var wire 1 2" w2 $end
$var wire 1 3" w1 $end
$var wire 1 ," out $end
$scope module nand0 $end
$var wire 1 /" a $end
$var wire 1 /" b $end
$var wire 1 3" out $end
$upscope $end
$scope module nand1 $end
$var wire 1 ." a $end
$var wire 1 ." b $end
$var wire 1 2" out $end
$upscope $end
$scope module nand2 $end
$var wire 1 3" a $end
$var wire 1 2" b $end
$var wire 1 ," out $end
$upscope $end
$upscope $end
$upscope $end
$scope module mux3 $end
$var wire 1 4" a $end
$var wire 1 5" b $end
$var wire 1 4 sel $end
$var wire 1 6" out $end
$var wire 1 7" notSel $end
$var wire 1 8" bAndSel $end
$var wire 1 9" aAndNotSel $end
$scope module and0 $end
$var wire 1 4" a $end
$var wire 1 :" w1 $end
$var wire 1 9" out $end
$var wire 1 7" b $end
$scope module nand0 $end
$var wire 1 4" a $end
$var wire 1 :" out $end
$var wire 1 7" b $end
$upscope $end
$scope module not0 $end
$var wire 1 :" in $end
$var wire 1 9" out $end
$upscope $end
$upscope $end
$scope module and1 $end
$var wire 1 5" a $end
$var wire 1 4 b $end
$var wire 1 ;" w1 $end
$var wire 1 8" out $end
$scope module nand0 $end
$var wire 1 5" a $end
$var wire 1 4 b $end
$var wire 1 ;" out $end
$upscope $end
$scope module not0 $end
$var wire 1 ;" in $end
$var wire 1 8" out $end
$upscope $end
$upscope $end
$scope module not0 $end
$var wire 1 4 in $end
$var wire 1 7" out $end
$upscope $end
$scope module or0 $end
$var wire 1 9" a $end
$var wire 1 8" b $end
$var wire 1 <" w2 $end
$var wire 1 =" w1 $end
$var wire 1 6" out $end
$scope module nand0 $end
$var wire 1 9" a $end
$var wire 1 9" b $end
$var wire 1 =" out $end
$upscope $end
$scope module nand1 $end
$var wire 1 8" a $end
$var wire 1 8" b $end
$var wire 1 <" out $end
$upscope $end
$scope module nand2 $end
$var wire 1 =" a $end
$var wire 1 <" b $end
$var wire 1 6" out $end
$upscope $end
$upscope $end
$upscope $end
$scope module mux4 $end
$var wire 1 >" a $end
$var wire 1 ?" b $end
$var wire 1 4 sel $end
$var wire 1 @" out $end
$var wire 1 A" notSel $end
$var wire 1 B" bAndSel $end
$var wire 1 C" aAndNotSel $end
$scope module and0 $end
$var wire 1 >" a $end
$var wire 1 D" w1 $end
$var wire 1 C" out $end
$var wire 1 A" b $end
$scope module nand0 $end
$var wire 1 >" a $end
$var wire 1 D" out $end
$var wire 1 A" b $end
$upscope $end
$scope module not0 $end
$var wire 1 D" in $end
$var wire 1 C" out $end
$upscope $end
$upscope $end
$scope module and1 $end
$var wire 1 ?" a $end
$var wire 1 4 b $end
$var wire 1 E" w1 $end
$var wire 1 B" out $end
$scope module nand0 $end
$var wire 1 ?" a $end
$var wire 1 4 b $end
$var wire 1 E" out $end
$upscope $end
$scope module not0 $end
$var wire 1 E" in $end
$var wire 1 B" out $end
$upscope $end
$upscope $end
$scope module not0 $end
$var wire 1 4 in $end
$var wire 1 A" out $end
$upscope $end
$scope module or0 $end
$var wire 1 C" a $end
$var wire 1 B" b $end
$var wire 1 F" w2 $end
$var wire 1 G" w1 $end
$var wire 1 @" out $end
$scope module nand0 $end
$var wire 1 C" a $end
$var wire 1 C" b $end
$var wire 1 G" out $end
$upscope $end
$scope module nand1 $end
$var wire 1 B" a $end
$var wire 1 B" b $end
$var wire 1 F" out $end
$upscope $end
$scope module nand2 $end
$var wire 1 G" a $end
$var wire 1 F" b $end
$var wire 1 @" out $end
$upscope $end
$upscope $end
$upscope $end
$scope module mux5 $end
$var wire 1 H" a $end
$var wire 1 I" b $end
$var wire 1 4 sel $end
$var wire 1 J" out $end
$var wire 1 K" notSel $end
$var wire 1 L" bAndSel $end
$var wire 1 M" aAndNotSel $end
$scope module and0 $end
$var wire 1 H" a $end
$var wire 1 N" w1 $end
$var wire 1 M" out $end
$var wire 1 K" b $end
$scope module nand0 $end
$var wire 1 H" a $end
$var wire 1 N" out $end
$var wire 1 K" b $end
$upscope $end
$scope module not0 $end
$var wire 1 N" in $end
$var wire 1 M" out $end
$upscope $end
$upscope $end
$scope module and1 $end
$var wire 1 I" a $end
$var wire 1 4 b $end
$var wire 1 O" w1 $end
$var wire 1 L" out $end
$scope module nand0 $end
$var wire 1 I" a $end
$var wire 1 4 b $end
$var wire 1 O" out $end
$upscope $end
$scope module not0 $end
$var wire 1 O" in $end
$var wire 1 L" out $end
$upscope $end
$upscope $end
$scope module not0 $end
$var wire 1 4 in $end
$var wire 1 K" out $end
$upscope $end
$scope module or0 $end
$var wire 1 M" a $end
$var wire 1 L" b $end
$var wire 1 P" w2 $end
$var wire 1 Q" w1 $end
$var wire 1 J" out $end
$scope module nand0 $end
$var wire 1 M" a $end
$var wire 1 M" b $end
$var wire 1 Q" out $end
$upscope $end
$scope module nand1 $end
$var wire 1 L" a $end
$var wire 1 L" b $end
$var wire 1 P" out $end
$upscope $end
$scope module nand2 $end
$var wire 1 Q" a $end
$var wire 1 P" b $end
$var wire 1 J" out $end
$upscope $end
$upscope $end
$upscope $end
$scope module mux6 $end
$var wire 1 R" a $end
$var wire 1 S" b $end
$var wire 1 4 sel $end
$var wire 1 T" out $end
$var wire 1 U" notSel $end
$var wire 1 V" bAndSel $end
$var wire 1 W" aAndNotSel $end
$scope module and0 $end
$var wire 1 R" a $end
$var wire 1 X" w1 $end
$var wire 1 W" out $end
$var wire 1 U" b $end
$scope module nand0 $end
$var wire 1 R" a $end
$var wire 1 X" out $end
$var wire 1 U" b $end
$upscope $end
$scope module not0 $end
$var wire 1 X" in $end
$var wire 1 W" out $end
$upscope $end
$upscope $end
$scope module and1 $end
$var wire 1 S" a $end
$var wire 1 4 b $end
$var wire 1 Y" w1 $end
$var wire 1 V" out $end
$scope module nand0 $end
$var wire 1 S" a $end
$var wire 1 4 b $end
$var wire 1 Y" out $end
$upscope $end
$scope module not0 $end
$var wire 1 Y" in $end
$var wire 1 V" out $end
$upscope $end
$upscope $end
$scope module not0 $end
$var wire 1 4 in $end
$var wire 1 U" out $end
$upscope $end
$scope module or0 $end
$var wire 1 W" a $end
$var wire 1 V" b $end
$var wire 1 Z" w2 $end
$var wire 1 [" w1 $end
$var wire 1 T" out $end
$scope module nand0 $end
$var wire 1 W" a $end
$var wire 1 W" b $end
$var wire 1 [" out $end
$upscope $end
$scope module nand1 $end
$var wire 1 V" a $end
$var wire 1 V" b $end
$var wire 1 Z" out $end
$upscope $end
$scope module nand2 $end
$var wire 1 [" a $end
$var wire 1 Z" b $end
$var wire 1 T" out $end
$upscope $end
$upscope $end
$upscope $end
$scope module mux7 $end
$var wire 1 \" a $end
$var wire 1 ]" b $end
$var wire 1 4 sel $end
$var wire 1 ^" out $end
$var wire 1 _" notSel $end
$var wire 1 `" bAndSel $end
$var wire 1 a" aAndNotSel $end
$scope module and0 $end
$var wire 1 \" a $end
$var wire 1 b" w1 $end
$var wire 1 a" out $end
$var wire 1 _" b $end
$scope module nand0 $end
$var wire 1 \" a $end
$var wire 1 b" out $end
$var wire 1 _" b $end
$upscope $end
$scope module not0 $end
$var wire 1 b" in $end
$var wire 1 a" out $end
$upscope $end
$upscope $end
$scope module and1 $end
$var wire 1 ]" a $end
$var wire 1 4 b $end
$var wire 1 c" w1 $end
$var wire 1 `" out $end
$scope module nand0 $end
$var wire 1 ]" a $end
$var wire 1 4 b $end
$var wire 1 c" out $end
$upscope $end
$scope module not0 $end
$var wire 1 c" in $end
$var wire 1 `" out $end
$upscope $end
$upscope $end
$scope module not0 $end
$var wire 1 4 in $end
$var wire 1 _" out $end
$upscope $end
$scope module or0 $end
$var wire 1 a" a $end
$var wire 1 `" b $end
$var wire 1 d" w2 $end
$var wire 1 e" w1 $end
$var wire 1 ^" out $end
$scope module nand0 $end
$var wire 1 a" a $end
$var wire 1 a" b $end
$var wire 1 e" out $end
$upscope $end
$scope module nand1 $end
$var wire 1 `" a $end
$var wire 1 `" b $end
$var wire 1 d" out $end
$upscope $end
$scope module nand2 $end
$var wire 1 e" a $end
$var wire 1 d" b $end
$var wire 1 ^" out $end
$upscope $end
$upscope $end
$upscope $end
$scope module mux8 $end
$var wire 1 f" a $end
$var wire 1 g" b $end
$var wire 1 4 sel $end
$var wire 1 h" out $end
$var wire 1 i" notSel $end
$var wire 1 j" bAndSel $end
$var wire 1 k" aAndNotSel $end
$scope module and0 $end
$var wire 1 f" a $end
$var wire 1 l" w1 $end
$var wire 1 k" out $end
$var wire 1 i" b $end
$scope module nand0 $end
$var wire 1 f" a $end
$var wire 1 l" out $end
$var wire 1 i" b $end
$upscope $end
$scope module not0 $end
$var wire 1 l" in $end
$var wire 1 k" out $end
$upscope $end
$upscope $end
$scope module and1 $end
$var wire 1 g" a $end
$var wire 1 4 b $end
$var wire 1 m" w1 $end
$var wire 1 j" out $end
$scope module nand0 $end
$var wire 1 g" a $end
$var wire 1 4 b $end
$var wire 1 m" out $end
$upscope $end
$scope module not0 $end
$var wire 1 m" in $end
$var wire 1 j" out $end
$upscope $end
$upscope $end
$scope module not0 $end
$var wire 1 4 in $end
$var wire 1 i" out $end
$upscope $end
$scope module or0 $end
$var wire 1 k" a $end
$var wire 1 j" b $end
$var wire 1 n" w2 $end
$var wire 1 o" w1 $end
$var wire 1 h" out $end
$scope module nand0 $end
$var wire 1 k" a $end
$var wire 1 k" b $end
$var wire 1 o" out $end
$upscope $end
$scope module nand1 $end
$var wire 1 j" a $end
$var wire 1 j" b $end
$var wire 1 n" out $end
$upscope $end
$scope module nand2 $end
$var wire 1 o" a $end
$var wire 1 n" b $end
$var wire 1 h" out $end
$upscope $end
$upscope $end
$upscope $end
$scope module mux9 $end
$var wire 1 p" a $end
$var wire 1 q" b $end
$var wire 1 4 sel $end
$var wire 1 r" out $end
$var wire 1 s" notSel $end
$var wire 1 t" bAndSel $end
$var wire 1 u" aAndNotSel $end
$scope module and0 $end
$var wire 1 p" a $end
$var wire 1 v" w1 $end
$var wire 1 u" out $end
$var wire 1 s" b $end
$scope module nand0 $end
$var wire 1 p" a $end
$var wire 1 v" out $end
$var wire 1 s" b $end
$upscope $end
$scope module not0 $end
$var wire 1 v" in $end
$var wire 1 u" out $end
$upscope $end
$upscope $end
$scope module and1 $end
$var wire 1 q" a $end
$var wire 1 4 b $end
$var wire 1 w" w1 $end
$var wire 1 t" out $end
$scope module nand0 $end
$var wire 1 q" a $end
$var wire 1 4 b $end
$var wire 1 w" out $end
$upscope $end
$scope module not0 $end
$var wire 1 w" in $end
$var wire 1 t" out $end
$upscope $end
$upscope $end
$scope module not0 $end
$var wire 1 4 in $end
$var wire 1 s" out $end
$upscope $end
$scope module or0 $end
$var wire 1 u" a $end
$var wire 1 t" b $end
$var wire 1 x" w2 $end
$var wire 1 y" w1 $end
$var wire 1 r" out $end
$scope module nand0 $end
$var wire 1 u" a $end
$var wire 1 u" b $end
$var wire 1 y" out $end
$upscope $end
$scope module nand1 $end
$var wire 1 t" a $end
$var wire 1 t" b $end
$var wire 1 x" out $end
$upscope $end
$scope module nand2 $end
$var wire 1 y" a $end
$var wire 1 x" b $end
$var wire 1 r" out $end
$upscope $end
$upscope $end
$upscope $end
$upscope $end
$scope module ram0 $end
$var wire 8 z" address [7:0] $end
$var wire 1 $ clk $end
$var wire 16 {" in [15:0] $end
$var wire 1 / load $end
$var wire 16 |" out [15:0] $end
$upscope $end
$scope module ram1 $end
$var wire 8 }" address [7:0] $end
$var wire 1 $ clk $end
$var wire 16 ~" in [15:0] $end
$var wire 1 . load $end
$var wire 16 !# out [15:0] $end
$upscope $end
$upscope $end
$scope task check $end
$upscope $end
$upscope $end
$enddefinitions $end
$comment Show the parameter values. $end
$dumpall
$end
#0
$dumpvars
bx !#
bx ~"
bx }"
bx |"
bx {"
bx z"
xy"
xx"
xw"
xv"
xu"
xt"
xs"
xr"
xq"
xp"
xo"
xn"
xm"
xl"
xk"
xj"
xi"
xh"
xg"
xf"
xe"
xd"
xc"
xb"
xa"
x`"
x_"
x^"
x]"
x\"
x["
xZ"
xY"
xX"
xW"
xV"
xU"
xT"
xS"
xR"
xQ"
xP"
xO"
xN"
xM"
xL"
xK"
xJ"
xI"
xH"
xG"
xF"
xE"
xD"
xC"
xB"
xA"
x@"
x?"
x>"
x="
x<"
x;"
x:"
x9"
x8"
x7"
x6"
x5"
x4"
x3"
x2"
x1"
x0"
x/"
x."
x-"
x,"
x+"
x*"
x)"
x("
x'"
x&"
x%"
x$"
x#"
x""
x!"
x~
x}
x|
x{
xz
xy
xx
xw
xv
xu
xt
xs
xr
xq
xp
xo
xn
xm
xl
xk
xj
xi
xh
xg
xf
xe
xd
xc
xb
xa
x`
x_
x^
x]
x\
x[
xZ
xY
xX
xW
xV
xU
xT
xS
xR
xQ
xP
xO
xN
xM
xL
xK
xJ
xI
xH
xG
xF
xE
xD
xC
xB
xA
x@
x?
x>
x=
x<
x;
x:
x9
x8
bx 7
bx 6
bx 5
x4
x3
x2
x1
x0
x/
x.
bx -
bx ,
bx +
bx *
bx )
b0 (
x'
bx &
0%
1$
bx #
bx "
bx !
$end
#1
b1 (
0$
#2
1/
1@
1J
1T
1^
1h
1r
1|
1("
12"
1<"
1F"
1P"
1Z"
1d"
1n"
1x"
02
0<
0F
0P
0Z
0d
0n
0x
0$"
0."
08"
0B"
0L"
0V"
0`"
0j"
0t"
0.
11
1?
1;
1I
1E
1S
1O
1]
1Y
1g
1c
1q
1m
1{
1w
1'"
1#"
11"
1-"
1;"
17"
1E"
1A"
1O"
1K"
1Y"
1U"
1c"
1_"
1m"
1i"
1w"
1s"
13
00
b10 z"
b10 }"
04
1'
b10 #
b10 )
b11010100100100 &
b11010100100100 *
b11010100100100 {"
b11010100100100 ~"
b10 (
1$
#3
b11 (
0$
#4
b100 z"
b100 }"
bx ,
bx 7
bx |"
b100 #
b100 )
b101111010000001 &
b101111010000001 *
b101111010000001 {"
b101111010000001 ~"
b100 (
1$
#5
b101 (
0$
#6
x""
xv
xl
xb
xX
xN
xr"
xh"
x^"
xT"
xJ"
x@"
x6"
x,"
xD
bx "
bx -
bx 5
x:
x)"
x}
xs
xi
x_
xU
xy"
xo"
xe"
x["
xQ"
xG"
x="
x3"
xK
xA
x%"
xy
xo
xe
x[
xQ
xu"
xk"
xa"
xW"
xM"
xC"
x9"
x/"
xG
x=
x&"
xz
xp
xf
x\
xR
xv"
xl"
xb"
xX"
xN"
xD"
x:"
x0"
xH
x>
b110 z"
b110 }"
x~
xt
xj
x`
xV
xL
xp"
xf"
x\"
xR"
xH"
x>"
x4"
x*"
xB
x8
b110 #
b110 )
b1101011000001001 &
b1101011000001001 *
b1101011000001001 {"
b1101011000001001 ~"
bx !
bx ,
bx 7
bx |"
b110 (
1$
#7
b111 (
0$
#8
b1000 z"
b1000 }"
bx ,
bx 7
bx |"
b1000 #
b1000 )
b101011001100011 &
b101011001100011 *
b101011001100011 {"
b101011001100011 ~"
b1000 (
1$
#9
b1001 (
0$
