06_IO_Devices/06_LCD/LCD_tb.vcd
$date
	Tue Nov  5 17:04:25 2024
$end
$version
	Icarus Verilog
$end
$timescale
	1ps
$end
$scope module LCD_tb $end
$var wire 1 ! CSX_cmp $end
$var wire 1 " SCK_cmp $end
$var wire 1 # SDO_cmp $end
$var wire 1 $ out_cmp $end
$var wire 1 % trigger $end
$var wire 16 & out [15:0] $end
$var wire 1 ' busy $end
$var wire 1 ( SDO $end
$var wire 1 ) SCK $end
$var wire 1 * DCX $end
$var wire 1 + CSX $end
$var reg 1 , DCX_cmp $end
$var reg 6 - bits [5:0] $end
$var reg 1 . ce_cmp $end
$var reg 1 / clk $end
$var reg 1 0 d16 $end
$var reg 1 1 fail $end
$var reg 16 2 in [15:0] $end
$var reg 1 3 load $end
$var reg 1 4 load16 $end
$var reg 32 5 n [31:0] $end
$var reg 16 6 shift [15:0] $end
$var reg 2 7 xx [1:0] $end
$scope module LCD $end
$var wire 1 / clk $end
$var wire 16 8 in [15:0] $end
$var wire 1 3 load $end
$var wire 1 4 load16 $end
$var parameter 2 9 IDLE $end
$var parameter 2 : LOAD_BYTE $end
$var parameter 2 ; LOAD_WORD $end
$var parameter 2 < TRANSMIT $end
$var reg 1 + CSX $end
$var reg 1 * DCX $end
$var reg 1 ) SCK $end
$var reg 1 ( SDO $end
$var reg 5 = bit_counter [4:0] $end
$var reg 1 > busy $end
$var reg 16 ? data_shift [15:0] $end
$var reg 16 @ out [15:0] $end
$var reg 2 A state [1:0] $end
$upscope $end
$scope task check $end
$upscope $end
$upscope $end
$enddefinitions $end
$comment Show the parameter values. $end
$dumpall
b11 <
b10 ;
b1 :
b0 9
$end
#0
$dumpvars
bx A
bx @
bx ?
x>
bx =
b0 8
b0 7
b0 6
b0 5
04
03
b0 2
01
00
0/
0.
b0 -
0,
x+
x*
x)
x(
0'
bx &
0%
0$
0#
0"
1!
$end
#20000
1/
#40000
0/
b1 5
#60000
1/
#80000
0/
b10 5
#100000
1/
#120000
0/
b11 5
#140000
1/
#160000
0/
b100 5
#180000
1/
#200000
0/
b101 5
#220000
1/
#240000
0/
b110 5
#260000
1/
#280000
0/
b111 5
#300000
1/
#320000
0/
b1000 5
#340000
1/
#360000
0/
b1001 5
#380000
1/
#400000
0/
b1010 5
#420000
1/
#440000
0/
b1011 5
#460000
1/
#480000
0/
b1100 5
#500000
1/
#520000
0/
b1101 5
#540000
1/
#560000
0/
b1110 5
#580000
1/
#600000
0/
b1111 5
#620000
1/
#640000
0/
b10000 5
#660000
1/
#680000
0/
b10001 5
#700000
1/
#720000
0/
b10010 5
#740000
1/
#760000
0/
b10011 5
#780000
1/
#800000
1%
0/
b10100 5
#820000
13
b1 7
b100100 2
b100100 8
1/
#840000
0%
0/
b10101 5
#860000
0!
0"
1.
b100100 6
1$
1'
b1 -
03
b1000000000000000 &
b1000000000000000 @
1>
b100100 ?
0+
0*
b111 =
b1 A
1/
#880000
0/
b10110 5
#900000
1"
b11 A
b10 -
1/
#920000
0/
b10111 5
#940000
0"
b1001000 6
b11 -
0(
1/
#960000
0/
b11000 5
#980000
1"
b100 -
1/
#1000000
0/
b11001 5
#1020000
1#
0"
b10010000 6
b101 -
1/
#1040000
0/
b11010 5
11
#1060000
1"
b110 -
1/
#1080000
0/
b11011 5
#1100000
0#
0"
b100100000 6
b111 -
1/
#1120000
0/
b11100 5
#1140000
1"
b1000 -
1/
#1160000
0/
b11101 5
#1180000
0"
b1001000000 6
b1001 -
1/
#1200000
0/
b11110 5
#1220000
1"
b1010 -
1/
#1240000
0/
b11111 5
#1260000
1#
0"
b10010000000 6
b1011 -
1/
#1280000
0/
b100000 5
#1300000
1"
b1100 -
1/
#1320000
0/
b100001 5
#1340000
0#
0"
b100100000000 6
b1101 -
1/
#1360000
0/
b100010 5
#1380000
1"
b1110 -
1/
#1400000
0/
b100011 5
#1420000
0"
b1001000000000 6
b1111 -
1/
#1440000
0/
b100100 5
#1460000
1"
b10000 -
1/
#1480000
0/
b100101 5
#1500000
0"
b10010000000000 6
0$
0'
b0 -
1/
#1520000
0/
b100110 5
#1540000
1/
#1560000
0/
b100111 5
#1580000
1/
#1600000
1%
0/
b101000 5
#1620000
13
b10 7
b1010000001 2
b1010000001 8
1/
#1640000
0%
0/
b101001 5
#1660000
1#
0"
1,
b1010000001 6
1$
1'
b1 -
03
b10000001 ?
1*
b1 A
1/
#1680000
0/
b101010 5
#1700000
1"
b11 A
b10 -
1/
#1720000
0/
b101011 5
#1740000
0#
0"
b10100000010 6
b11 -
1/
#1760000
0/
b101100 5
#1780000
1"
b100 -
1/
#1800000
0/
b101101 5
#1820000
0"
b101000000100 6
b101 -
1/
#1840000
0/
b101110 5
#1860000
1"
b110 -
1/
#1880000
0/
b101111 5
#1900000
0"
b1010000001000 6
b111 -
1/
#1920000
0/
b110000 5
#1940000
1"
b1000 -
1/
#1960000
0/
b110001 5
#1980000
0"
b10100000010000 6
b1001 -
1/
#2000000
0/
b110010 5
#2020000
1"
b1010 -
1/
#2040000
0/
b110011 5
#2060000
0"
b101000000100000 6
b1011 -
1/
#2080000
0/
b110100 5
#2100000
1"
b1100 -
1/
#2120000
0/
b110101 5
#2140000
0"
b1010000001000000 6
b1101 -
1/
#2160000
0/
b110110 5
#2180000
1"
b1110 -
1/
#2200000
0/
b110111 5
#2220000
1#
0"
b100000010000000 6
b1111 -
1/
#2240000
0/
b111000 5
#2260000
1"
b10000 -
1/
#2280000
0/
b111001 5
#2300000
0#
0"
b1000000100000000 6
0$
0'
b0 -
1/
#2320000
0/
b111010 5
#2340000
1/
#2360000
0/
b111011 5
#2380000
1/
#2400000
1%
0/
b111100 5
#2420000
14
b11 7
b1000001001 2
b1000001001 8
1/
#2440000
0%
0/
b111101 5
#2460000
0#
0"
b1000001001 6
1$
1'
b1 -
10
04
b1000001001 ?
b1111 =
b10 A
1/
#2480000
0/
b111110 5
#2500000
1"
b11 A
b10 -
1/
#2520000
0/
b111111 5
#2540000
0"
b10000010010 6
b11 -
1/
#2560000
0/
b1000000 5
#2580000
1"
b100 -
1/
#2600000
0/
b1000001 5
#2620000
0"
b100000100100 6
b101 -
1/
#2640000
0/
b1000010 5
#2660000
1"
b110 -
1/
#2680000
0/
b1000011 5
#2700000
0"
b1000001001000 6
b111 -
1/
#2720000
0/
b1000100 5
#2740000
1"
b1000 -
1/
#2760000
0/
b1000101 5
#2780000
0"
b10000010010000 6
b1001 -
1/
#2800000
0/
b1000110 5
#2820000
1"
b1010 -
1/
#2840000
0/
b1000111 5
#2860000
0"
b100000100100000 6
b1011 -
1/
#2880000
0/
b1001000 5
#2900000
1"
b1100 -
1/
#2920000
0/
b1001001 5
#2940000
1#
0"
b1000001001000000 6
b1101 -
1/
#2960000
0/
b1001010 5
#2980000
1"
b1110 -
1/
#3000000
0/
b1001011 5
#3020000
0#
0"
b10010000000 6
b1111 -
1/
#3040000
0/
b1001100 5
#3060000
1"
b10000 -
1/
#3080000
0/
b1001101 5
#3100000
0"
b100100000000 6
b10001 -
1/
#3120000
0/
b1001110 5
#3140000
1"
b10010 -
1/
#3160000
0/
b1001111 5
#3180000
0"
b1001000000000 6
b10011 -
1/
#3200000
1%
0/
b1010000 5
#3220000
1"
b0 7
b1001100011 2
b1001100011 8
b10100 -
1/
#3240000
0%
0/
b1010001 5
#3260000
0"
b10010000000000 6
b10101 -
1/
#3280000
0/
b1010010 5
#3300000
1"
b10110 -
1/
#3320000
0/
b1010011 5
#3340000
0"
b100100000000000 6
b10111 -
1/
#3360000
0/
b1010100 5
#3380000
1"
b11000 -
1/
#3400000
0/
b1010101 5
#3420000
1#
0"
b1001000000000000 6
b11001 -
1/
#3440000
0/
b1010110 5
#3460000
1"
b11010 -
1/
#3480000
0/
b1010111 5
#3500000
0#
0"
b10000000000000 6
b11011 -
1/
#3520000
0/
b1011000 5
#3540000
1"
b11100 -
1/
#3560000
0/
b1011001 5
#3580000
0"
b100000000000000 6
b11101 -
1/
#3600000
0/
b1011010 5
#3620000
1"
b11110 -
1/
#3640000
0/
b1011011 5
#3660000
1#
0"
b1000000000000000 6
b11111 -
1/
#3680000
0/
b1011100 5
#3700000
1"
b100000 -
1/
#3720000
0/
b1011101 5
#3740000
0#
0"
b0 6
0$
0'
b0 -
1/
#3760000
0/
b1011110 5
#3780000
1/
#3800000
0/
b1011111 5
#3820000
1/
#3840000
0/
b1100000 5
#3860000
1/
#3880000
0/
b1100001 5
#3900000
1/
#3920000
0/
b1100010 5
#3940000
1/
#3960000
0/
b1100011 5
#3980000
1/
#4000000
1%
0/
b1100100 5
#4020000
13
b1 7
b1000001101 2
b1000001101 8
1/
#4040000
0%
0/
b1100101 5
#4060000
0"
b1000001101 6
1$
1'
b1 -
00
03
b1101 ?
b111 =
b1 A
1/
#4080000
0/
b1100110 5
#4100000
1"
b11 A
b10 -
1/
#4120000
0/
b1100111 5
#4140000
0"
b10000011010 6
b11 -
1/
#4160000
0/
b1101000 5
#4180000
1"
b100 -
1/
#4200000
0/
b1101001 5
#4220000
0"
b100000110100 6
b101 -
1/
#4240000
0/
b1101010 5
#4260000
1"
b110 -
1/
#4280000
0/
b1101011 5
#4300000
0"
b1000001101000 6
b111 -
1/
#4320000
0/
b1101100 5
#4340000
1"
b1000 -
1/
#4360000
0/
b1101101 5
#4380000
1#
0"
b10000011010000 6
b1001 -
1/
#4400000
0/
b1101110 5
#4420000
1"
b1010 -
1/
#4440000
0/
b1101111 5
#4460000
0"
b100000110100000 6
b1011 -
1/
#4480000
0/
b1110000 5
#4500000
1"
b1100 -
1/
#4520000
0/
b1110001 5
#4540000
0#
0"
b1000001101000000 6
b1101 -
1/
#4560000
0/
b1110010 5
#4580000
1"
b1110 -
1/
#4600000
0/
b1110011 5
#4620000
1#
0"
b11010000000 6
b1111 -
1/
#4640000
0/
b1110100 5
#4660000
1"
b10000 -
1/
#4680000
0/
b1110101 5
#4700000
0#
0"
b110100000000 6
0$
0'
b0 -
1/
#4720000
0/
b1110110 5
#4740000
1/
#4760000
0/
b1110111 5
#4780000
1/
#4800000
0/
b1111000 5
#4820000
1/
#4840000
0/
b1111001 5
#4860000
1/
#4880000
0/
b1111010 5
#4900000
1/
#4920000
0/
b1111011 5
#4940000
1/
#4960000
0/
b1111100 5
#4980000
1/
#5000000
0/
b1111101 5
#5020000
1/
#5040000
0/
b1111110 5
#5060000
1/
#5080000
0/
b1111111 5
#5100000
1/
#5120000
0/
b10000000 5
#5140000
1/
#5160000
0/
b10000001 5
#5180000
1/
#5200000
0/
b10000010 5
#5220000
1/
#5240000
0/
b10000011 5
#5260000
1/
#5280000
0/
b10000100 5
#5300000
1/
#5320000
0/
b10000101 5
#5340000
1/
#5360000
0/
b10000110 5
#5380000
1/
#5400000
0/
b10000111 5
#5420000
1/
#5440000
0/
b10001000 5
#5460000
1/
#5480000
0/
b10001001 5
#5500000
1/
#5520000
0/
b10001010 5
#5540000
1/
#5560000
0/
b10001011 5
#5580000
1/
#5600000
0/
b10001100 5
#5620000
1/
#5640000
0/
b10001101 5
#5660000
1/
#5680000
0/
b10001110 5
#5700000
1/
#5720000
0/
b10001111 5
#5740000
1/
#5760000
0/
b10010000 5
#5780000
1/
#5800000
0/
b10010001 5
#5820000
1/
#5840000
0/
b10010010 5
#5860000
1/
#5880000
0/
b10010011 5
#5900000
1/
#5920000
0/
b10010100 5
#5940000
1/
#5960000
0/
b10010101 5
#5980000
1/
#6000000
0/
b10010110 5
#6020000
1/
#6040000
0/
b10010111 5
#6060000
1/
#6080000
0/
b10011000 5
#6100000
1/
#6120000
0/
b10011001 5
#6140000
1/
#6160000
0/
b10011010 5
#6180000
1/
#6200000
0/
b10011011 5
#6220000
1/
#6240000
0/
b10011100 5
#6260000
1/
#6280000
0/
b10011101 5
#6300000
1/
#6320000
0/
b10011110 5
#6340000
1/
#6360000
0/
b10011111 5
#6380000
1/
#6400000
0/
b10100000 5
#6420000
1/
#6440000
0/
b10100001 5
#6460000
1/
#6480000
0/
b10100010 5
#6500000
1/
#6520000
0/
b10100011 5
#6540000
1/
#6560000
0/
b10100100 5
#6580000
1/
#6600000
0/
b10100101 5
#6620000
1/
#6640000
0/
b10100110 5
#6660000
1/
#6680000
0/
b10100111 5
#6700000
1/
#6720000
0/
b10101000 5
#6740000
1/
#6760000
0/
b10101001 5
#6780000
1/
#6800000
0/
b10101010 5
#6820000
1/
#6840000
0/
b10101011 5
#6860000
1/
#6880000
0/
b10101100 5
#6900000
1/
#6920000
0/
b10101101 5
#6940000
1/
#6960000
0/
b10101110 5
#6980000
1/
#7000000
0/
b10101111 5
#7020000
1/
#7040000
0/
b10110000 5
#7060000
1/
#7080000
0/
b10110001 5
#7100000
1/
#7120000
0/
b10110010 5
#7140000
1/
#7160000
0/
b10110011 5
#7180000
1/
#7200000
0/
b10110100 5
#7220000
1/
#7240000
0/
b10110101 5
#7260000
1/
#7280000
0/
b10110110 5
#7300000
1/
#7320000
0/
b10110111 5
#7340000
1/
#7360000
0/
b10111000 5
#7380000
1/
#7400000
0/
b10111001 5
#7420000
1/
#7440000
0/
b10111010 5
#7460000
1/
#7480000
0/
b10111011 5
#7500000
1/
#7520000
0/
b10111100 5
#7540000
1/
#7560000
0/
b10111101 5
#7580000
1/
#7600000
0/
b10111110 5
#7620000
1/
#7640000
0/
b10111111 5
#7660000
1/
#7680000
0/
b11000000 5
#7700000
1/
#7720000
0/
b11000001 5
#7740000
1/
#7760000
0/
b11000010 5
#7780000
1/
#7800000
0/
b11000011 5
#7820000
1/
#7840000
0/
b11000100 5
#7860000
1/
#7880000
0/
b11000101 5
#7900000
1/
#7920000
0/
b11000110 5
#7940000
1/
#7960000
0/
b11000111 5
#7980000
1/
#8000000
0/
b11001000 5
#8020000
1/
#8040000
0/
b11001001 5
#8060000
1/
#8080000
0/
b11001010 5
#8100000
1/
#8120000
0/
b11001011 5
#8140000
1/
#8160000
0/
b11001100 5
#8180000
1/
#8200000
0/
b11001101 5
#8220000
1/
#8240000
0/
b11001110 5
#8260000
1/
#8280000
0/
b11001111 5
#8300000
1/
#8320000
0/
b11010000 5
#8340000
1/
#8360000
0/
b11010001 5
#8380000
1/
#8400000
0/
b11010010 5
#8420000
1/
#8440000
0/
b11010011 5
#8460000
1/
#8480000
0/
b11010100 5
#8500000
1/
#8520000
0/
b11010101 5
#8540000
1/
#8560000
0/
b11010110 5
#8580000
1/
#8600000
0/
b11010111 5
#8620000
1/
#8640000
0/
b11011000 5
#8660000
1/
#8680000
0/
b11011001 5
#8700000
1/
#8720000
0/
b11011010 5
#8740000
1/
#8760000
0/
b11011011 5
#8780000
1/
#8800000
0/
b11011100 5
#8820000
1/
#8840000
0/
b11011101 5
#8860000
1/
#8880000
0/
b11011110 5
#8900000
1/
#8920000
0/
b11011111 5
#8940000
1/
#8960000
0/
b11100000 5
#8980000
1/
#9000000
0/
b11100001 5
#9020000
1/
#9040000
0/
b11100010 5
#9060000
1/
#9080000
0/
b11100011 5
#9100000
1/
#9120000
0/
b11100100 5
#9140000
1/
#9160000
0/
b11100101 5
#9180000
1/
#9200000
0/
b11100110 5
#9220000
1/
#9240000
0/
b11100111 5
#9260000
1/
#9280000
0/
b11101000 5
#9300000
1/
#9320000
0/
b11101001 5
#9340000
1/
#9360000
0/
b11101010 5
#9380000
1/
#9400000
0/
b11101011 5
#9420000
1/
#9440000
0/
b11101100 5
#9460000
1/
#9480000
0/
b11101101 5
#9500000
1/
#9520000
0/
b11101110 5
#9540000
1/
#9560000
0/
b11101111 5
#9580000
1/
#9600000
0/
b11110000 5
#9620000
1/
#9640000
0/
b11110001 5
#9660000
1/
#9680000
0/
b11110010 5
#9700000
1/
#9720000
0/
b11110011 5
#9740000
1/
#9760000
0/
b11110100 5
#9780000
1/
#9800000
0/
b11110101 5
#9820000
1/
#9840000
0/
b11110110 5
#9860000
1/
#9880000
0/
b11110111 5
#9900000
1/
#9920000
0/
b11111000 5
#9940000
1/
#9960000
0/
b11111001 5
#9980000
1/
#10000000
0/
b11111010 5
#10020000
1/
#10040000
0/
b11111011 5
#10060000
1/
#10080000
0/
b11111100 5
#10100000
1/
#10120000
0/
b11111101 5
#10140000
1/
#10160000
0/
b11111110 5
#10180000
1/
#10200000
0/
b11111111 5
#10220000
1/
#10240000
0/
b100000000 5
#10260000
1/
#10280000
0/
b100000001 5
#10300000
1/
#10320000
0/
b100000010 5
#10340000
1/
#10360000
0/
b100000011 5
#10380000
1/
#10400000
0/
b100000100 5
#10420000
1/
#10440000
0/
b100000101 5
#10460000
1/
#10480000
0/
b100000110 5
#10500000
1/
#10520000
0/
b100000111 5
#10540000
1/
#10560000
0/
b100001000 5
#10580000
1/
#10600000
0/
b100001001 5
#10620000
1/
#10640000
0/
b100001010 5
#10660000
1/
#10680000
0/
b100001011 5
#10700000
1/
#10720000
0/
b100001100 5
#10740000
1/
#10760000
0/
b100001101 5
#10780000
1/
#10800000
0/
b100001110 5
#10820000
1/
#10840000
0/
b100001111 5
#10860000
1/
#10880000
0/
b100010000 5
#10900000
1/
#10920000
0/
b100010001 5
#10940000
1/
#10960000
0/
b100010010 5
#10980000
1/
#11000000
0/
b100010011 5
#11020000
1/
#11040000
0/
b100010100 5
#11060000
1/
#11080000
0/
b100010101 5
#11100000
1/
#11120000
0/
b100010110 5
#11140000
1/
#11160000
0/
b100010111 5
#11180000
1/
#11200000
0/
b100011000 5
#11220000
1/
#11240000
0/
b100011001 5
#11260000
1/
#11280000
0/
b100011010 5
#11300000
1/
#11320000
0/
b100011011 5
#11340000
1/
#11360000
0/
b100011100 5
#11380000
1/
#11400000
0/
b100011101 5
#11420000
1/
#11440000
0/
b100011110 5
#11460000
1/
#11480000
0/
b100011111 5
#11500000
1/
#11520000
0/
b100100000 5
#11540000
1/
#11560000
0/
b100100001 5
#11580000
1/
#11600000
0/
b100100010 5
#11620000
1/
#11640000
0/
b100100011 5
#11660000
1/
#11680000
0/
b100100100 5
#11700000
1/
#11720000
0/
b100100101 5
#11740000
1/
#11760000
0/
b100100110 5
#11780000
1/
#11800000
0/
b100100111 5
#11820000
1/
#11840000
0/
b100101000 5
#11860000
1/
#11880000
0/
b100101001 5
#11900000
1/
#11920000
0/
b100101010 5
#11940000
1/
#11960000
0/
b100101011 5
#11980000
1/
#12000000
0/
b100101100 5
#12020000
1/
#12040000
0/
b100101101 5
#12060000
1/
#12080000
0/
b100101110 5
#12100000
1/
#12120000
0/
b100101111 5
#12140000
1/
#12160000
0/
b100110000 5
#12180000
1/
#12200000
0/
b100110001 5
#12220000
1/
#12240000
0/
b100110010 5
#12260000
1/
#12280000
0/
b100110011 5
#12300000
1/
#12320000
0/
b100110100 5
#12340000
1/
#12360000
0/
b100110101 5
#12380000
1/
#12400000
0/
b100110110 5
#12420000
1/
#12440000
0/
b100110111 5
#12460000
1/
#12480000
0/
b100111000 5
#12500000
1/
#12520000
0/
b100111001 5
#12540000
1/
#12560000
0/
b100111010 5
#12580000
1/
#12600000
0/
b100111011 5
#12620000
1/
#12640000
0/
b100111100 5
#12660000
1/
#12680000
0/
b100111101 5
#12700000
1/
#12720000
0/
b100111110 5
#12740000
1/
#12760000
0/
b100111111 5
#12780000
1/
#12800000
0/
b101000000 5
#12820000
1/
#12840000
0/
b101000001 5
#12860000
1/
#12880000
0/
b101000010 5
#12900000
1/
#12920000
0/
b101000011 5
#12940000
1/
#12960000
0/
b101000100 5
#12980000
1/
#13000000
0/
b101000101 5
#13020000
1/
#13040000
0/
b101000110 5
#13060000
1/
#13080000
0/
b101000111 5
#13100000
1/
#13120000
0/
b101001000 5
#13140000
1/
#13160000
0/
b101001001 5
#13180000
1/
#13200000
0/
b101001010 5
#13220000
1/
#13240000
0/
b101001011 5
#13260000
1/
#13280000
0/
b101001100 5
#13300000
1/
#13320000
0/
b101001101 5
#13340000
1/
#13360000
0/
b101001110 5
#13380000
1/
#13400000
0/
b101001111 5
#13420000
1/
#13440000
0/
b101010000 5
#13460000
1/
#13480000
0/
b101010001 5
#13500000
1/
#13520000
0/
b101010010 5
#13540000
1/
#13560000
0/
b101010011 5
#13580000
1/
#13600000
0/
b101010100 5
#13620000
1/
#13640000
0/
b101010101 5
#13660000
1/
#13680000
0/
b101010110 5
#13700000
1/
#13720000
0/
b101010111 5
#13740000
1/
#13760000
0/
b101011000 5
#13780000
1/
#13800000
0/
b101011001 5
#13820000
1/
#13840000
0/
b101011010 5
#13860000
1/
#13880000
0/
b101011011 5
#13900000
1/
#13920000
0/
b101011100 5
#13940000
1/
#13960000
0/
b101011101 5
#13980000
1/
#14000000
0/
b101011110 5
#14020000
1/
#14040000
0/
b101011111 5
#14060000
1/
#14080000
0/
b101100000 5
#14100000
1/
#14120000
0/
b101100001 5
#14140000
1/
#14160000
0/
b101100010 5
#14180000
1/
#14200000
0/
b101100011 5
#14220000
1/
#14240000
0/
b101100100 5
#14260000
1/
#14280000
0/
b101100101 5
#14300000
1/
#14320000
0/
b101100110 5
#14340000
1/
#14360000
0/
b101100111 5
#14380000
1/
#14400000
0/
b101101000 5
#14420000
1/
#14440000
0/
b101101001 5
#14460000
1/
#14480000
0/
b101101010 5
#14500000
1/
#14520000
0/
b101101011 5
#14540000
1/
#14560000
0/
b101101100 5
#14580000
1/
#14600000
0/
b101101101 5
#14620000
1/
#14640000
0/
b101101110 5
#14660000
1/
#14680000
0/
b101101111 5
#14700000
1/
#14720000
0/
b101110000 5
#14740000
1/
#14760000
0/
b101110001 5
#14780000
1/
#14800000
0/
b101110010 5
#14820000
1/
#14840000
0/
b101110011 5
#14860000
1/
#14880000
0/
b101110100 5
#14900000
1/
#14920000
0/
b101110101 5
#14940000
1/
#14960000
0/
b101110110 5
#14980000
1/
#15000000
0/
b101110111 5
#15020000
1/
#15040000
0/
b101111000 5
#15060000
1/
#15080000
0/
b101111001 5
#15100000
1/
#15120000
0/
b101111010 5
#15140000
1/
#15160000
0/
b101111011 5
#15180000
1/
#15200000
0/
b101111100 5
#15220000
1/
#15240000
0/
b101111101 5
#15260000
1/
#15280000
0/
b101111110 5
#15300000
1/
#15320000
0/
b101111111 5
#15340000
1/
#15360000
0/
b110000000 5
#15380000
1/
#15400000
0/
b110000001 5
#15420000
1/
#15440000
0/
b110000010 5
#15460000
1/
#15480000
0/
b110000011 5
#15500000
1/
#15520000
0/
b110000100 5
#15540000
1/
#15560000
0/
b110000101 5
#15580000
1/
#15600000
0/
b110000110 5
#15620000
1/
#15640000
0/
b110000111 5
#15660000
1/
#15680000
0/
b110001000 5
#15700000
1/
#15720000
0/
b110001001 5
#15740000
1/
#15760000
0/
b110001010 5
#15780000
1/
#15800000
0/
b110001011 5
#15820000
1/
#15840000
0/
b110001100 5
#15860000
1/
#15880000
0/
b110001101 5
#15900000
1/
#15920000
0/
b110001110 5
#15940000
1/
#15960000
0/
b110001111 5
#15980000
1/
#16000000
0/
b110010000 5
