06_IO_Devices/01_UartTX/UartTX_tb.vcd
$date
	Fri Aug  8 07:50:14 2025
$end
$version
	Icarus Verilog
$end
$timescale
	1ps
$end
$scope module UartTX_tb $end
$var wire 1 ! trigger $end
$var wire 16 " out [15:0] $end
$var wire 1 # is216 $end
$var wire 1 $ TX_cmp $end
$var wire 1 % TX $end
$var reg 16 & baudrate [15:0] $end
$var reg 16 ' bits [15:0] $end
$var reg 1 ( clk $end
$var reg 1 ) fail $end
$var reg 16 * in [15:0] $end
$var reg 1 + load $end
$var reg 32 , n [31:0] $end
$var reg 16 - out_cmp [15:0] $end
$var reg 10 . uart [9:0] $end
$scope module UartTX $end
$var wire 1 % TX $end
$var wire 1 ( clk $end
$var wire 16 / in [15:0] $end
$var wire 1 + load $end
$var wire 16 0 out [15:0] $end
$var wire 1 1 busy $end
$var parameter 32 2 IDLE $end
$var parameter 32 3 TRANSMIT $end
$var reg 4 4 bit_counter [3:0] $end
$var reg 8 5 clk_counter [7:0] $end
$var reg 8 6 data_buffer [7:0] $end
$var reg 1 7 state $end
$var reg 1 8 tx_reg $end
$upscope $end
$scope task check $end
$upscope $end
$upscope $end
$enddefinitions $end
$comment Show the parameter values. $end
$dumpall
b1 3
b0 2
$end
#0
$dumpvars
x8
x7
bx 6
bx 5
bx 4
x1
bx000000000000000 0
b0 /
b1111111111 .
b0 -
b0 ,
0+
b0 *
0)
0(
b0 '
b0 &
x%
1$
0#
bx000000000000000 "
0!
$end
#20000
1(
#40000
0(
b1 ,
#60000
1(
#80000
0(
b10 ,
#100000
1(
#120000
0(
b11 ,
#140000
1(
#160000
0(
b100 ,
#180000
1(
#200000
0(
b101 ,
#220000
1(
#240000
0(
b110 ,
#260000
1(
#280000
0(
b111 ,
#300000
1(
#320000
0(
b1000 ,
#340000
1(
#360000
0(
b1001 ,
#380000
1(
#400000
0(
b1010 ,
#420000
1(
#440000
0(
b1011 ,
#460000
1(
#480000
0(
b1100 ,
#500000
1(
#520000
0(
b1101 ,
#540000
1(
#560000
0(
b1110 ,
#580000
1(
#600000
0(
b1111 ,
#620000
1(
#640000
0(
b10000 ,
#660000
1(
#680000
0(
b10001 ,
#700000
1(
#720000
0(
b10010 ,
#740000
1(
#760000
0(
b10011 ,
#780000
1(
#800000
0(
b10100 ,
#820000
1(
#840000
0(
b10101 ,
#860000
1(
#880000
0(
b10110 ,
#900000
1(
#920000
0(
b10111 ,
#940000
1(
#960000
0(
b11000 ,
#980000
1(
#1000000
0(
b11001 ,
#1020000
1(
#1040000
0(
b11010 ,
#1060000
1(
#1080000
0(
b11011 ,
#1100000
1(
#1120000
0(
b11100 ,
#1140000
1(
#1160000
0(
b11101 ,
#1180000
1(
#1200000
0(
b11110 ,
#1220000
1(
#1240000
0(
b11111 ,
#1260000
1(
#1280000
0(
b100000 ,
#1300000
1(
#1320000
0(
b100001 ,
#1340000
1(
#1360000
0(
b100010 ,
#1380000
1(
#1400000
0(
b100011 ,
#1420000
1(
#1440000
0(
b100100 ,
#1460000
1(
#1480000
0(
b100101 ,
#1500000
1(
#1520000
0(
b100110 ,
#1540000
1(
#1560000
0(
b100111 ,
#1580000
1(
#1600000
0(
b101000 ,
#1620000
1(
#1640000
0(
b101001 ,
#1660000
1(
#1680000
0(
b101010 ,
#1700000
1(
#1720000
0(
b101011 ,
#1740000
1(
#1760000
0(
b101100 ,
#1780000
1(
#1800000
0(
b101101 ,
#1820000
1(
#1840000
0(
b101110 ,
#1860000
1(
#1880000
0(
b101111 ,
#1900000
1(
#1920000
0(
b110000 ,
#1940000
1(
#1960000
0(
b110001 ,
#1980000
1(
#2000000
0(
b110010 ,
#2020000
1(
#2040000
0(
b110011 ,
#2060000
1(
#2080000
0(
b110100 ,
#2100000
1(
#2120000
0(
b110101 ,
#2140000
1(
#2160000
0(
b110110 ,
#2180000
1(
#2200000
0(
b110111 ,
#2220000
1(
#2240000
0(
b111000 ,
#2260000
1(
#2280000
0(
b111001 ,
#2300000
1(
#2320000
0(
b111010 ,
#2340000
1(
#2360000
0(
b111011 ,
#2380000
1(
#2400000
0(
b111100 ,
#2420000
1(
#2440000
0(
b111101 ,
#2460000
1(
#2480000
0(
b111110 ,
#2500000
1(
#2520000
0(
b111111 ,
#2540000
1(
#2560000
0(
b1000000 ,
#2580000
1(
#2600000
0(
b1000001 ,
#2620000
1(
#2640000
0(
b1000010 ,
#2660000
1(
#2680000
0(
b1000011 ,
#2700000
1(
#2720000
0(
b1000100 ,
#2740000
1(
#2760000
0(
b1000101 ,
#2780000
1(
#2800000
0(
b1000110 ,
#2820000
1(
#2840000
0(
b1000111 ,
#2860000
1(
#2880000
0(
b1001000 ,
#2900000
1(
#2920000
0(
b1001001 ,
#2940000
1(
#2960000
0(
b1001010 ,
#2980000
1(
#3000000
0(
b1001011 ,
#3020000
1(
#3040000
0(
b1001100 ,
#3060000
1(
#3080000
0(
b1001101 ,
#3100000
1(
#3120000
0(
b1001110 ,
#3140000
1(
#3160000
0(
b1001111 ,
#3180000
1(
#3200000
0(
b1010000 ,
#3220000
1(
#3240000
0(
b1010001 ,
#3260000
1(
#3280000
0(
b1010010 ,
#3300000
1(
#3320000
0(
b1010011 ,
#3340000
1(
#3360000
0(
b1010100 ,
#3380000
1(
#3400000
0(
b1010101 ,
#3420000
1(
#3440000
0(
b1010110 ,
#3460000
1(
#3480000
0(
b1010111 ,
#3500000
1(
#3520000
0(
b1011000 ,
#3540000
1(
#3560000
0(
b1011001 ,
#3580000
1(
#3600000
0(
b1011010 ,
#3620000
1(
#3640000
0(
b1011011 ,
#3660000
1(
#3680000
0(
b1011100 ,
#3700000
1(
#3720000
0(
b1011101 ,
#3740000
1(
#3760000
0(
b1011110 ,
#3780000
1(
#3800000
0(
b1011111 ,
#3820000
1(
#3840000
0(
b1100000 ,
#3860000
1(
#3880000
0(
b1100001 ,
#3900000
1(
#3920000
0(
b1100010 ,
#3940000
1(
#3960000
0(
b1100011 ,
#3980000
1(
#4000000
0(
b1100100 ,
#4020000
1(
#4040000
0(
b1100101 ,
#4060000
1(
#4080000
0(
b1100110 ,
#4100000
1(
#4120000
0(
b1100111 ,
#4140000
1(
#4160000
0(
b1101000 ,
#4180000
1(
#4200000
0(
b1101001 ,
#4220000
1(
#4240000
0(
b1101010 ,
#4260000
1(
#4280000
0(
b1101011 ,
#4300000
1(
#4320000
0(
b1101100 ,
#4340000
1(
#4360000
0(
b1101101 ,
#4380000
1(
#4400000
0(
b1101110 ,
#4420000
1(
#4440000
0(
b1101111 ,
#4460000
1(
#4480000
0(
b1110000 ,
#4500000
1(
#4520000
0(
b1110001 ,
#4540000
1(
#4560000
0(
b1110010 ,
#4580000
1(
#4600000
0(
b1110011 ,
#4620000
1(
#4640000
0(
b1110100 ,
#4660000
1(
#4680000
0(
b1110101 ,
#4700000
1(
#4720000
0(
b1110110 ,
#4740000
1(
#4760000
0(
b1110111 ,
#4780000
1(
#4800000
0(
b1111000 ,
#4820000
1(
#4840000
0(
b1111001 ,
#4860000
1(
#4880000
0(
b1111010 ,
#4900000
1(
#4920000
0(
b1111011 ,
#4940000
1(
#4960000
0(
b1111100 ,
#4980000
1(
#5000000
0(
b1111101 ,
#5020000
1(
#5040000
0(
b1111110 ,
#5060000
1(
#5080000
0(
b1111111 ,
#5100000
1(
#5120000
0(
b10000000 ,
#5140000
1(
#5160000
0(
b10000001 ,
#5180000
1(
#5200000
0(
b10000010 ,
#5220000
1(
#5240000
0(
b10000011 ,
#5260000
1(
#5280000
0(
b10000100 ,
#5300000
1(
#5320000
0(
b10000101 ,
#5340000
1(
#5360000
0(
b10000110 ,
#5380000
1(
#5400000
0(
b10000111 ,
#5420000
1(
#5440000
0(
b10001000 ,
#5460000
1(
#5480000
0(
b10001001 ,
#5500000
1(
#5520000
0(
b10001010 ,
#5540000
1(
#5560000
0(
b10001011 ,
#5580000
1(
#5600000
0(
b10001100 ,
#5620000
1(
#5640000
0(
b10001101 ,
#5660000
1(
#5680000
0(
b10001110 ,
#5700000
1(
#5720000
0(
b10001111 ,
#5740000
1(
#5760000
0(
b10010000 ,
#5780000
1(
#5800000
0(
b10010001 ,
#5820000
1(
#5840000
0(
b10010010 ,
#5860000
1(
#5880000
0(
b10010011 ,
#5900000
1(
#5920000
0(
b10010100 ,
#5940000
1(
#5960000
0(
b10010101 ,
#5980000
1(
#6000000
0(
b10010110 ,
#6020000
1(
#6040000
0(
b10010111 ,
#6060000
1(
#6080000
0(
b10011000 ,
#6100000
1(
#6120000
0(
b10011001 ,
#6140000
1(
#6160000
0(
b10011010 ,
#6180000
1(
#6200000
0(
b10011011 ,
#6220000
1(
#6240000
0(
b10011100 ,
#6260000
1(
#6280000
0(
b10011101 ,
#6300000
1(
#6320000
0(
b10011110 ,
#6340000
1(
#6360000
0(
b10011111 ,
#6380000
1(
#6400000
0(
b10100000 ,
#6420000
1(
#6440000
0(
b10100001 ,
#6460000
1(
#6480000
0(
b10100010 ,
#6500000
1(
#6520000
0(
b10100011 ,
#6540000
1(
#6560000
0(
b10100100 ,
#6580000
1(
#6600000
0(
b10100101 ,
#6620000
1(
#6640000
0(
b10100110 ,
#6660000
1(
#6680000
0(
b10100111 ,
#6700000
1(
#6720000
0(
b10101000 ,
#6740000
1(
#6760000
0(
b10101001 ,
#6780000
1(
#6800000
0(
b10101010 ,
#6820000
1(
#6840000
0(
b10101011 ,
#6860000
1(
#6880000
0(
b10101100 ,
#6900000
1(
#6920000
0(
b10101101 ,
#6940000
1(
#6960000
0(
b10101110 ,
#6980000
1(
#7000000
0(
b10101111 ,
#7020000
1(
#7040000
0(
b10110000 ,
#7060000
1(
#7080000
0(
b10110001 ,
#7100000
1(
#7120000
0(
b10110010 ,
#7140000
1(
#7160000
0(
b10110011 ,
#7180000
1(
#7200000
0(
b10110100 ,
#7220000
1(
#7240000
0(
b10110101 ,
#7260000
1(
#7280000
0(
b10110110 ,
#7300000
1(
#7320000
0(
b10110111 ,
#7340000
1(
#7360000
0(
b10111000 ,
#7380000
1(
#7400000
0(
b10111001 ,
#7420000
1(
#7440000
0(
b10111010 ,
#7460000
1(
#7480000
0(
b10111011 ,
#7500000
1(
#7520000
0(
b10111100 ,
#7540000
1(
#7560000
0(
b10111101 ,
#7580000
1(
#7600000
0(
b10111110 ,
#7620000
1(
#7640000
0(
b10111111 ,
#7660000
1(
#7680000
0(
b11000000 ,
#7700000
1(
#7720000
0(
b11000001 ,
#7740000
1(
#7760000
0(
b11000010 ,
#7780000
1(
#7800000
0(
b11000011 ,
#7820000
1(
#7840000
0(
b11000100 ,
#7860000
1(
#7880000
0(
b11000101 ,
#7900000
1(
#7920000
0(
b11000110 ,
#7940000
1(
#7960000
0(
b11000111 ,
#7980000
1(
#8000000
0(
b11001000 ,
#8020000
1(
#8040000
0(
b11001001 ,
#8060000
1(
#8080000
0(
b11001010 ,
#8100000
1(
#8120000
0(
b11001011 ,
#8140000
1(
#8160000
0(
b11001100 ,
#8180000
1(
#8200000
0(
b11001101 ,
#8220000
1(
#8240000
0(
b11001110 ,
#8260000
1(
#8280000
0(
b11001111 ,
#8300000
1(
#8320000
0(
b11010000 ,
#8340000
1(
#8360000
0(
b11010001 ,
#8380000
1(
#8400000
0(
b11010010 ,
#8420000
1(
#8440000
0(
b11010011 ,
#8460000
1(
#8480000
0(
b11010100 ,
#8500000
1(
#8520000
0(
b11010101 ,
#8540000
1(
#8560000
0(
b11010110 ,
#8580000
1(
#8600000
0(
b11010111 ,
#8620000
1(
#8640000
0(
b11011000 ,
#8660000
1(
#8680000
0(
b11011001 ,
#8700000
1(
#8720000
0(
b11011010 ,
#8740000
1(
#8760000
0(
b11011011 ,
#8780000
1(
#8800000
0(
b11011100 ,
#8820000
1(
#8840000
0(
b11011101 ,
#8860000
1(
#8880000
0(
b11011110 ,
#8900000
1(
#8920000
0(
b11011111 ,
#8940000
1(
#8960000
0(
b11100000 ,
#8980000
1(
#9000000
0(
b11100001 ,
#9020000
1(
#9040000
0(
b11100010 ,
#9060000
1(
#9080000
0(
b11100011 ,
#9100000
1(
#9120000
0(
b11100100 ,
#9140000
1(
#9160000
0(
b11100101 ,
#9180000
1(
#9200000
0(
b11100110 ,
#9220000
1(
#9240000
0(
b11100111 ,
#9260000
1(
#9280000
0(
b11101000 ,
#9300000
1(
#9320000
0(
b11101001 ,
#9340000
1(
#9360000
0(
b11101010 ,
#9380000
1(
#9400000
0(
b11101011 ,
#9420000
1(
#9440000
0(
b11101100 ,
#9460000
1(
#9480000
0(
b11101101 ,
#9500000
1(
#9520000
0(
b11101110 ,
#9540000
1(
#9560000
0(
b11101111 ,
#9580000
1(
#9600000
0(
b11110000 ,
#9620000
1(
#9640000
0(
b11110001 ,
#9660000
1(
#9680000
0(
b11110010 ,
#9700000
1(
#9720000
0(
b11110011 ,
#9740000
1(
#9760000
0(
b11110100 ,
#9780000
1(
#9800000
0(
b11110101 ,
#9820000
1(
#9840000
0(
b11110110 ,
#9860000
1(
#9880000
0(
b11110111 ,
#9900000
1(
#9920000
0(
b11111000 ,
#9940000
1(
#9960000
0(
b11111001 ,
#9980000
1(
#10000000
0(
b11111010 ,
#10020000
1(
#10040000
0(
b11111011 ,
#10060000
1(
#10080000
0(
b11111100 ,
#10100000
1(
#10120000
0(
b11111101 ,
#10140000
1(
#10160000
0(
b11111110 ,
#10180000
1(
#10200000
0(
b11111111 ,
#10220000
1(
#10240000
0(
b100000000 ,
#10260000
1(
#10280000
0(
b100000001 ,
#10300000
1(
#10320000
0(
b100000010 ,
#10340000
1(
#10360000
0(
b100000011 ,
#10380000
1(
#10400000
0(
b100000100 ,
#10420000
1(
#10440000
0(
b100000101 ,
#10460000
1(
#10480000
0(
b100000110 ,
#10500000
1(
#10520000
0(
b100000111 ,
#10540000
1(
#10560000
0(
b100001000 ,
#10580000
1(
#10600000
0(
b100001001 ,
#10620000
1(
#10640000
0(
b100001010 ,
#10660000
1(
#10680000
0(
b100001011 ,
#10700000
1(
#10720000
0(
b100001100 ,
#10740000
1(
#10760000
0(
b100001101 ,
#10780000
1(
#10800000
0(
b100001110 ,
#10820000
1(
#10840000
0(
b100001111 ,
#10860000
1(
#10880000
0(
b100010000 ,
#10900000
1(
#10920000
0(
b100010001 ,
#10940000
1(
#10960000
0(
b100010010 ,
#10980000
1(
#11000000
0(
b100010011 ,
#11020000
1(
#11040000
0(
b100010100 ,
#11060000
1(
#11080000
0(
b100010101 ,
#11100000
1(
#11120000
0(
b100010110 ,
#11140000
1(
#11160000
0(
b100010111 ,
#11180000
1(
#11200000
0(
b100011000 ,
#11220000
1(
#11240000
0(
b100011001 ,
#11260000
1(
#11280000
0(
b100011010 ,
#11300000
1(
#11320000
0(
b100011011 ,
#11340000
1(
#11360000
0(
b100011100 ,
#11380000
1(
#11400000
0(
b100011101 ,
#11420000
1(
#11440000
0(
b100011110 ,
#11460000
1(
#11480000
0(
b100011111 ,
#11500000
1(
#11520000
0(
b100100000 ,
#11540000
1(
#11560000
0(
b100100001 ,
#11580000
1(
#11600000
0(
b100100010 ,
#11620000
1(
#11640000
0(
b100100011 ,
#11660000
1(
#11680000
0(
b100100100 ,
#11700000
1(
#11720000
0(
b100100101 ,
#11740000
1(
#11760000
0(
b100100110 ,
#11780000
1(
#11800000
0(
b100100111 ,
#11820000
1(
#11840000
0(
b100101000 ,
#11860000
1(
#11880000
0(
b100101001 ,
#11900000
1(
#11920000
0(
b100101010 ,
#11940000
1(
#11960000
0(
b100101011 ,
#11980000
1(
#12000000
0(
b100101100 ,
#12020000
1(
#12040000
0(
b100101101 ,
#12060000
1(
#12080000
0(
b100101110 ,
#12100000
1(
#12120000
0(
b100101111 ,
#12140000
1(
#12160000
0(
b100110000 ,
#12180000
1(
#12200000
0(
b100110001 ,
#12220000
1(
#12240000
0(
b100110010 ,
#12260000
1(
#12280000
0(
b100110011 ,
#12300000
1(
#12320000
0(
b100110100 ,
#12340000
1(
#12360000
0(
b100110101 ,
#12380000
1(
#12400000
0(
b100110110 ,
#12420000
1(
#12440000
0(
b100110111 ,
#12460000
1(
#12480000
0(
b100111000 ,
#12500000
1(
#12520000
0(
b100111001 ,
#12540000
1(
#12560000
0(
b100111010 ,
#12580000
1(
#12600000
0(
b100111011 ,
#12620000
1(
#12640000
0(
b100111100 ,
#12660000
1(
#12680000
0(
b100111101 ,
#12700000
1(
#12720000
0(
b100111110 ,
#12740000
1(
#12760000
0(
b100111111 ,
#12780000
1(
#12800000
0(
b101000000 ,
#12820000
1(
#12840000
0(
b101000001 ,
#12860000
1(
#12880000
0(
b101000010 ,
#12900000
1(
#12920000
0(
b101000011 ,
#12940000
1(
#12960000
0(
b101000100 ,
#12980000
1(
#13000000
0(
b101000101 ,
#13020000
1(
#13040000
0(
b101000110 ,
#13060000
1(
#13080000
0(
b101000111 ,
#13100000
1(
#13120000
0(
b101001000 ,
#13140000
1(
#13160000
0(
b101001001 ,
#13180000
1(
#13200000
0(
b101001010 ,
#13220000
1(
#13240000
0(
b101001011 ,
#13260000
1(
#13280000
0(
b101001100 ,
#13300000
1(
#13320000
0(
b101001101 ,
#13340000
1(
#13360000
0(
b101001110 ,
#13380000
1(
#13400000
0(
b101001111 ,
#13420000
1(
#13440000
0(
b101010000 ,
#13460000
1(
#13480000
0(
b101010001 ,
#13500000
1(
#13520000
0(
b101010010 ,
#13540000
1(
#13560000
0(
b101010011 ,
#13580000
1(
#13600000
0(
b101010100 ,
#13620000
1(
#13640000
0(
b101010101 ,
#13660000
1(
#13680000
0(
b101010110 ,
#13700000
1(
#13720000
0(
b101010111 ,
#13740000
1(
#13760000
0(
b101011000 ,
#13780000
1(
#13800000
0(
b101011001 ,
#13820000
1(
#13840000
0(
b101011010 ,
#13860000
1(
#13880000
0(
b101011011 ,
#13900000
1(
#13920000
0(
b101011100 ,
#13940000
1(
#13960000
0(
b101011101 ,
#13980000
1(
#14000000
0(
b101011110 ,
#14020000
1(
#14040000
0(
b101011111 ,
#14060000
1(
#14080000
0(
b101100000 ,
#14100000
1(
#14120000
0(
b101100001 ,
#14140000
1(
#14160000
0(
b101100010 ,
#14180000
1(
#14200000
0(
b101100011 ,
#14220000
1(
#14240000
0(
b101100100 ,
#14260000
1(
#14280000
0(
b101100101 ,
#14300000
1(
#14320000
0(
b101100110 ,
#14340000
1(
#14360000
0(
b101100111 ,
#14380000
1(
#14400000
0(
b101101000 ,
#14420000
1(
#14440000
0(
b101101001 ,
#14460000
1(
#14480000
0(
b101101010 ,
#14500000
1(
#14520000
0(
b101101011 ,
#14540000
1(
#14560000
0(
b101101100 ,
#14580000
1(
#14600000
0(
b101101101 ,
#14620000
1(
#14640000
0(
b101101110 ,
#14660000
1(
#14680000
0(
b101101111 ,
#14700000
1(
#14720000
0(
b101110000 ,
#14740000
1(
#14760000
0(
b101110001 ,
#14780000
1(
#14800000
0(
b101110010 ,
#14820000
1(
#14840000
0(
b101110011 ,
#14860000
1(
#14880000
0(
b101110100 ,
#14900000
1(
#14920000
0(
b101110101 ,
#14940000
1(
#14960000
0(
b101110110 ,
#14980000
1(
#15000000
0(
b101110111 ,
#15020000
1(
#15040000
0(
b101111000 ,
#15060000
1(
#15080000
0(
b101111001 ,
#15100000
1(
#15120000
0(
b101111010 ,
#15140000
1(
#15160000
0(
b101111011 ,
#15180000
1(
#15200000
0(
b101111100 ,
#15220000
1(
#15240000
0(
b101111101 ,
#15260000
1(
#15280000
0(
b101111110 ,
#15300000
1(
#15320000
0(
b101111111 ,
#15340000
1(
#15360000
0(
b110000000 ,
#15380000
1(
#15400000
0(
b110000001 ,
#15420000
1(
#15440000
0(
b110000010 ,
#15460000
1(
#15480000
0(
b110000011 ,
#15500000
1(
#15520000
0(
b110000100 ,
#15540000
1(
#15560000
0(
b110000101 ,
#15580000
1(
#15600000
0(
b110000110 ,
#15620000
1(
#15640000
0(
b110000111 ,
#15660000
1(
#15680000
0(
b110001000 ,
#15700000
1(
#15720000
0(
b110001001 ,
#15740000
1(
#15760000
0(
b110001010 ,
#15780000
1(
#15800000
0(
b110001011 ,
#15820000
1(
#15840000
0(
b110001100 ,
#15860000
1(
#15880000
0(
b110001101 ,
#15900000
1(
#15920000
0(
b110001110 ,
#15940000
1(
#15960000
0(
b110001111 ,
#15980000
1(
#16000000
0(
b110010000 ,
#16020000
1(
#16040000
0(
b110010001 ,
#16060000
1(
#16080000
0(
b110010010 ,
#16100000
1(
#16120000
0(
b110010011 ,
#16140000
1(
#16160000
0(
b110010100 ,
#16180000
1(
#16200000
0(
b110010101 ,
#16220000
1(
#16240000
0(
b110010110 ,
#16260000
1(
#16280000
0(
b110010111 ,
#16300000
1(
#16320000
0(
b110011000 ,
#16340000
1(
#16360000
0(
b110011001 ,
#16380000
1(
#16400000
0(
b110011010 ,
#16420000
1(
#16440000
0(
b110011011 ,
#16460000
1(
#16480000
0(
b110011100 ,
#16500000
1(
#16520000
0(
b110011101 ,
#16540000
1(
#16560000
0(
b110011110 ,
#16580000
1(
#16600000
0(
b110011111 ,
#16620000
1(
#16640000
0(
b110100000 ,
#16660000
1(
#16680000
0(
b110100001 ,
#16700000
1(
#16720000
0(
b110100010 ,
#16740000
1(
#16760000
0(
b110100011 ,
#16780000
1(
#16800000
0(
b110100100 ,
#16820000
1(
#16840000
0(
b110100101 ,
#16860000
1(
#16880000
0(
b110100110 ,
#16900000
1(
#16920000
0(
b110100111 ,
#16940000
1(
#16960000
0(
b110101000 ,
#16980000
1(
#17000000
0(
b110101001 ,
#17020000
1(
#17040000
0(
b110101010 ,
#17060000
1(
#17080000
0(
b110101011 ,
#17100000
1(
#17120000
0(
b110101100 ,
#17140000
1(
#17160000
0(
b110101101 ,
#17180000
1(
#17200000
0(
b110101110 ,
#17220000
1(
#17240000
0(
b110101111 ,
#17260000
1(
#17280000
0(
b110110000 ,
#17300000
1(
#17320000
0(
b110110001 ,
#17340000
1(
#17360000
0(
b110110010 ,
#17380000
1(
#17400000
0(
b110110011 ,
#17420000
1(
#17440000
0(
b110110100 ,
#17460000
1(
#17480000
0(
b110110101 ,
#17500000
1(
#17520000
0(
b110110110 ,
#17540000
1(
#17560000
0(
b110110111 ,
#17580000
1(
#17600000
0(
b110111000 ,
#17620000
1(
#17640000
0(
b110111001 ,
#17660000
1(
#17680000
0(
b110111010 ,
#17700000
1(
#17720000
0(
b110111011 ,
#17740000
1(
#17760000
0(
b110111100 ,
#17780000
1(
#17800000
0(
b110111101 ,
#17820000
1(
#17840000
0(
b110111110 ,
#17860000
1(
#17880000
0(
b110111111 ,
#17900000
1(
#17920000
0(
b111000000 ,
#17940000
1(
#17960000
0(
b111000001 ,
#17980000
1(
#18000000
0(
b111000010 ,
#18020000
1(
#18040000
0(
b111000011 ,
#18060000
1(
#18080000
0(
b111000100 ,
#18100000
1(
#18120000
0(
b111000101 ,
#18140000
1(
#18160000
0(
b111000110 ,
#18180000
1(
#18200000
0(
b111000111 ,
#18220000
1(
#18240000
0(
b111001000 ,
#18260000
1(
#18280000
0(
b111001001 ,
#18300000
1(
#18320000
0(
b111001010 ,
#18340000
1(
#18360000
0(
b111001011 ,
#18380000
1(
#18400000
0(
b111001100 ,
#18420000
1(
#18440000
0(
b111001101 ,
#18460000
1(
#18480000
0(
b111001110 ,
#18500000
1(
#18520000
0(
b111001111 ,
#18540000
1(
#18560000
0(
b111010000 ,
#18580000
1(
#18600000
0(
b111010001 ,
#18620000
1(
#18640000
0(
b111010010 ,
#18660000
1(
#18680000
0(
b111010011 ,
#18700000
1(
#18720000
0(
b111010100 ,
#18740000
1(
#18760000
0(
b111010101 ,
#18780000
1(
#18800000
0(
b111010110 ,
#18820000
1(
#18840000
0(
b111010111 ,
#18860000
1(
#18880000
0(
b111011000 ,
#18900000
1(
#18920000
0(
b111011001 ,
#18940000
1(
#18960000
0(
b111011010 ,
#18980000
1(
#19000000
0(
b111011011 ,
#19020000
1(
#19040000
0(
b111011100 ,
#19060000
1(
#19080000
0(
b111011101 ,
#19100000
1(
#19120000
0(
b111011110 ,
#19140000
1(
#19160000
0(
b111011111 ,
#19180000
1(
#19200000
0(
b111100000 ,
#19220000
1(
#19240000
0(
b111100001 ,
#19260000
1(
#19280000
0(
b111100010 ,
#19300000
1(
#19320000
0(
b111100011 ,
#19340000
1(
#19360000
0(
b111100100 ,
#19380000
1(
#19400000
0(
b111100101 ,
#19420000
1(
#19440000
0(
b111100110 ,
#19460000
1(
#19480000
0(
b111100111 ,
#19500000
1(
#19520000
0(
b111101000 ,
#19540000
1(
#19560000
0(
b111101001 ,
#19580000
1(
#19600000
0(
b111101010 ,
#19620000
1(
#19640000
0(
b111101011 ,
#19660000
1(
#19680000
0(
b111101100 ,
#19700000
1(
#19720000
0(
b111101101 ,
#19740000
1(
#19760000
0(
b111101110 ,
#19780000
1(
#19800000
0(
b111101111 ,
#19820000
1(
#19840000
0(
b111110000 ,
#19860000
1(
#19880000
0(
b111110001 ,
#19900000
1(
#19920000
0(
b111110010 ,
#19940000
1(
#19960000
0(
b111110011 ,
#19980000
1(
#20000000
0(
b111110100 ,
#20020000
1(
#20040000
0(
b111110101 ,
#20060000
1(
#20080000
0(
b111110110 ,
#20100000
1(
#20120000
0(
b111110111 ,
#20140000
1(
#20160000
0(
b111111000 ,
#20180000
1(
#20200000
0(
b111111001 ,
#20220000
1(
#20240000
0(
b111111010 ,
#20260000
1(
#20280000
0(
b111111011 ,
#20300000
1(
#20320000
0(
b111111100 ,
#20340000
1(
#20360000
0(
b111111101 ,
#20380000
1(
#20400000
0(
b111111110 ,
#20420000
1(
#20440000
0(
b111111111 ,
#20460000
1(
#20480000
0(
b1000000000 ,
#20500000
1(
#20520000
0(
b1000000001 ,
#20540000
1(
#20560000
0(
b1000000010 ,
#20580000
1(
#20600000
0(
b1000000011 ,
#20620000
1(
#20640000
0(
b1000000100 ,
#20660000
1(
#20680000
0(
b1000000101 ,
#20700000
1(
#20720000
0(
b1000000110 ,
#20740000
1(
#20760000
0(
b1000000111 ,
#20780000
1(
#20800000
0(
b1000001000 ,
#20820000
1(
#20840000
0(
b1000001001 ,
#20860000
1(
#20880000
0(
b1000001010 ,
#20900000
1(
#20920000
0(
b1000001011 ,
#20940000
1(
#20960000
0(
b1000001100 ,
#20980000
1(
#21000000
0(
b1000001101 ,
#21020000
1(
#21040000
0(
b1000001110 ,
#21060000
1(
#21080000
0(
b1000001111 ,
#21100000
1(
#21120000
0(
b1000010000 ,
#21140000
1(
#21160000
0(
b1000010001 ,
#21180000
1(
#21200000
0(
b1000010010 ,
#21220000
1(
#21240000
0(
b1000010011 ,
#21260000
1(
#21280000
0(
b1000010100 ,
#21300000
1(
#21320000
0(
b1000010101 ,
#21340000
1(
#21360000
0(
b1000010110 ,
#21380000
1(
#21400000
0(
b1000010111 ,
#21420000
1(
#21440000
0(
b1000011000 ,
#21460000
1(
#21480000
0(
b1000011001 ,
#21500000
1(
#21520000
0(
b1000011010 ,
#21540000
1(
#21560000
0(
b1000011011 ,
#21580000
1(
#21600000
0(
b1000011100 ,
#21620000
1(
#21640000
0(
b1000011101 ,
#21660000
1(
#21680000
0(
b1000011110 ,
#21700000
1(
#21720000
0(
b1000011111 ,
#21740000
1(
#21760000
0(
b1000100000 ,
#21780000
1(
#21800000
0(
b1000100001 ,
#21820000
1(
#21840000
0(
b1000100010 ,
#21860000
1(
#21880000
0(
b1000100011 ,
#21900000
1(
#21920000
0(
b1000100100 ,
#21940000
1(
#21960000
0(
b1000100101 ,
#21980000
1(
#22000000
0(
b1000100110 ,
#22020000
1(
#22040000
0(
b1000100111 ,
#22060000
1(
#22080000
0(
b1000101000 ,
#22100000
1(
#22120000
0(
b1000101001 ,
#22140000
1(
#22160000
0(
b1000101010 ,
#22180000
1(
#22200000
0(
b1000101011 ,
#22220000
1(
#22240000
0(
b1000101100 ,
#22260000
1(
#22280000
0(
b1000101101 ,
#22300000
1(
#22320000
0(
b1000101110 ,
#22340000
1(
#22360000
0(
b1000101111 ,
#22380000
1(
#22400000
0(
b1000110000 ,
#22420000
1(
#22440000
0(
b1000110001 ,
#22460000
1(
#22480000
0(
b1000110010 ,
#22500000
1(
#22520000
0(
b1000110011 ,
#22540000
1(
#22560000
0(
b1000110100 ,
#22580000
1(
#22600000
0(
b1000110101 ,
#22620000
1(
#22640000
0(
b1000110110 ,
#22660000
1(
#22680000
0(
b1000110111 ,
#22700000
1(
#22720000
0(
b1000111000 ,
#22740000
1(
#22760000
0(
b1000111001 ,
#22780000
1(
#22800000
0(
b1000111010 ,
#22820000
1(
#22840000
0(
b1000111011 ,
#22860000
1(
#22880000
0(
b1000111100 ,
#22900000
1(
#22920000
0(
b1000111101 ,
#22940000
1(
#22960000
0(
b1000111110 ,
#22980000
1(
#23000000
0(
b1000111111 ,
#23020000
1(
#23040000
0(
b1001000000 ,
#23060000
1(
#23080000
0(
b1001000001 ,
#23100000
1(
#23120000
0(
b1001000010 ,
#23140000
1(
#23160000
0(
b1001000011 ,
#23180000
1(
#23200000
0(
b1001000100 ,
#23220000
1(
#23240000
0(
b1001000101 ,
#23260000
1(
#23280000
0(
b1001000110 ,
#23300000
1(
#23320000
0(
b1001000111 ,
#23340000
1(
#23360000
0(
b1001001000 ,
#23380000
1(
#23400000
0(
b1001001001 ,
#23420000
1(
#23440000
0(
b1001001010 ,
#23460000
1(
#23480000
0(
b1001001011 ,
#23500000
1(
#23520000
0(
b1001001100 ,
#23540000
1(
#23560000
0(
b1001001101 ,
#23580000
1(
#23600000
0(
b1001001110 ,
#23620000
1(
#23640000
0(
b1001001111 ,
#23660000
1(
#23680000
0(
b1001010000 ,
#23700000
1(
#23720000
0(
b1001010001 ,
#23740000
1(
#23760000
0(
b1001010010 ,
#23780000
1(
#23800000
0(
b1001010011 ,
#23820000
1(
