01_Boolean_Logic/08_Not16/Not16_tb.vcd
$date
	Tue Nov  5 07:37:00 2024
$end
$version
	Icarus Verilog
$end
$timescale
	1ps
$end
$scope module Not16_tb $end
$var wire 16 ! out_cmp [15:0] $end
$var wire 16 " out [0:15] $end
$var reg 1 # fail $end
$var reg 16 $ in [0:15] $end
$var reg 16 % n [15:0] $end
$scope module NOT16 $end
$var wire 16 & in [15:0] $end
$var wire 16 ' out [15:0] $end
$scope module not00 $end
$var wire 1 ( in $end
$var wire 1 ) out $end
$upscope $end
$scope module not01 $end
$var wire 1 * in $end
$var wire 1 + out $end
$upscope $end
$scope module not02 $end
$var wire 1 , in $end
$var wire 1 - out $end
$upscope $end
$scope module not03 $end
$var wire 1 . in $end
$var wire 1 / out $end
$upscope $end
$scope module not04 $end
$var wire 1 0 in $end
$var wire 1 1 out $end
$upscope $end
$scope module not05 $end
$var wire 1 2 in $end
$var wire 1 3 out $end
$upscope $end
$scope module not06 $end
$var wire 1 4 in $end
$var wire 1 5 out $end
$upscope $end
$scope module not07 $end
$var wire 1 6 in $end
$var wire 1 7 out $end
$upscope $end
$scope module not08 $end
$var wire 1 8 in $end
$var wire 1 9 out $end
$upscope $end
$scope module not09 $end
$var wire 1 : in $end
$var wire 1 ; out $end
$upscope $end
$scope module not10 $end
$var wire 1 < in $end
$var wire 1 = out $end
$upscope $end
$scope module not11 $end
$var wire 1 > in $end
$var wire 1 ? out $end
$upscope $end
$scope module not12 $end
$var wire 1 @ in $end
$var wire 1 A out $end
$upscope $end
$scope module not13 $end
$var wire 1 B in $end
$var wire 1 C out $end
$upscope $end
$scope module not14 $end
$var wire 1 D in $end
$var wire 1 E out $end
$upscope $end
$scope module not15 $end
$var wire 1 F in $end
$var wire 1 G out $end
$upscope $end
$upscope $end
$scope task check $end
$upscope $end
$upscope $end
$enddefinitions $end
$comment Show the parameter values. $end
$dumpall
$end
#0
$dumpvars
1G
0F
1E
0D
0C
1B
0A
1@
1?
0>
0=
1<
1;
0:
09
18
17
06
15
04
03
12
11
00
1/
0.
0-
1,
1+
0*
1)
0(
b1100101011011011 '
b11010100100100 &
b0 %
b11010100100100 $
0#
b1100101011011011 "
b1100101011011011 !
$end
#1
0)
1-
13
07
19
0;
0?
1C
b1010000101111110 "
b1010000101111110 '
0E
1(
0,
02
16
08
1:
1>
0B
1D
b1010000101111110 !
b101111010000001 $
b101111010000001 &
b1 %
#2
0/
17
1?
b10100111110110 "
b10100111110110 '
0G
1.
06
0>
1F
b10100111110110 !
b1101011000001001 $
b1101011000001001 &
b10 %
#3
0+
1/
03
05
b1010100110011100 "
b1010100110011100 '
1G
1*
0.
12
14
0F
b1010100110011100 !
b101011001100011 $
b101011001100011 &
b11 %
#4
1+
0-
0/
13
15
09
1=
0?
b1000010011110010 "
b1000010011110010 '
0C
0*
1,
1.
02
04
18
0<
1>
1B
b1000010011110010 !
b111101100001101 $
b111101100001101 &
b100 %
#5
07
1;
1C
1E
b110011001110010 "
b110011001110010 '
0G
16
0:
0B
0D
1F
b110011001110010 !
b1001100110001101 $
b1001100110001101 &
b101 %
#6
1/
03
05
17
19
0=
1?
b111101110011010 "
b111101110011010 '
1A
0.
12
14
06
08
1<
0>
0@
b111101110011010 !
b1000010001100101 $
b1000010001100101 &
b110 %
#7
1)
0+
1-
01
13
15
0;
1=
0A
0E
b1010110111101101 "
b1010110111101101 '
1G
0(
1*
0,
10
02
04
1:
0<
1@
1D
0F
b1010110111101101 !
b101001000010010 $
b101001000010010 &
b111 %
#8
0)
1+
11
09
1A
0C
b1110011111110 "
b1110011111110 '
0G
1(
0*
00
18
0@
1B
1F
b1110011111110 !
b1110001100000001 $
b1110001100000001 &
b1000 %
#9
0-
0/
1;
0=
0?
b11001011110010 "
b11001011110010 '
1C
1,
1.
0:
1<
1>
0B
b11001011110010 !
b1100110100001101 $
b1100110100001101 &
b1001 %
#10
1)
0+
1/
01
03
05
1=
1?
0A
b111010001001 "
b111010001001 '
0C
0(
1*
0.
10
12
14
0<
0>
1@
1B
b111010001001 !
b1111000101110110 $
b1111000101110110 &
b1010 %
#11
0)
1+
0/
15
0=
0?
1A
b11001011000010 "
b11001011000010 '
1C
1(
0*
1.
04
1<
1>
0@
0B
b11001011000010 !
b1100110100111101 $
b1100110100111101 &
b1011 %
#12
11
05
07
0;
1?
0A
b1010100000010010 "
b1010100000010010 '
1G
00
14
16
1:
0>
1@
0F
b1010100000010010 !
b101011111101101 $
b101011111101101 &
b1100 %
#13
1)
13
15
0C
b100001110011 "
b100001110011 '
0G
0(
02
04
1B
1F
b100001110011 !
b1111011110001100 $
b1111011110001100 &
b1101 %
#14
0)
1-
01
03
05
1;
1=
0?
b1011000000110 "
b1011000000110 '
1A
1(
0,
10
12
14
0:
0<
1>
0@
b1011000000110 !
b1110100111111001 $
b1110100111111001 &
b1110 %
#15
1)
0+
0-
1/
11
13
19
0=
1?
1E
b1101101100111001 "
b1101101100111001 '
1G
0(
1*
1,
0.
00
02
08
1<
0>
0D
0F
b1101101100111001 !
b10010011000110 $
b10010011000110 &
b1111 %
#16
0)
1+
1C
b111101100111010 "
b111101100111010 '
0G
1(
0*
0B
1F
b111101100111010 !
b1000010011000101 $
b1000010011000101 &
b10000 %
#17
1)
0+
1-
0/
03
15
0;
1=
0A
b10110101010101 "
b10110101010101 '
0E
0(
1*
0,
1.
12
04
1:
0<
1@
1D
b10110101010101 !
b1101001010101010 $
b1101001010101010 &
b10001 %
#18
0)
1+
0-
1/
05
09
0=
b100000011010 "
b100000011010 '
0C
1(
0*
1,
0.
14
18
1<
1B
b100000011010 !
b1111011111100101 $
b1111011111100101 &
b10010 %
#19
0+
01
17
19
1=
b1000110110001000 "
b1000110110001000 '
1G
1*
10
06
08
0<
0F
b1000110110001000 !
b111001001110111 $
b111001001110111 &
b10011 %
#20
1)
1-
13
15
0=
1C
b10100111101101 "
b10100111101101 '
0G
0(
0,
02
04
1<
0B
1F
b10100111101101 !
b1101011000010010 $
b1101011000010010 &
b10100 %
#21
0)
0-
0/
11
07
09
1=
b10010001110000 "
b10010001110000 '
0?
1(
1,
1.
00
16
18
0<
1>
b10010001110000 !
b1101101110001111 $
b1101101110001111 &
b10101 %
#22
1)
1-
1/
01
03
05
1;
1A
0C
b1001011000001101 "
b1001011000001101 '
1G
0(
0,
0.
10
12
14
0:
0@
1B
0F
b1001011000001101 !
b110100111110010 $
b110100111110010 &
b10110 %
#23
0-
0/
11
13
19
0;
0=
1?
0A
1C
1E
b110100100110001 "
b110100100110001 '
0G
1,
1.
00
02
08
1:
1<
0>
1@
0B
0D
1F
b110100100110001 !
b1001011011001110 $
b1001011011001110 &
b10111 %
#24
1+
1-
03
1=
0?
0C
0E
b1000010100010111 "
b1000010100010111 '
1G
0*
0,
12
0<
1>
1B
1D
0F
b1000010100010111 !
b111101011101000 $
b111101011101000 &
b11000 %
#25
0)
0-
1/
13
0=
1A
b1011000100111010 "
b1011000100111010 '
1C
1(
1,
0.
02
1<
0@
0B
b1011000100111010 !
b100111011000101 $
b100111011000101 &
b11001 %
#26
1)
0/
01
17
09
1;
b1011011010100011 "
b1011011010100011 '
1=
0(
1.
10
06
18
0:
0<
b1011011010100011 !
b100100101011100 $
b100100101011100 &
b11010 %
#27
0)
03
15
07
19
0C
b1101011101000010 "
b1101011101000010 '
1E
1(
12
04
16
08
1B
0D
b1101011101000010 !
b10100010111101 $
b10100010111101 &
b11011 %
#28
11
17
0A
1C
b1010011111010010 "
b1010011111010010 '
0E
00
06
1@
0B
1D
b1010011111010010 !
b101100000101101 $
b101100000101101 &
b11100 %
#29
1/
05
0;
0=
1?
1A
0C
b1101100110011010 "
b1101100110011010 '
1E
0.
14
1:
1<
0>
0@
1B
0D
b1101100110011010 !
b10011001100101 $
b10011001100101 &
b11101 %
#30
0+
1-
1=
b1001110110011100 "
b1001110110011100 '
0E
1*
0,
0<
1D
b1001110110011100 !
b110001001100011 $
b110001001100011 &
b11110 %
#31
1)
0/
13
15
09
0=
1C
1E
b111100011110101 "
b111100011110101 '
0G
0(
1.
02
04
18
1<
0B
0D
1F
b111100011110101 !
b1000011100001010 $
b1000011100001010 &
b11111 %
#32
1+
1/
07
19
1=
0C
b1101110101111111 "
b1101110101111111 '
1G
0*
0.
16
08
0<
1B
0F
b1101110101111111 !
b10001010000000 $
b10001010000000 &
b100000 %
#33
03
17
09
b1101111011011111 "
b1101111011011111 '
1;
12
06
18
0:
b1101111011011111 !
b10000100100000 $
b10000100100000 &
b100001 %
#34
0+
0/
07
0=
1C
b1011101001010101 "
b1011101001010101 '
0E
1*
1.
16
1<
0B
1D
b1011101001010101 !
b100010110101010 $
b100010110101010 &
b100010 %
#35
0)
1+
0-
01
13
19
0?
b11001101100010 "
b11001101100010 '
0G
1(
0*
1,
10
02
08
1>
1F
b11001101100010 !
b1100110010011101 $
b1100110010011101 &
b100011 %
#36
1)
0+
1/
0;
0A
0C
1E
b1100000101101001 "
b1100000101101001 '
1G
0(
1*
0.
1:
1@
1B
0D
0F
b1100000101101001 !
b11111010010110 $
b11111010010110 &
b100100 %
#37
0)
1-
17
1;
1=
b100011111101100 "
b100011111101100 '
0G
1(
0,
06
0:
0<
1F
b100011111101100 !
b1011100000010011 $
b1011100000010011 &
b100101 %
#38
1+
0-
0/
11
b1100011111110010 "
b1100011111110010 '
1G
0*
1,
1.
00
0F
b1100011111110010 !
b11100000001101 $
b11100000001101 &
b100110 %
#39
0+
1-
1/
01
05
0;
0=
1?
1C
0E
b10100110101100 "
b10100110101100 '
0G
1*
0,
0.
10
14
1:
1<
0>
0B
1D
1F
b10100110101100 !
b1101011001010011 $
b1101011001010011 &
b100111 %
#40
0/
11
03
09
1;
b10001010010100 "
b10001010010100 '
0?
1.
00
12
18
0:
1>
b10001010010100 !
b1101110101101011 $
b1101110101101011 &
b101000 %
#41
1+
0-
1/
01
13
07
19
0;
1=
1A
0C
1E
b1101010100101010 "
b1101010100101010 '
1G
0*
1,
0.
10
02
16
08
1:
0<
0@
1B
0D
0F
b1101010100101010 !
b10101011010101 $
b10101011010101 &
b101001 %
#42
1)
0+
1-
11
15
17
1C
b1011010111111101 "
b1011010111111101 '
0E
0(
1*
0,
00
04
06
0B
1D
b1011010111111101 !
b100101000000010 $
b100101000000010 &
b101010 %
#43
0-
0/
03
07
0=
0A
0C
b1100000101010001 "
b1100000101010001 '
1E
1,
1.
12
16
1<
1@
1B
0D
b1100000101010001 !
b11111010101110 $
b11111010101110 &
b101011 %
#44
0)
1+
01
13
17
09
1;
1=
1A
0E
b1011011100010 "
b1011011100010 '
0G
1(
0*
10
02
06
18
0:
0<
0@
1D
1F
b1011011100010 !
b1110100100011101 $
b1110100100011101 &
b101100 %
#45
0+
11
05
07
19
0;
1?
0A
b1000110100110000 "
b1000110100110000 '
1G
1*
00
14
16
08
1:
0>
1@
0F
b1000110100110000 !
b111001011001111 $
b111001011001111 &
b101101 %
#46
1-
1/
03
15
17
09
1;
0?
1A
b1011011011011100 "
b1011011011011100 '
1C
0,
0.
12
04
06
18
0:
1>
0@
0B
b1011011011011100 !
b100100100100011 $
b100100100100011 &
b101110 %
#47
1)
0/
13
0=
1?
b1001101011110101 "
b1001101011110101 '
0C
0(
1.
02
1<
0>
1B
b1001101011110101 !
b110010100001010 $
b110010100001010 &
b101111 %
#48
05
07
19
0;
1=
0?
1C
b1111010100110101 "
b1111010100110101 '
1E
14
16
08
1:
0<
1>
0B
0D
b1111010100110101 !
b101011001010 $
b101011001010 &
b110000 %
#49
1+
0-
01
03
15
17
1;
0=
b1011001111000011 "
b1011001111000011 '
0E
0*
1,
10
12
04
06
0:
1<
1D
b1011001111000011 !
b100110000111100 $
b100110000111100 &
b110001 %
#50
0+
1-
1/
05
07
09
0A
0C
1E
b100001000001101 "
b100001000001101 '
0G
1*
0,
0.
14
16
18
1@
1B
0D
1F
b100001000001101 !
b1011110111110010 $
b1011110111110010 &
b110010 %
#51
0/
11
13
15
1=
1?
1A
0E
b1001111001110101 "
b1001111001110101 '
1G
1.
00
02
04
0<
0>
0@
1D
0F
b1001111001110101 !
b110000110001010 $
b110000110001010 &
b110011 %
#52
0)
1+
1/
05
17
0;
0A
1E
b100110010111110 "
b100110010111110 '
0G
1(
0*
0.
14
06
1:
1@
0D
1F
b100110010111110 !
b1011001101000001 $
b1011001101000001 &
b110100 %
#53
1)
0/
01
07
19
1;
0=
b1100101100100111 "
b1100101100100111 '
1G
0(
1.
10
16
08
0:
1<
0F
b1100101100100111 !
b11010011011000 $
b11010011011000 &
b110101 %
#54
03
17
09
0;
1=
0E
b110010000111 "
b110010000111 '
0G
12
06
18
1:
0<
1D
1F
b110010000111 !
b1111001101111000 $
b1111001101111000 &
b110110 %
#55
0)
11
13
15
07
19
1C
1E
b1110110101110110 "
b1110110101110110 '
1G
1(
00
02
04
16
08
0B
0D
0F
b1110110101110110 !
b1001010001001 $
b1001010001001 &
b110111 %
#56
0+
03
05
09
1;
0=
0?
b1111001000010100 "
b1111001000010100 '
1A
1*
12
14
18
0:
1<
1>
0@
b1111001000010100 !
b110111101011 $
b110111101011 &
b111000 %
#57
1)
0-
1/
01
15
1?
0C
b1001101001001001 "
b1001101001001001 '
0E
0(
1,
0.
10
04
0>
1B
1D
b1001101001001001 !
b110010110110110 $
b110010110110110 &
b111001 %
#58
11
13
05
1=
0?
0A
b11000111001 "
b11000111001 '
0G
00
02
14
0<
1>
1@
1F
b11000111001 !
b1111100111000110 $
b1111100111000110 &
b111010 %
#59
0/
03
15
0;
1?
1C
1E
b1110110001010001 "
b1110110001010001 '
1G
1.
12
04
1:
0>
0B
0D
0F
b1110110001010001 !
b1001110101110 $
b1001110101110 &
b111011 %
#60
1+
01
19
b1111110101000011 "
b1111110101000011 '
1A
0*
10
08
0@
b1111110101000011 !
b1010111100 $
b1010111100 &
b111100 %
#61
0+
1-
11
17
09
1;
0=
0?
0A
0E
b10001011010101 "
b10001011010101 '
0G
1*
0,
00
06
18
0:
1<
1>
1@
1D
1F
b10001011010101 !
b1101110100101010 $
b1101110100101010 &
b111101 %
#62
0)
13
19
0;
1=
b110010111110100 "
b110010111110100 '
1E
1(
02
08
1:
0<
0D
b110010111110100 !
b1001101000001011 $
b1001101000001011 &
b111110 %
#63
1+
1/
01
03
05
0=
b100000110001110 "
b100000110001110 '
0C
0*
0.
10
12
14
1<
1B
b100000110001110 !
b1011111001110001 $
b1011111001110001 &
b111111 %
#64
0-
11
13
15
07
09
1;
1=
1?
1A
1C
0E
b1011111001111010 "
b1011111001111010 '
1G
1,
00
02
04
16
18
0:
0<
0>
0@
0B
1D
0F
b1011111001111010 !
b100000110000101 $
b100000110000101 &
b1000000 %
#65
0+
0/
05
17
0=
b1010101010110000 "
b1010101010110000 '
0A
1*
1.
14
06
1<
1@
b1010101010110000 !
b101010101001111 $
b101010101001111 &
b1000001 %
#66
1-
01
03
15
19
1=
1A
b1001111111000100 "
b1001111111000100 '
0C
0,
10
12
04
08
0<
0@
1B
b1001111111000100 !
b110000000111011 $
b110000000111011 &
b1000010 %
#67
1)
09
0;
0A
b1100110011000101 "
b1100110011000101 '
1E
0(
18
1:
1@
0D
b1100110011000101 !
b11001100111010 $
b11001100111010 &
b1000011 %
#68
0-
05
b1100110110000001 "
b1100110110000001 '
19
1,
14
08
b1100110110000001 !
b11001001111110 $
b11001001111110 &
b1000100 %
#69
0)
1+
1/
13
15
09
0?
1A
1C
b1011010011101010 "
b1011010011101010 '
0E
1(
0*
0.
02
04
18
1>
0@
0B
1D
b1011010011101010 !
b100101100010101 $
b100101100010101 &
b1000101 %
#70
1-
03
05
07
0A
1E
b110010000001110 "
b110010000001110 '
0G
0,
12
14
16
1@
0D
1F
b110010000001110 !
b1001101111110001 $
b1001101111110001 &
b1000110 %
#71
0/
13
1A
0E
b1011010000100110 "
b1011010000100110 '
1G
1.
02
0@
1D
0F
b1011010000100110 !
b100101111011001 $
b100101111011001 &
b1000111 %
#72
1)
0+
1/
11
03
17
0=
1?
b1111100010011101 "
b1111100010011101 '
1E
0(
1*
0.
00
12
06
1<
0>
0D
b1111100010011101 !
b11101100010 $
b11101100010 &
b1001000 %
#73
1+
0-
0/
13
1=
0?
0A
0C
0E
b10010110011 "
b10010110011 '
0G
0*
1,
1.
02
0<
1>
1@
1B
1D
1F
b10010110011 !
b1111101101001100 $
b1111101101001100 &
b1001001 %
#74
0)
0+
01
15
07
1;
0=
1?
1C
b1010101001100000 "
b1010101001100000 '
1G
1(
1*
10
04
16
0:
1<
0>
0B
0F
b1010101001100000 !
b101010110011111 $
b101010110011111 &
b1001010 %
#75
11
1=
1A
0C
1E
b101111001110000 "
b101111001110000 '
0G
00
0<
0@
1B
0D
1F
b101111001110000 !
b1010000110001111 $
b1010000110001111 &
b1001011 %
#76
1)
1+
1-
01
03
05
b101011000000111 "
b101011000000111 '
0?
0(
0*
0,
10
12
14
1>
b101011000000111 !
b1010100111111000 $
b1010100111111000 &
b1001100 %
#77
0)
0+
0-
1/
15
19
1?
0E
b1001111101001000 "
b1001111101001000 '
1G
1(
1*
1,
0.
04
08
0>
1D
0F
b1001111101001000 !
b110000010110111 $
b110000010110111 &
b1001101 %
#78
0/
13
0;
0=
0A
b1010100101100000 "
b1010100101100000 '
1C
1.
02
1:
1<
1@
0B
b1010100101100000 !
b101011010011111 $
b101011010011111 &
b1001110 %
#79
1)
1+
05
17
1;
1E
b110101110100011 "
b110101110100011 '
0G
0(
0*
14
06
0:
0D
1F
b110101110100011 !
b1001010001011100 $
b1001010001011100 &
b1001111 %
#80
0)
0+
1-
1=
1A
b11111110100100 "
b11111110100100 '
0E
1(
1*
0,
0<
0@
1D
b11111110100100 !
b1100000001011011 $
b1100000001011011 &
b1010000 %
#81
1+
11
15
07
09
0;
0=
0A
0C
1E
b1100100001110110 "
b1100100001110110 '
1G
0*
00
04
16
18
1:
1<
1@
1B
0D
0F
b1100100001110110 !
b11011110001001 $
b11011110001001 &
b1010001 %
#82
05
17
19
b1100110110110110 "
b1100110110110110 '
1=
14
06
08
0<
b1100110110110110 !
b11001001001001 $
b11001001001001 &
b1010010 %
#83
1)
1/
01
07
0=
b1100000100101111 "
b1100000100101111 '
0?
0(
0.
10
16
1<
1>
b1100000100101111 !
b11111011010000 $
b11111011010000 &
b1010011 %
#84
0)
0+
0-
1;
1=
1?
1A
1C
0E
b11111100101000 "
b11111100101000 '
0G
1(
1*
1,
0:
0<
0>
0@
0B
1D
1F
b11111100101000 !
b1100000011010111 $
b1100000011010111 &
b1010100 %
#85
1+
1-
17
0=
0?
0A
b1110101110 "
b1110101110 '
0C
0*
0,
06
1<
1>
1@
1B
b1110101110 !
b1111110001010001 $
b1111110001010001 &
b1010101 %
#86
1)
0+
0-
15
07
09
0;
1A
1E
b1101000001101001 "
b1101000001101001 '
1G
0(
1*
1,
04
16
18
1:
0@
0D
0F
b1101000001101001 !
b10111110010110 $
b10111110010110 &
b1010110 %
#87
1+
0/
11
17
0A
b1000000011110011 "
b1000000011110011 '
0E
0*
1.
00
06
1@
1D
b1000000011110011 !
b111111100001100 $
b111111100001100 &
b1010111 %
#88
0+
1-
1/
05
07
19
1A
1C
b11000100111101 "
b11000100111101 '
0G
1*
0,
0.
14
16
08
0@
0B
1F
b11000100111101 !
b1100111011000010 $
b1100111011000010 &
b1011000 %
#89
1+
0/
09
1;
b1001000110111 "
b1001000110111 '
0C
0*
1.
18
0:
1B
b1001000110111 !
b1110110111001000 $
b1110110111001000 &
b1011001 %
#90
0)
0+
0-
1/
01
03
17
19
0;
1=
0A
1C
b1010010110001000 "
b1010010110001000 '
1G
1(
1*
1,
0.
10
12
06
08
1:
0<
1@
0B
0F
b1010010110001000 !
b101101001110111 $
b101101001110111 &
b1011010 %
#91
1+
0/
15
09
1;
0=
1A
0C
b1001011000010 "
b1001011000010 '
0G
0*
1.
04
18
0:
1<
0@
1B
1F
b1001011000010 !
b1110110100111101 $
b1110110100111101 &
b1011011 %
#92
1)
0+
1-
1/
13
0;
1=
0A
b10010011101101 "
b10010011101101 '
1C
0(
1*
0,
0.
02
1:
0<
1@
0B
b10010011101101 !
b1101101100010010 $
b1101101100010010 &
b1011100 %
#93
0-
0/
03
05
19
1;
1?
1A
1E
b1111111110000001 "
b1111111110000001 '
1G
1,
1.
12
14
08
0:
0>
0@
0D
0F
b1111111110000001 !
b1111110 $
b1111110 &
b1011101 %
#94
0)
1+
11
09
b111111010010010 "
b111111010010010 '
0G
1(
0*
00
18
1F
b111111010010010 !
b1000000101101101 $
b1000000101101101 &
b1011110 %
#95
1-
01
15
0;
0=
0C
b1100011000110 "
b1100011000110 '
0E
0,
10
04
1:
1<
1B
1D
b1100011000110 !
b1110011100111001 $
b1110011100111001 &
b1011111 %
#96
0+
0-
13
0?
1C
b111000011100000 "
b111000011100000 '
1E
1*
1,
02
1>
0B
0D
b111000011100000 !
b1000111100011111 $
b1000111100011111 &
b1100000 %
#97
1-
1/
05
07
19
1?
0A
0C
b100100101100 "
b100100101100 '
0E
0,
0.
14
16
08
0>
1@
1B
1D
b100100101100 !
b1111011011010011 $
b1111011011010011 &
b1100001 %
#98
1+
0-
11
15
09
0?
1A
1E
b1101000001111010 "
b1101000001111010 '
1G
0*
1,
00
04
18
1>
0@
0D
0F
b1101000001111010 !
b10111110000101 $
b10111110000101 &
b1100010 %
#99
1)
1-
0/
01
03
05
17
19
1;
1=
1C
b111011110000111 "
b111011110000111 '
0G
0(
0,
1.
10
12
14
06
08
0:
0<
0B
1F
b111011110000111 !
b1000100001111000 $
b1000100001111000 &
b1100011 %
#100
0)
0+
13
09
0A
0E
b1010011010100100 "
b1010011010100100 '
1G
1(
1*
02
18
1@
1D
0F
b1010011010100100 !
b101100101011011 $
b101100101011011 &
b1100100 %
#101
1+
11
0;
b1011010010110110 "
b1011010010110110 '
1A
0*
00
1:
0@
b1011010010110110 !
b100101101001001 $
b100101101001001 &
b1100101 %
#102
0+
0-
01
03
15
19
0=
0C
1E
b101000111000000 "
b101000111000000 '
0G
1*
1,
10
12
04
08
1<
1B
0D
1F
b101000111000000 !
b1010111000111111 $
b1010111000111111 &
b1100110 %
#103
1)
1-
11
b101000011010101 "
b101000011010101 '
09
0(
0,
00
18
b101000011010101 !
b1010111100101010 $
b1010111100101010 &
b1100111 %
#104
1+
01
13
05
1=
1?
0E
b1001110010100111 "
b1001110010100111 '
1G
0*
10
02
14
0<
0>
1D
0F
b1001110010100111 !
b110001101011000 $
b110001101011000 &
b1101000 %
#105
0+
0-
1/
11
15
07
19
1;
0?
0A
b1100011101111001 "
b1100011101111001 '
1E
1*
1,
0.
00
04
16
08
0:
1>
1@
0D
b1100011101111001 !
b11100010000110 $
b11100010000110 &
b1101001 %
#106
0/
0=
1A
b1111001101110001 "
b1111001101110001 '
1C
1.
1<
0@
0B
b1111001101110001 !
b110010001110 $
b110010001110 &
b1101010 %
#107
1+
01
0;
1=
1?
0A
0C
0E
b110101100011 "
b110101100011 '
0G
0*
10
1:
0<
0>
1@
1B
1D
1F
b110101100011 !
b1111001010011100 $
b1111001010011100 &
b1101011 %
#108
0+
1-
03
05
09
1;
0?
1C
b110011000000101 "
b110011000000101 '
1E
1*
0,
12
14
18
0:
1>
0B
0D
b110011000000101 !
b1001100111111010 $
b1001100111111010 &
b1101100 %
#109
0-
1/
11
15
17
19
0=
b100001111011001 "
b100001111011001 '
0C
1,
0.
00
04
06
08
1<
1B
b100001111011001 !
b1011110000100110 $
b1011110000100110 &
b1101101 %
#110
0)
1-
01
05
09
0;
1?
1C
b1110100010001100 "
b1110100010001100 '
1G
1(
0,
10
14
18
1:
0>
0B
0F
b1110100010001100 !
b1011101110011 $
b1011101110011 &
b1101110 %
#111
11
15
07
19
1;
0C
b100101101011100 "
b100101101011100 '
0G
00
04
16
08
0:
1B
1F
b100101101011100 !
b1011010010100011 $
b1011010010100011 &
b1101111 %
#112
0-
0/
17
1=
0?
b101011111010000 "
b101011111010000 '
1A
1,
1.
06
0<
1>
0@
b101011111010000 !
b1010100000101111 $
b1010100000101111 &
b1110000 %
#113
1-
1/
01
07
0;
1?
0A
b110110101001100 "
b110110101001100 '
1C
0,
0.
10
16
1:
0>
1@
0B
b110110101001100 !
b1001001010110011 $
b1001001010110011 &
b1110001 %
#114
0-
0/
13
05
17
0=
0E
b1010100110100000 "
b1010100110100000 '
1G
1,
1.
02
14
06
1<
1D
0F
b1010100110100000 !
b101011001011111 $
b101011001011111 &
b1110010 %
#115
1)
1+
1/
11
09
1;
0?
1A
b1111001010111011 "
b1111001010111011 '
1E
0(
0*
0.
00
18
0:
1>
0@
0D
b1111001010111011 !
b110101000100 $
b110101000100 &
b1110011 %
#116
0)
0+
01
03
07
0A
0C
0E
b1000001000 "
b1000001000 '
0G
1(
1*
10
12
16
1@
1B
1D
1F
b1000001000 !
b1111110111110111 $
b1111110111110111 &
b1110100 %
#117
1-
0/
11
13
19
0;
1?
1E
b1100100100110100 "
b1100100100110100 '
1G
0,
1.
00
02
08
1:
0>
0D
0F
b1100100100110100 !
b11011011001011 $
b11011011001011 &
b1110101 %
#118
1)
0-
1/
03
1=
0?
b1110010100011001 "
b1110010100011001 '
1C
0(
1,
0.
12
0<
1>
0B
b1110010100011001 !
b1101011100110 $
b1101011100110 &
b1110110 %
#119
1-
0/
01
13
17
09
0E
b10010010100101 "
b10010010100101 '
0G
0,
1.
10
02
06
18
1D
1F
b10010010100101 !
b1101101101011010 $
b1101101101011010 &
b1110111 %
#120
0)
1+
11
03
15
1;
1?
b11111011010110 "
b11111011010110 '
1A
1(
0*
00
12
04
0:
0>
0@
b11111011010110 !
b1100000100101001 $
b1100000100101001 &
b1111000 %
#121
0-
05
07
19
0;
b1110100010010 "
b1110100010010 '
0C
1,
14
16
08
1:
1B
b1110100010010 !
b1110001011101101 $
b1110001011101101 &
b1111001 %
#122
1)
0+
1-
01
13
1;
0=
0?
b1001001100100101 "
b1001001100100101 '
1G
0(
1*
0,
10
02
0:
1<
1>
0F
b1001001100100101 !
b110110011011010 $
b110110011011010 &
b1111010 %
#123
0)
1+
0-
1/
11
03
17
0;
1?
0A
1E
b100100110011010 "
b100100110011010 '
0G
1(
0*
1,
0.
00
12
06
1:
0>
1@
0D
1F
b100100110011010 !
b1011011001100101 $
b1011011001100101 &
b1111011 %
#124
01
15
07
1=
1A
b1110101001010 "
b1110101001010 '
0E
10
04
16
0<
0@
1D
b1110101001010 !
b1110001010110101 $
b1110001010110101 &
b1111100 %
#125
0+
0/
13
05
1;
0=
0A
1C
b110101100100000 "
b110101100100000 '
1E
1*
1.
02
14
0:
1<
1@
0B
0D
b110101100100000 !
b1001010011011111 $
b1001010011011111 &
b1111101 %
#126
1+
1-
03
17
09
1=
0?
b1110011010000110 "
b1110011010000110 '
1G
0*
0,
12
06
18
0<
1>
0F
b1110011010000110 !
b1100101111001 $
b1100101111001 &
b1111110 %
#127
1)
0-
1/
11
13
0;
0=
0C
0E
b10111011 "
b10111011 '
0G
0(
1,
0.
00
02
1:
1<
1B
1D
1F
b10111011 !
b1111111101000100 $
b1111111101000100 &
b1111111 %
#128
1-
01
07
19
1;
1A
1C
1E
b1111001100101111 "
b1111001100101111 '
1G
0,
10
16
08
0:
0@
0B
0D
0F
b1111001100101111 !
b110011010000 $
b110011010000 &
b10000000 %
#129
0+
0/
11
03
15
17
09
0;
b1111010011010101 "
b1111010011010101 '
1=
1*
1.
00
12
04
06
18
1:
0<
b1111010011010101 !
b101100101010 $
b101100101010 &
b10000001 %
#130
0)
07
1;
0=
0C
b101001001010100 "
b101001001010100 '
0G
1(
16
0:
1<
1B
1F
b101001001010100 !
b1010110110101011 $
b1010110110101011 &
b10000010 %
#131
1)
0-
13
17
0;
1C
b11000011110001 "
b11000011110001 '
0E
0(
1,
02
06
1:
0B
1D
b11000011110001 !
b1100111100001110 $
b1100111100001110 &
b10000011 %
#132
1+
01
05
07
1;
0C
b101001000100011 "
b101001000100011 '
1E
0*
10
14
16
0:
1B
0D
b101001000100011 !
b1010110111011100 $
b1010110111011100 &
b10000100 %
#133
0+
1-
15
19
b100001101100101 "
b100001101100101 '
0A
1*
0,
04
08
1@
b100001101100101 !
b1011110010011010 $
b1011110010011010 &
b10000101 %
#134
0)
1+
0-
03
05
0;
1=
1?
0E
b1000110100000010 "
b1000110100000010 '
1G
1(
0*
1,
12
14
1:
0<
0>
1D
0F
b1000110100000010 !
b111001011111101 $
b111001011111101 &
b10000110 %
#135
0+
1-
1/
11
13
1A
1C
b1111110100111100 "
b1111110100111100 '
1E
1*
0,
0.
00
02
0@
0B
0D
b1111110100111100 !
b1011000011 $
b1011000011 &
b10000111 %
#136
1)
0-
01
17
09
1;
0=
0?
0C
0E
b1001010101001 "
b1001010101001 '
0G
0(
1,
10
06
18
0:
1<
1>
1B
1D
1F
b1001010101001 !
b1110110101010110 $
b1110110101010110 &
b10001000 %
#137
0/
11
b1011010110001 "
b1011010110001 '
1=
1.
00
0<
b1011010110001 !
b1110100101001110 $
b1110100101001110 &
b10001001 %
#138
0)
1/
03
19
0;
0=
1?
0A
b1000100110011000 "
b1000100110011000 '
1G
1(
0.
12
08
1:
1<
0>
1@
0F
b1000100110011000 !
b111011001100111 $
b111011001100111 &
b10001010 %
#139
1)
1-
0/
13
15
1;
b1100101111110101 "
b1100101111110101 '
1E
0(
0,
1.
02
04
0:
0D
b1100101111110101 !
b11010000001010 $
b11010000001010 &
b10001011 %
#140
0-
1/
01
03
07
09
1=
0?
b100011001001001 "
b100011001001001 '
0G
1,
0.
10
12
16
18
0<
1>
1F
b100011001001001 !
b1011100110110110 $
b1011100110110110 &
b10001100 %
